%YAML 1.1
%TAG !u! tag:unity3d.com,2011:
--- !u!74 &7400000
AnimationClip:
  m_ObjectHideFlags: 0
  m_PrefabParentObject: {fileID: 0}
  m_PrefabInternal: {fileID: 0}
  m_Name: he_eff26
  serializedVersion: 6
  m_Legacy: 0
  m_Compressed: 0
  m_UseHighQualityCurve: 1
  m_RotationCurves: []
  m_CompressedRotationCurves: []
  m_PositionCurves:
  - curve:
      serializedVersion: 2
      m_Curve:
      - time: 0
        value: {x: 0, y: .449999988, z: 0}
        inSlope: {x: -2.83999991, y: 1.72072387, z: 0}
        outSlope: {x: -2.83999991, y: 1.72072387, z: 0}
        tangentMode: 0
      - time: .25
        value: {x: -.709999979, y: .880180955, z: 0}
        inSlope: {x: -3.06285715, y: .514660418, z: 0}
        outSlope: {x: -3.06285715, y: .514660418, z: 0}
        tangentMode: 0
      - time: .600000024
        value: {x: -1.86000001, y: -.300000012, z: 0}
        inSlope: {x: -2.50535727, y: -3.73597288, z: 0}
        outSlope: {x: -2.50535727, y: -3.73597288, z: 0}
        tangentMode: 0
      - time: 1
        value: {x: -2.54999995, y: -1.94000006, z: 0}
        inSlope: {x: -1.7249999, y: -4.10000038, z: 0}
        outSlope: {x: -1.7249999, y: -4.10000038, z: 0}
        tangentMode: 0
      m_PreInfinity: 2
      m_PostInfinity: 2
    path: 
  m_ScaleCurves: []
  m_FloatCurves: []
  m_PPtrCurves: []
  m_SampleRate: 60
  m_WrapMode: 0
  m_Bounds:
    m_Center: {x: 0, y: 0, z: 0}
    m_Extent: {x: 0, y: 0, z: 0}
  m_ClipBindingConstant:
    genericBindings:
    - path: 0
      attribute: 1
      script: {fileID: 0}
      classID: 4
      customType: 0
      isPPtrCurve: 0
    pptrCurveMapping: []
  m_AnimationClipSettings:
    serializedVersion: 2
    m_StartTime: 0
    m_StopTime: 1
    m_OrientationOffsetY: 0
    m_Level: 0
    m_CycleOffset: 0
    m_LoopTime: 0
    m_LoopBlend: 0
    m_LoopBlendOrientation: 0
    m_LoopBlendPositionY: 0
    m_LoopBlendPositionXZ: 0
    m_KeepOriginalOrientation: 0
    m_KeepOriginalPositionY: 1
    m_KeepOriginalPositionXZ: 0
    m_HeightFromFeet: 0
    m_Mirror: 0
  m_EditorCurves:
  - curve:
      serializedVersion: 2
      m_Curve:
      - time: 0
        value: 0
        inSlope: -2.83999991
        outSlope: -2.83999991
        tangentMode: 10
      - time: .25
        value: -.709999979
        inSlope: -3.06285715
        outSlope: -3.06285715
        tangentMode: 10
      - time: .600000024
        value: -1.86000001
        inSlope: -2.50535727
        outSlope: -2.50535727
        tangentMode: 10
      - time: 1
        value: -2.54999995
        inSlope: -1.7249999
        outSlope: -1.7249999
        tangentMode: 10
      m_PreInfinity: 2
      m_PostInfinity: 2
    attribute: m_LocalPosition.x
    path: 
    classID: 4
    script: {fileID: 0}
  - curve:
      serializedVersion: 2
      m_Curve:
      - time: 0
        value: .449999988
        inSlope: 1.72072387
        outSlope: 1.72072387
        tangentMode: 10
      - time: .25
        value: .880180955
        inSlope: .514660418
        outSlope: .514660418
        tangentMode: 0
      - time: .600000024
        value: -.300000012
        inSlope: -3.73597288
        outSlope: -3.73597288
        tangentMode: 10
      - time: 1
        value: -1.94000006
        inSlope: -4.10000038
        outSlope: -4.10000038
        tangentMode: 10
      m_PreInfinity: 2
      m_PostInfinity: 2
    attribute: m_LocalPosition.y
    path: 
    classID: 4
    script: {fileID: 0}
  - curve:
      serializedVersion: 2
      m_Curve:
      - time: 0
        value: 0
        inSlope: 0
        outSlope: 0
        tangentMode: 10
      - time: .25
        value: 0
        inSlope: 0
        outSlope: 0
        tangentMode: 10
      - time: .600000024
        value: 0
        inSlope: 0
        outSlope: 0
        tangentMode: 10
      - time: 1
        value: 0
        inSlope: 0
        outSlope: 0
        tangentMode: 10
      m_PreInfinity: 2
      m_PostInfinity: 2
    attribute: m_LocalPosition.z
    path: 
    classID: 4
    script: {fileID: 0}
  m_EulerEditorCurves: []
  m_HasGenericRootTransform: 1
  m_HasMotionFloatCurves: 0
  m_GenerateMotionCurves: 0
  m_Events: []
