%YAML 1.1
%TAG !u! tag:unity3d.com,2011:
--- !u!74 &7400000
AnimationClip:
  m_ObjectHideFlags: 0
  m_PrefabParentObject: {fileID: 0}
  m_PrefabInternal: {fileID: 0}
  m_Name: he_eff19
  serializedVersion: 6
  m_Legacy: 0
  m_Compressed: 0
  m_UseHighQualityCurve: 1
  m_RotationCurves:
  - curve:
      serializedVersion: 2
      m_Curve:
      - time: 0
        value: {x: 0, y: 0, z: .344967246, w: .938614726}
        inSlope: {x: 0, y: 0, z: 1.57826173, w: -.605424583}
        outSlope: {x: 0, y: 0, z: 1.57826173, w: -.605424583}
        tangentMode: 0
      - time: .0166666675
        value: {x: 0, y: 0, z: .37127161, w: .928524315}
        inSlope: {x: 0, y: 0, z: 1.56873369, w: -.627238095}
        outSlope: {x: 0, y: 0, z: 1.56873369, w: -.627238095}
        tangentMode: 0
      - time: .0333333351
        value: {x: 0, y: 0, z: .397258371, w: .917706788}
        inSlope: {x: 0, y: 0, z: 1.54921699, w: -.670609355}
        outSlope: {x: 0, y: 0, z: 1.54921699, w: -.670609355}
        tangentMode: 0
      - time: .0500000045
        value: {x: 0, y: 0, z: .42291218, w: .906170666}
        inSlope: {x: 0, y: 0, z: 1.52878845, w: -.713474751}
        outSlope: {x: 0, y: 0, z: 1.52878845, w: -.713474751}
        tangentMode: 0
      - time: .0666666701
        value: {x: 0, y: 0, z: .448217988, w: .893924296}
        inSlope: {x: 0, y: 0, z: 1.50745606, w: -.755835831}
        outSlope: {x: 0, y: 0, z: 1.50745606, w: -.755835831}
        tangentMode: 0
      - time: .0833333358
        value: {x: 0, y: 0, z: .473160714, w: .88097614}
        inSlope: {x: 0, y: 0, z: 1.48522234, w: -.797689021}
        outSlope: {x: 0, y: 0, z: 1.48522234, w: -.797689021}
        tangentMode: 0
      - time: .100000001
        value: {x: 0, y: 0, z: .497725397, w: .867334664}
        inSlope: {x: 0, y: 0, z: 1.46209097, w: -.839030802}
        outSlope: {x: 0, y: 0, z: 1.46209097, w: -.839030802}
        tangentMode: 0
      - time: .116666667
        value: {x: 0, y: 0, z: .521897078, w: .853008449}
        inSlope: {x: 0, y: 0, z: 1.43806696, w: -.879859209}
        outSlope: {x: 0, y: 0, z: 1.43806696, w: -.879859209}
        tangentMode: 0
      - time: .13333334
        value: {x: 0, y: 0, z: .545660973, w: .83800602}
        inSlope: {x: 0, y: 0, z: 1.41315019, w: -.920171022}
        outSlope: {x: 0, y: 0, z: 1.41315019, w: -.920171022}
        tangentMode: 0
      - time: .150000006
        value: {x: 0, y: 0, z: .569002092, w: .822336078}
        inSlope: {x: 0, y: 0, z: 1.38733876, w: -.959962666}
        outSlope: {x: 0, y: 0, z: 1.38733876, w: -.959962666}
        tangentMode: 0
      - time: .166666672
        value: {x: 0, y: 0, z: .591905594, w: .806007266}
        inSlope: {x: 0, y: 0, z: 1.36063647, w: -.999228477}
        outSlope: {x: 0, y: 0, z: 1.36063647, w: -.999228477}
        tangentMode: 0
      - time: .183333337
        value: {x: 0, y: 0, z: .614356637, w: .789028466}
        inSlope: {x: 0, y: 0, z: 1.33303833, w: -1.03796136}
        outSlope: {x: 0, y: 0, z: 1.33303833, w: -1.03796136}
        tangentMode: 0
      - time: .200000003
        value: {x: 0, y: 0, z: .636340201, w: .771408558}
        inSlope: {x: 0, y: 0, z: 1.30454075, w: -1.07615781}
        outSlope: {x: 0, y: 0, z: 1.30454075, w: -1.07615781}
        tangentMode: 0
      - time: .216666669
        value: {x: 0, y: 0, z: .657841325, w: .753156543}
        inSlope: {x: 0, y: 0, z: 1.27514017, w: -1.11380529}
        outSlope: {x: 0, y: 0, z: 1.27514017, w: -1.11380529}
        tangentMode: 0
      - time: .233333334
        value: {x: 0, y: 0, z: .678844869, w: .734281719}
        inSlope: {x: 0, y: 0, z: 1.2448312, w: -1.15089488}
        outSlope: {x: 0, y: 0, z: 1.2448312, w: -1.15089488}
        tangentMode: 0
      - time: .25
        value: {x: 0, y: 0, z: .699335694, w: .714793384}
        inSlope: {x: 0, y: 0, z: 1.21361327, w: -1.18742251}
        outSlope: {x: 0, y: 0, z: 1.21361327, w: -1.18742251}
        tangentMode: 0
      - time: .266666681
        value: {x: 0, y: 0, z: .719298661, w: .694700956}
        inSlope: {x: 0, y: 0, z: 1.18147814, w: -1.22337246}
        outSlope: {x: 0, y: 0, z: 1.18147814, w: -1.22337246}
        tangentMode: 0
      - time: .283333361
        value: {x: 0, y: 0, z: .738718331, w: .67401427}
        inSlope: {x: 0, y: 0, z: 1.14841545, w: -1.25873101}
        outSlope: {x: 0, y: 0, z: 1.14841545, w: -1.25873101}
        tangentMode: 0
      - time: .300000042
        value: {x: 0, y: 0, z: .757579207, w: .65274322}
        inSlope: {x: 0, y: 0, z: 1.12297022, w: -1.30400491}
        outSlope: {x: 0, y: 0, z: 1.12297022, w: -1.30400491}
        tangentMode: 0
      - time: .316666722
        value: {x: 0, y: 0, z: .776150703, w: .630547404}
        inSlope: {x: 0, y: 0, z: 1.10933208, w: -1.36660767}
        outSlope: {x: 0, y: 0, z: 1.10933208, w: -1.36660767}
        tangentMode: 0
      - time: .333333403
        value: {x: 0, y: 0, z: .794556975, w: .607189596}
        inSlope: {x: 0, y: 0, z: 1.09286332, w: -1.43091083}
        outSlope: {x: 0, y: 0, z: 1.09286332, w: -1.43091083}
        tangentMode: 0
      - time: .350000083
        value: {x: 0, y: 0, z: .812579513, w: .582850337}
        inSlope: {x: 0, y: 0, z: 1.06394744, w: -1.48376465}
        outSlope: {x: 0, y: 0, z: 1.06394744, w: -1.48376465}
        tangentMode: 0
      - time: .366666764
        value: {x: 0, y: 0, z: .830021918, w: .557730734}
        inSlope: {x: 0, y: 0, z: 1.02397537, w: -1.52396727}
        outSlope: {x: 0, y: 0, z: 1.02397537, w: -1.52396727}
        tangentMode: 0
      - time: .383333445
        value: {x: 0, y: 0, z: .846712053, w: .532051384}
        inSlope: {x: 0, y: 0, z: .974454641, w: -1.55040133}
        outSlope: {x: 0, y: 0, z: .974454641, w: -1.55040133}
        tangentMode: 0
      - time: .400000125
        value: {x: 0, y: 0, z: .862503767, w: .506050646}
        inSlope: {x: 0, y: 0, z: .916978598, w: -1.56206274}
        outSlope: {x: 0, y: 0, z: .916978598, w: -1.56206274}
        tangentMode: 0
      - time: .416666806
        value: {x: 0, y: 0, z: .87727803, w: .479982585}
        inSlope: {x: 0, y: 0, z: .853188515, w: -1.55808675}
        outSlope: {x: 0, y: 0, z: .853188515, w: -1.55808675}
        tangentMode: 0
      - time: .433333486
        value: {x: 0, y: 0, z: .890943408, w: .454114377}
        inSlope: {x: 0, y: 0, z: .784724355, w: -1.53775644}
        outSlope: {x: 0, y: 0, z: .784724355, w: -1.53775644}
        tangentMode: 0
      - time: .450000167
        value: {x: 0, y: 0, z: .903435528, w: .428723991}
        inSlope: {x: 0, y: 0, z: .713177323, w: -1.50051141}
        outSlope: {x: 0, y: 0, z: .713177323, w: -1.50051141}
        tangentMode: 0
      - time: .466666847
        value: {x: 0, y: 0, z: .914716005, w: .404097289}
        inSlope: {x: 0, y: 0, z: .640044332, w: -1.44594646}
        outSlope: {x: 0, y: 0, z: .640044332, w: -1.44594646}
        tangentMode: 0
      - time: .483333528
        value: {x: 0, y: 0, z: .924770355, w: .380525738}
        inSlope: {x: 0, y: 0, z: .566681027, w: -1.37382936}
        outSlope: {x: 0, y: 0, z: .566681027, w: -1.37382936}
        tangentMode: 0
      - time: .500000179
        value: {x: 0, y: 0, z: .933605373, w: .358302981}
        inSlope: {x: 0, y: 0, z: .491713762, w: -1.27700186}
        outSlope: {x: 0, y: 0, z: .491713762, w: -1.27700186}
        tangentMode: 0
      - time: .51666683
        value: {x: 0, y: 0, z: .941160798, w: .337959051}
        inSlope: {x: 0, y: 0, z: .418653905, w: -1.16179824}
        outSlope: {x: 0, y: 0, z: .418653905, w: -1.16179824}
        tangentMode: 0
      - time: .53333348
        value: {x: 0, y: 0, z: .947560489, w: .319576412}
        inSlope: {x: 0, y: 0, z: .357170463, w: -1.05593574}
        outSlope: {x: 0, y: 0, z: .357170463, w: -1.05593574}
        tangentMode: 0
      - time: .550000131
        value: {x: 0, y: 0, z: .953066468, w: .302761227}
        inSlope: {x: 0, y: 0, z: .310179889, w: -.974215865}
        outSlope: {x: 0, y: 0, z: .310179889, w: -.974215865}
        tangentMode: 0
      - time: .566666782
        value: {x: 0, y: 0, z: .957899809, w: .28710258}
        inSlope: {x: 0, y: 0, z: .275434494, w: -.917572021}
        outSlope: {x: 0, y: 0, z: .275434494, w: -.917572021}
        tangentMode: 0
      - time: .583333433
        value: {x: 0, y: 0, z: .96224761, w: .272175521}
        inSlope: {x: 0, y: 0, z: .250995994, w: -.8867293}
        outSlope: {x: 0, y: 0, z: .250995994, w: -.8867293}
        tangentMode: 0
      - time: .600000083
        value: {x: 0, y: 0, z: .966266334, w: .257544965}
        inSlope: {x: 0, y: 0, z: .235108361, w: -.882246435}
        outSlope: {x: 0, y: 0, z: .235108361, w: -.882246435}
        tangentMode: 0
      - time: .616666734
        value: {x: 0, y: 0, z: .970084548, w: .242767334}
        inSlope: {x: 0, y: 0, z: .226112217, w: -.904600441}
        outSlope: {x: 0, y: 0, z: .226112217, w: -.904600441}
        tangentMode: 0
      - time: .633333385
        value: {x: 0, y: 0, z: .973803401, w: .227391645}
        inSlope: {x: 0, y: 0, z: .222301692, w: -.954204798}
        outSlope: {x: 0, y: 0, z: .222301692, w: -.954204798}
        tangentMode: 0
      - time: .650000036
        value: {x: 0, y: 0, z: .977494597, w: .210960537}
        inSlope: {x: 0, y: 0, z: .221795648, w: -1.03142083}
        outSlope: {x: 0, y: 0, z: .221795648, w: -1.03142083}
        tangentMode: 0
      - time: .666666687
        value: {x: 0, y: 0, z: .981196582, w: .193010986}
        inSlope: {x: 0, y: 0, z: .219694585, w: -1.12107193}
        outSlope: {x: 0, y: 0, z: .219694585, w: -1.12107193}
        tangentMode: 0
      - time: .683333337
        value: {x: 0, y: 0, z: .984817743, w: .173591509}
        inSlope: {x: 0, y: 0, z: .209972471, w: -1.19441557}
        outSlope: {x: 0, y: 0, z: .209972471, w: -1.19441557}
        tangentMode: 0
      - time: .699999988
        value: {x: 0, y: 0, z: .988195658, w: .153197169}
        inSlope: {x: 0, y: 0, z: .192825973, w: -1.24674916}
        outSlope: {x: 0, y: 0, z: .192825973, w: -1.24674916}
        tangentMode: 0
      - time: .716666639
        value: {x: 0, y: 0, z: .99124527, w: .132033244}
        inSlope: {x: 0, y: 0, z: .171049997, w: -1.28663659}
        outSlope: {x: 0, y: 0, z: .171049997, w: -1.28663659}
        tangentMode: 0
      - time: .73333329
        value: {x: 0, y: 0, z: .993897319, w: .110309325}
        inSlope: {x: 0, y: 0, z: .145624414, w: -1.31385231}
        outSlope: {x: 0, y: 0, z: .145624414, w: -1.31385231}
        tangentMode: 0
      - time: .74999994
        value: {x: 0, y: 0, z: .996099412, w: .0882382095}
        inSlope: {x: 0, y: 0, z: .117597088, w: -1.32818627}
        outSlope: {x: 0, y: 0, z: .117597088, w: -1.32818627}
        tangentMode: 0
      - time: .766666591
        value: {x: 0, y: 0, z: .997817218, w: .0660364926}
        inSlope: {x: 0, y: 0, z: .0880677328, w: -1.32949615}
        outSlope: {x: 0, y: 0, z: .0880677328, w: -1.32949615}
        tangentMode: 0
      - time: .783333242
        value: {x: 0, y: 0, z: .999035001, w: .0439217165}
        inSlope: {x: 0, y: 0, z: .0581485555, w: -1.31770515}
        outSlope: {x: 0, y: 0, z: .0581485555, w: -1.31770515}
        tangentMode: 0
      - time: .799999893
        value: {x: 0, y: 0, z: .999755502, w: .0221130271}
        inSlope: {x: 0, y: 0, z: .0289392751, w: -1.29278469}
        outSlope: {x: 0, y: 0, z: .0289392751, w: -1.29278469}
        tangentMode: 0
      - time: .816666543
        value: {x: 0, y: 0, z: .999999642, w: .000828937569}
        inSlope: {x: 0, y: 0, z: .00150561472, w: -1.25477862}
        outSlope: {x: 0, y: 0, z: .00150561472, w: -1.25477862}
        tangentMode: 0
      - time: .833333194
        value: {x: 0, y: 0, z: .999805689, w: -.019712884}
        inSlope: {x: 0, y: 0, z: -.0231617913, w: -1.20376968}
        outSlope: {x: 0, y: 0, z: -.0231617913, w: -1.20376968}
        tangentMode: 0
      - time: .849999845
        value: {x: 0, y: 0, z: .999227583, w: -.0392966829}
        inSlope: {x: 0, y: 0, z: -.0435787849, w: -1.12968445}
        outSlope: {x: 0, y: 0, z: -.0435787849, w: -1.12968445}
        tangentMode: 0
      - time: .866666496
        value: {x: 0, y: 0, z: .998353064, w: -.0573689938}
        inSlope: {x: 0, y: 0, z: -.0592196509, w: -1.04296732}
        outSlope: {x: 0, y: 0, z: -.0592196509, w: -1.04296732}
        tangentMode: 0
      - time: .883333147
        value: {x: 0, y: 0, z: .997253597, w: -.0740622282}
        inSlope: {x: 0, y: 0, z: -.0728578046, w: -.984671593}
        outSlope: {x: 0, y: 0, z: -.0728578046, w: -.984671593}
        tangentMode: 0
      - time: .899999797
        value: {x: 0, y: 0, z: .995924473, w: -.0901913494}
        inSlope: {x: 0, y: 0, z: -.0884468183, w: -.975179017}
        outSlope: {x: 0, y: 0, z: -.0884468183, w: -.975179017}
        tangentMode: 0
      - time: .916666448
        value: {x: 0, y: 0, z: .994305372, w: -.106568165}
        inSlope: {x: 0, y: 0, z: -.0485730618, w: -.491315663}
        outSlope: {x: 0, y: 0, z: -.0485730618, w: -.491315663}
        tangentMode: 0
      - time: .933333337
        value: {x: 0, y: 0, z: .994305372, w: -.106568523}
        inSlope: {x: 0, y: 0, z: 0, w: -2.14573865e-05}
        outSlope: {x: 0, y: 0, z: 0, w: -2.14573865e-05}
        tangentMode: 0
      m_PreInfinity: 2
      m_PostInfinity: 2
    path: 
  m_CompressedRotationCurves: []
  m_PositionCurves:
  - curve:
      serializedVersion: 2
      m_Curve:
      - time: 0
        value: {x: .0490000248, y: .700000048, z: 0}
        inSlope: {x: -.0100282431, y: 7.08703327, z: 0}
        outSlope: {x: -.0100282431, y: 7.08703327, z: 0}
        tangentMode: 0
      - time: .333333343
        value: {x: .0456572771, y: 3.06234455, z: 0}
        inSlope: {x: -.862003386, y: 5.51022053, z: 0}
        outSlope: {x: -.862003386, y: 5.51022053, z: 0}
        tangentMode: 0
      - time: .5
        value: {x: -.240005791, y: 3.71791244, z: 0}
        inSlope: {x: -1.27313793, y: 2.34665036, z: 0}
        outSlope: {x: -1.27313793, y: 2.34665036, z: 0}
        tangentMode: 0
      - time: .516666651
        value: {x: -.253877401, y: 3.75864196, z: 0}
        inSlope: {x: -1.42479813, y: 2.51249218, z: 0}
        outSlope: {x: -1.42479813, y: 2.51249218, z: 0}
        tangentMode: 0
      - time: .666666687
        value: {x: -.556472301, y: 3.84456134, z: 0}
        inSlope: {x: -2.39570475, y: -3.6691761, z: 0}
        outSlope: {x: -2.39570475, y: -3.6691761, z: 0}
        tangentMode: 0
      - time: .916666687
        value: {x: -1.25, y: 1.81999993, z: 0}
        inSlope: {x: -2.77411079, y: -8.09824562, z: 0}
        outSlope: {x: -2.77411079, y: -8.09824562, z: 0}
        tangentMode: 0
      - time: .933333337
        value: {x: -1.25, y: 1.81999993, z: 0}
        inSlope: {x: 0, y: 0, z: 0}
        outSlope: {x: 0, y: 0, z: 0}
        tangentMode: 0
      m_PreInfinity: 2
      m_PostInfinity: 2
    path: 
  m_ScaleCurves: []
  m_FloatCurves:
  - curve:
      serializedVersion: 2
      m_Curve:
      - time: 0
        value: 1
        inSlope: Infinity
        outSlope: Infinity
        tangentMode: 31
      - time: .916666687
        value: 0
        inSlope: Infinity
        outSlope: Infinity
        tangentMode: 31
      m_PreInfinity: 2
      m_PostInfinity: 2
    attribute: m_Enabled
    path: he019_effect
    classID: 212
    script: {fileID: 0}
  m_PPtrCurves: []
  m_SampleRate: 60
  m_WrapMode: 0
  m_Bounds:
    m_Center: {x: 0, y: 0, z: 0}
    m_Extent: {x: 0, y: 0, z: 0}
  m_ClipBindingConstant:
    genericBindings:
    - path: 0
      attribute: 1
      script: {fileID: 0}
      classID: 4
      customType: 0
      isPPtrCurve: 0
    - path: 0
      attribute: 2
      script: {fileID: 0}
      classID: 4
      customType: 0
      isPPtrCurve: 0
    - path: 1829523731
      attribute: 3305885265
      script: {fileID: 0}
      classID: 212
      customType: 0
      isPPtrCurve: 0
    pptrCurveMapping: []
  m_AnimationClipSettings:
    serializedVersion: 2
    m_StartTime: 0
    m_StopTime: .933333337
    m_OrientationOffsetY: 0
    m_Level: 0
    m_CycleOffset: 0
    m_LoopTime: 0
    m_LoopBlend: 0
    m_LoopBlendOrientation: 0
    m_LoopBlendPositionY: 0
    m_LoopBlendPositionXZ: 0
    m_KeepOriginalOrientation: 0
    m_KeepOriginalPositionY: 1
    m_KeepOriginalPositionXZ: 0
    m_HeightFromFeet: 0
    m_Mirror: 0
  m_EditorCurves:
  - curve:
      serializedVersion: 2
      m_Curve:
      - time: 0
        value: .0490000248
        inSlope: -.0100282431
        outSlope: -.0100282431
        tangentMode: 10
      - time: .333333343
        value: .0456572771
        inSlope: -.862003386
        outSlope: -.862003386
        tangentMode: 10
      - time: .5
        value: -.240005791
        inSlope: -1.27313793
        outSlope: -1.27313793
        tangentMode: 10
      - time: .516666651
        value: -.253877401
        inSlope: -1.42479813
        outSlope: -1.42479813
        tangentMode: 10
      - time: .666666687
        value: -.556472301
        inSlope: -2.39570475
        outSlope: -2.39570475
        tangentMode: 10
      - time: .916666687
        value: -1.25
        inSlope: -2.77411079
        outSlope: -2.77411079
        tangentMode: 10
      m_PreInfinity: 2
      m_PostInfinity: 2
    attribute: m_LocalPosition.x
    path: 
    classID: 4
    script: {fileID: 0}
  - curve:
      serializedVersion: 2
      m_Curve:
      - time: 0
        value: .700000048
        inSlope: 7.08703327
        outSlope: 7.08703327
        tangentMode: 10
      - time: .333333343
        value: 3.06234455
        inSlope: 5.51022053
        outSlope: 5.51022053
        tangentMode: 10
      - time: .5
        value: 3.71791244
        inSlope: 2.34665036
        outSlope: 2.34665036
        tangentMode: 10
      - time: .666666687
        value: 3.84456134
        inSlope: -3.6691761
        outSlope: -3.6691761
        tangentMode: 10
      - time: .916666687
        value: 1.81999993
        inSlope: -8.09824562
        outSlope: -8.09824562
        tangentMode: 10
      m_PreInfinity: 2
      m_PostInfinity: 2
    attribute: m_LocalPosition.y
    path: 
    classID: 4
    script: {fileID: 0}
  - curve:
      serializedVersion: 2
      m_Curve:
      - time: 0
        value: 0
        inSlope: 0
        outSlope: 0
        tangentMode: 10
      - time: .333333343
        value: 0
        inSlope: 0
        outSlope: 0
        tangentMode: 10
      - time: .5
        value: 0
        inSlope: 0
        outSlope: 0
        tangentMode: 10
      - time: .666666687
        value: 0
        inSlope: 0
        outSlope: 0
        tangentMode: 10
      - time: .933333337
        value: 0
        inSlope: 0
        outSlope: 0
        tangentMode: 10
      m_PreInfinity: 2
      m_PostInfinity: 2
    attribute: m_LocalPosition.z
    path: 
    classID: 4
    script: {fileID: 0}
  - curve:
      serializedVersion: 2
      m_Curve:
      - time: 0
        value: 0
        inSlope: 0
        outSlope: 0
        tangentMode: 0
      - time: .0166666675
        value: 0
        inSlope: 0
        outSlope: 0
        tangentMode: 0
      - time: .0333333351
        value: 0
        inSlope: 0
        outSlope: 0
        tangentMode: 0
      - time: .0500000045
        value: 0
        inSlope: 0
        outSlope: 0
        tangentMode: 0
      - time: .0666666701
        value: 0
        inSlope: 0
        outSlope: 0
        tangentMode: 0
      - time: .0833333358
        value: 0
        inSlope: 0
        outSlope: 0
        tangentMode: 0
      - time: .100000001
        value: 0
        inSlope: 0
        outSlope: 0
        tangentMode: 0
      - time: .116666667
        value: 0
        inSlope: 0
        outSlope: 0
        tangentMode: 0
      - time: .13333334
        value: 0
        inSlope: 0
        outSlope: 0
        tangentMode: 0
      - time: .150000006
        value: 0
        inSlope: 0
        outSlope: 0
        tangentMode: 0
      - time: .166666672
        value: 0
        inSlope: 0
        outSlope: 0
        tangentMode: 0
      - time: .183333337
        value: 0
        inSlope: 0
        outSlope: 0
        tangentMode: 0
      - time: .200000003
        value: 0
        inSlope: 0
        outSlope: 0
        tangentMode: 0
      - time: .216666669
        value: 0
        inSlope: 0
        outSlope: 0
        tangentMode: 0
      - time: .233333334
        value: 0
        inSlope: 0
        outSlope: 0
        tangentMode: 0
      - time: .25
        value: 0
        inSlope: 0
        outSlope: 0
        tangentMode: 0
      - time: .266666681
        value: 0
        inSlope: 0
        outSlope: 0
        tangentMode: 0
      - time: .283333361
        value: 0
        inSlope: 0
        outSlope: 0
        tangentMode: 0
      - time: .300000042
        value: 0
        inSlope: 0
        outSlope: 0
        tangentMode: 0
      - time: .316666722
        value: 0
        inSlope: 0
        outSlope: 0
        tangentMode: 0
      - time: .333333403
        value: 0
        inSlope: 0
        outSlope: 0
        tangentMode: 0
      - time: .350000083
        value: 0
        inSlope: 0
        outSlope: 0
        tangentMode: 0
      - time: .366666764
        value: 0
        inSlope: 0
        outSlope: 0
        tangentMode: 0
      - time: .383333445
        value: 0
        inSlope: 0
        outSlope: 0
        tangentMode: 0
      - time: .400000125
        value: 0
        inSlope: 0
        outSlope: 0
        tangentMode: 0
      - time: .416666806
        value: 0
        inSlope: 0
        outSlope: 0
        tangentMode: 0
      - time: .433333486
        value: 0
        inSlope: 0
        outSlope: 0
        tangentMode: 0
      - time: .450000167
        value: 0
        inSlope: 0
        outSlope: 0
        tangentMode: 0
      - time: .466666847
        value: 0
        inSlope: 0
        outSlope: 0
        tangentMode: 0
      - time: .483333528
        value: 0
        inSlope: 0
        outSlope: 0
        tangentMode: 0
      - time: .500000179
        value: 0
        inSlope: 0
        outSlope: 0
        tangentMode: 0
      - time: .51666683
        value: 0
        inSlope: 0
        outSlope: 0
        tangentMode: 0
      - time: .53333348
        value: 0
        inSlope: 0
        outSlope: 0
        tangentMode: 0
      - time: .550000131
        value: 0
        inSlope: 0
        outSlope: 0
        tangentMode: 0
      - time: .566666782
        value: 0
        inSlope: 0
        outSlope: 0
        tangentMode: 0
      - time: .583333433
        value: 0
        inSlope: 0
        outSlope: 0
        tangentMode: 0
      - time: .600000083
        value: 0
        inSlope: 0
        outSlope: 0
        tangentMode: 0
      - time: .616666734
        value: 0
        inSlope: 0
        outSlope: 0
        tangentMode: 0
      - time: .633333385
        value: 0
        inSlope: 0
        outSlope: 0
        tangentMode: 0
      - time: .650000036
        value: 0
        inSlope: 0
        outSlope: 0
        tangentMode: 0
      - time: .666666687
        value: 0
        inSlope: 0
        outSlope: 0
        tangentMode: 0
      - time: .683333337
        value: 0
        inSlope: 0
        outSlope: 0
        tangentMode: 0
      - time: .699999988
        value: 0
        inSlope: 0
        outSlope: 0
        tangentMode: 0
      - time: .716666639
        value: 0
        inSlope: 0
        outSlope: 0
        tangentMode: 0
      - time: .73333329
        value: 0
        inSlope: 0
        outSlope: 0
        tangentMode: 0
      - time: .74999994
        value: 0
        inSlope: 0
        outSlope: 0
        tangentMode: 0
      - time: .766666591
        value: 0
        inSlope: 0
        outSlope: 0
        tangentMode: 0
      - time: .783333242
        value: 0
        inSlope: 0
        outSlope: 0
        tangentMode: 0
      - time: .799999893
        value: 0
        inSlope: 0
        outSlope: 0
        tangentMode: 0
      - time: .816666543
        value: 0
        inSlope: 0
        outSlope: 0
        tangentMode: 0
      - time: .833333194
        value: 0
        inSlope: 0
        outSlope: 0
        tangentMode: 0
      - time: .849999845
        value: 0
        inSlope: 0
        outSlope: 0
        tangentMode: 0
      - time: .866666496
        value: 0
        inSlope: 0
        outSlope: 0
        tangentMode: 0
      - time: .883333147
        value: 0
        inSlope: 0
        outSlope: 0
        tangentMode: 0
      - time: .899999797
        value: 0
        inSlope: 0
        outSlope: 0
        tangentMode: 0
      - time: .916666448
        value: 0
        inSlope: 0
        outSlope: 0
        tangentMode: 0
      - time: .933333337
        value: 0
        inSlope: 0
        outSlope: 0
        tangentMode: 0
      m_PreInfinity: 2
      m_PostInfinity: 2
    attribute: m_LocalRotation.x
    path: 
    classID: 4
    script: {fileID: 0}
  - curve:
      serializedVersion: 2
      m_Curve:
      - time: 0
        value: 0
        inSlope: 0
        outSlope: 0
        tangentMode: 0
      - time: .0166666675
        value: 0
        inSlope: 0
        outSlope: 0
        tangentMode: 0
      - time: .0333333351
        value: 0
        inSlope: 0
        outSlope: 0
        tangentMode: 0
      - time: .0500000045
        value: 0
        inSlope: 0
        outSlope: 0
        tangentMode: 0
      - time: .0666666701
        value: 0
        inSlope: 0
        outSlope: 0
        tangentMode: 0
      - time: .0833333358
        value: 0
        inSlope: 0
        outSlope: 0
        tangentMode: 0
      - time: .100000001
        value: 0
        inSlope: 0
        outSlope: 0
        tangentMode: 0
      - time: .116666667
        value: 0
        inSlope: 0
        outSlope: 0
        tangentMode: 0
      - time: .13333334
        value: 0
        inSlope: 0
        outSlope: 0
        tangentMode: 0
      - time: .150000006
        value: 0
        inSlope: 0
        outSlope: 0
        tangentMode: 0
      - time: .166666672
        value: 0
        inSlope: 0
        outSlope: 0
        tangentMode: 0
      - time: .183333337
        value: 0
        inSlope: 0
        outSlope: 0
        tangentMode: 0
      - time: .200000003
        value: 0
        inSlope: 0
        outSlope: 0
        tangentMode: 0
      - time: .216666669
        value: 0
        inSlope: 0
        outSlope: 0
        tangentMode: 0
      - time: .233333334
        value: 0
        inSlope: 0
        outSlope: 0
        tangentMode: 0
      - time: .25
        value: 0
        inSlope: 0
        outSlope: 0
        tangentMode: 0
      - time: .266666681
        value: 0
        inSlope: 0
        outSlope: 0
        tangentMode: 0
      - time: .283333361
        value: 0
        inSlope: 0
        outSlope: 0
        tangentMode: 0
      - time: .300000042
        value: 0
        inSlope: 0
        outSlope: 0
        tangentMode: 0
      - time: .316666722
        value: 0
        inSlope: 0
        outSlope: 0
        tangentMode: 0
      - time: .333333403
        value: 0
        inSlope: 0
        outSlope: 0
        tangentMode: 0
      - time: .350000083
        value: 0
        inSlope: 0
        outSlope: 0
        tangentMode: 0
      - time: .366666764
        value: 0
        inSlope: 0
        outSlope: 0
        tangentMode: 0
      - time: .383333445
        value: 0
        inSlope: 0
        outSlope: 0
        tangentMode: 0
      - time: .400000125
        value: 0
        inSlope: 0
        outSlope: 0
        tangentMode: 0
      - time: .416666806
        value: 0
        inSlope: 0
        outSlope: 0
        tangentMode: 0
      - time: .433333486
        value: 0
        inSlope: 0
        outSlope: 0
        tangentMode: 0
      - time: .450000167
        value: 0
        inSlope: 0
        outSlope: 0
        tangentMode: 0
      - time: .466666847
        value: 0
        inSlope: 0
        outSlope: 0
        tangentMode: 0
      - time: .483333528
        value: 0
        inSlope: 0
        outSlope: 0
        tangentMode: 0
      - time: .500000179
        value: 0
        inSlope: 0
        outSlope: 0
        tangentMode: 0
      - time: .51666683
        value: 0
        inSlope: 0
        outSlope: 0
        tangentMode: 0
      - time: .53333348
        value: 0
        inSlope: 0
        outSlope: 0
        tangentMode: 0
      - time: .550000131
        value: 0
        inSlope: 0
        outSlope: 0
        tangentMode: 0
      - time: .566666782
        value: 0
        inSlope: 0
        outSlope: 0
        tangentMode: 0
      - time: .583333433
        value: 0
        inSlope: 0
        outSlope: 0
        tangentMode: 0
      - time: .600000083
        value: 0
        inSlope: 0
        outSlope: 0
        tangentMode: 0
      - time: .616666734
        value: 0
        inSlope: 0
        outSlope: 0
        tangentMode: 0
      - time: .633333385
        value: 0
        inSlope: 0
        outSlope: 0
        tangentMode: 0
      - time: .650000036
        value: 0
        inSlope: 0
        outSlope: 0
        tangentMode: 0
      - time: .666666687
        value: 0
        inSlope: 0
        outSlope: 0
        tangentMode: 0
      - time: .683333337
        value: 0
        inSlope: 0
        outSlope: 0
        tangentMode: 0
      - time: .699999988
        value: 0
        inSlope: 0
        outSlope: 0
        tangentMode: 0
      - time: .716666639
        value: 0
        inSlope: 0
        outSlope: 0
        tangentMode: 0
      - time: .73333329
        value: 0
        inSlope: 0
        outSlope: 0
        tangentMode: 0
      - time: .74999994
        value: 0
        inSlope: 0
        outSlope: 0
        tangentMode: 0
      - time: .766666591
        value: 0
        inSlope: 0
        outSlope: 0
        tangentMode: 0
      - time: .783333242
        value: 0
        inSlope: 0
        outSlope: 0
        tangentMode: 0
      - time: .799999893
        value: 0
        inSlope: 0
        outSlope: 0
        tangentMode: 0
      - time: .816666543
        value: 0
        inSlope: 0
        outSlope: 0
        tangentMode: 0
      - time: .833333194
        value: 0
        inSlope: 0
        outSlope: 0
        tangentMode: 0
      - time: .849999845
        value: 0
        inSlope: 0
        outSlope: 0
        tangentMode: 0
      - time: .866666496
        value: 0
        inSlope: 0
        outSlope: 0
        tangentMode: 0
      - time: .883333147
        value: 0
        inSlope: 0
        outSlope: 0
        tangentMode: 0
      - time: .899999797
        value: 0
        inSlope: 0
        outSlope: 0
        tangentMode: 0
      - time: .916666448
        value: 0
        inSlope: 0
        outSlope: 0
        tangentMode: 0
      - time: .933333337
        value: 0
        inSlope: 0
        outSlope: 0
        tangentMode: 0
      m_PreInfinity: 2
      m_PostInfinity: 2
    attribute: m_LocalRotation.y
    path: 
    classID: 4
    script: {fileID: 0}
  - curve:
      serializedVersion: 2
      m_Curve:
      - time: 0
        value: .344967246
        inSlope: 1.57826173
        outSlope: 1.57826173
        tangentMode: 0
      - time: .0166666675
        value: .37127161
        inSlope: 1.56873369
        outSlope: 1.56873369
        tangentMode: 0
      - time: .0333333351
        value: .397258371
        inSlope: 1.54921699
        outSlope: 1.54921699
        tangentMode: 0
      - time: .0500000045
        value: .42291218
        inSlope: 1.52878845
        outSlope: 1.52878845
        tangentMode: 0
      - time: .0666666701
        value: .448217988
        inSlope: 1.50745606
        outSlope: 1.50745606
        tangentMode: 0
      - time: .0833333358
        value: .473160714
        inSlope: 1.48522234
        outSlope: 1.48522234
        tangentMode: 0
      - time: .100000001
        value: .497725397
        inSlope: 1.46209097
        outSlope: 1.46209097
        tangentMode: 0
      - time: .116666667
        value: .521897078
        inSlope: 1.43806696
        outSlope: 1.43806696
        tangentMode: 0
      - time: .13333334
        value: .545660973
        inSlope: 1.41315019
        outSlope: 1.41315019
        tangentMode: 0
      - time: .150000006
        value: .569002092
        inSlope: 1.38733876
        outSlope: 1.38733876
        tangentMode: 0
      - time: .166666672
        value: .591905594
        inSlope: 1.36063647
        outSlope: 1.36063647
        tangentMode: 0
      - time: .183333337
        value: .614356637
        inSlope: 1.33303833
        outSlope: 1.33303833
        tangentMode: 0
      - time: .200000003
        value: .636340201
        inSlope: 1.30454075
        outSlope: 1.30454075
        tangentMode: 0
      - time: .216666669
        value: .657841325
        inSlope: 1.27514017
        outSlope: 1.27514017
        tangentMode: 0
      - time: .233333334
        value: .678844869
        inSlope: 1.2448312
        outSlope: 1.2448312
        tangentMode: 0
      - time: .25
        value: .699335694
        inSlope: 1.21361327
        outSlope: 1.21361327
        tangentMode: 0
      - time: .266666681
        value: .719298661
        inSlope: 1.18147814
        outSlope: 1.18147814
        tangentMode: 0
      - time: .283333361
        value: .738718331
        inSlope: 1.14841545
        outSlope: 1.14841545
        tangentMode: 0
      - time: .300000042
        value: .757579207
        inSlope: 1.12297022
        outSlope: 1.12297022
        tangentMode: 0
      - time: .316666722
        value: .776150703
        inSlope: 1.10933208
        outSlope: 1.10933208
        tangentMode: 0
      - time: .333333403
        value: .794556975
        inSlope: 1.09286332
        outSlope: 1.09286332
        tangentMode: 0
      - time: .350000083
        value: .812579513
        inSlope: 1.06394744
        outSlope: 1.06394744
        tangentMode: 0
      - time: .366666764
        value: .830021918
        inSlope: 1.02397537
        outSlope: 1.02397537
        tangentMode: 0
      - time: .383333445
        value: .846712053
        inSlope: .974454641
        outSlope: .974454641
        tangentMode: 0
      - time: .400000125
        value: .862503767
        inSlope: .916978598
        outSlope: .916978598
        tangentMode: 0
      - time: .416666806
        value: .87727803
        inSlope: .853188515
        outSlope: .853188515
        tangentMode: 0
      - time: .433333486
        value: .890943408
        inSlope: .784724355
        outSlope: .784724355
        tangentMode: 0
      - time: .450000167
        value: .903435528
        inSlope: .713177323
        outSlope: .713177323
        tangentMode: 0
      - time: .466666847
        value: .914716005
        inSlope: .640044332
        outSlope: .640044332
        tangentMode: 0
      - time: .483333528
        value: .924770355
        inSlope: .566681027
        outSlope: .566681027
        tangentMode: 0
      - time: .500000179
        value: .933605373
        inSlope: .491713762
        outSlope: .491713762
        tangentMode: 0
      - time: .51666683
        value: .941160798
        inSlope: .418653905
        outSlope: .418653905
        tangentMode: 0
      - time: .53333348
        value: .947560489
        inSlope: .357170463
        outSlope: .357170463
        tangentMode: 0
      - time: .550000131
        value: .953066468
        inSlope: .310179889
        outSlope: .310179889
        tangentMode: 0
      - time: .566666782
        value: .957899809
        inSlope: .275434494
        outSlope: .275434494
        tangentMode: 0
      - time: .583333433
        value: .96224761
        inSlope: .250995994
        outSlope: .250995994
        tangentMode: 0
      - time: .600000083
        value: .966266334
        inSlope: .235108361
        outSlope: .235108361
        tangentMode: 0
      - time: .616666734
        value: .970084548
        inSlope: .226112217
        outSlope: .226112217
        tangentMode: 0
      - time: .633333385
        value: .973803401
        inSlope: .222301692
        outSlope: .222301692
        tangentMode: 0
      - time: .650000036
        value: .977494597
        inSlope: .221795648
        outSlope: .221795648
        tangentMode: 0
      - time: .666666687
        value: .981196582
        inSlope: .219694585
        outSlope: .219694585
        tangentMode: 0
      - time: .683333337
        value: .984817743
        inSlope: .209972471
        outSlope: .209972471
        tangentMode: 0
      - time: .699999988
        value: .988195658
        inSlope: .192825973
        outSlope: .192825973
        tangentMode: 0
      - time: .716666639
        value: .99124527
        inSlope: .171049997
        outSlope: .171049997
        tangentMode: 0
      - time: .73333329
        value: .993897319
        inSlope: .145624414
        outSlope: .145624414
        tangentMode: 0
      - time: .74999994
        value: .996099412
        inSlope: .117597088
        outSlope: .117597088
        tangentMode: 0
      - time: .766666591
        value: .997817218
        inSlope: .0880677328
        outSlope: .0880677328
        tangentMode: 0
      - time: .783333242
        value: .999035001
        inSlope: .0581485555
        outSlope: .0581485555
        tangentMode: 0
      - time: .799999893
        value: .999755502
        inSlope: .0289392751
        outSlope: .0289392751
        tangentMode: 0
      - time: .816666543
        value: .999999642
        inSlope: .00150561472
        outSlope: .00150561472
        tangentMode: 0
      - time: .833333194
        value: .999805689
        inSlope: -.0231617913
        outSlope: -.0231617913
        tangentMode: 0
      - time: .849999845
        value: .999227583
        inSlope: -.0435787849
        outSlope: -.0435787849
        tangentMode: 0
      - time: .866666496
        value: .998353064
        inSlope: -.0592196509
        outSlope: -.0592196509
        tangentMode: 0
      - time: .883333147
        value: .997253597
        inSlope: -.0728578046
        outSlope: -.0728578046
        tangentMode: 0
      - time: .899999797
        value: .995924473
        inSlope: -.0884468183
        outSlope: -.0884468183
        tangentMode: 0
      - time: .916666448
        value: .994305372
        inSlope: -.0485730618
        outSlope: -.0485730618
        tangentMode: 0
      - time: .933333337
        value: .994305372
        inSlope: 0
        outSlope: 0
        tangentMode: 0
      m_PreInfinity: 2
      m_PostInfinity: 2
    attribute: m_LocalRotation.z
    path: 
    classID: 4
    script: {fileID: 0}
  - curve:
      serializedVersion: 2
      m_Curve:
      - time: 0
        value: .938614726
        inSlope: -.605424583
        outSlope: -.605424583
        tangentMode: 0
      - time: .0166666675
        value: .928524315
        inSlope: -.627238095
        outSlope: -.627238095
        tangentMode: 0
      - time: .0333333351
        value: .917706788
        inSlope: -.670609355
        outSlope: -.670609355
        tangentMode: 0
      - time: .0500000045
        value: .906170666
        inSlope: -.713474751
        outSlope: -.713474751
        tangentMode: 0
      - time: .0666666701
        value: .893924296
        inSlope: -.755835831
        outSlope: -.755835831
        tangentMode: 0
      - time: .0833333358
        value: .88097614
        inSlope: -.797689021
        outSlope: -.797689021
        tangentMode: 0
      - time: .100000001
        value: .867334664
        inSlope: -.839030802
        outSlope: -.839030802
        tangentMode: 0
      - time: .116666667
        value: .853008449
        inSlope: -.879859209
        outSlope: -.879859209
        tangentMode: 0
      - time: .13333334
        value: .83800602
        inSlope: -.920171022
        outSlope: -.920171022
        tangentMode: 0
      - time: .150000006
        value: .822336078
        inSlope: -.959962666
        outSlope: -.959962666
        tangentMode: 0
      - time: .166666672
        value: .806007266
        inSlope: -.999228477
        outSlope: -.999228477
        tangentMode: 0
      - time: .183333337
        value: .789028466
        inSlope: -1.03796136
        outSlope: -1.03796136
        tangentMode: 0
      - time: .200000003
        value: .771408558
        inSlope: -1.07615781
        outSlope: -1.07615781
        tangentMode: 0
      - time: .216666669
        value: .753156543
        inSlope: -1.11380529
        outSlope: -1.11380529
        tangentMode: 0
      - time: .233333334
        value: .734281719
        inSlope: -1.15089488
        outSlope: -1.15089488
        tangentMode: 0
      - time: .25
        value: .714793384
        inSlope: -1.18742251
        outSlope: -1.18742251
        tangentMode: 0
      - time: .266666681
        value: .694700956
        inSlope: -1.22337246
        outSlope: -1.22337246
        tangentMode: 0
      - time: .283333361
        value: .67401427
        inSlope: -1.25873101
        outSlope: -1.25873101
        tangentMode: 0
      - time: .300000042
        value: .65274322
        inSlope: -1.30400491
        outSlope: -1.30400491
        tangentMode: 0
      - time: .316666722
        value: .630547404
        inSlope: -1.36660767
        outSlope: -1.36660767
        tangentMode: 0
      - time: .333333403
        value: .607189596
        inSlope: -1.43091083
        outSlope: -1.43091083
        tangentMode: 0
      - time: .350000083
        value: .582850337
        inSlope: -1.48376465
        outSlope: -1.48376465
        tangentMode: 0
      - time: .366666764
        value: .557730734
        inSlope: -1.52396727
        outSlope: -1.52396727
        tangentMode: 0
      - time: .383333445
        value: .532051384
        inSlope: -1.55040133
        outSlope: -1.55040133
        tangentMode: 0
      - time: .400000125
        value: .506050646
        inSlope: -1.56206274
        outSlope: -1.56206274
        tangentMode: 0
      - time: .416666806
        value: .479982585
        inSlope: -1.55808675
        outSlope: -1.55808675
        tangentMode: 0
      - time: .433333486
        value: .454114377
        inSlope: -1.53775644
        outSlope: -1.53775644
        tangentMode: 0
      - time: .450000167
        value: .428723991
        inSlope: -1.50051141
        outSlope: -1.50051141
        tangentMode: 0
      - time: .466666847
        value: .404097289
        inSlope: -1.44594646
        outSlope: -1.44594646
        tangentMode: 0
      - time: .483333528
        value: .380525738
        inSlope: -1.37382936
        outSlope: -1.37382936
        tangentMode: 0
      - time: .500000179
        value: .358302981
        inSlope: -1.27700186
        outSlope: -1.27700186
        tangentMode: 0
      - time: .51666683
        value: .337959051
        inSlope: -1.16179824
        outSlope: -1.16179824
        tangentMode: 0
      - time: .53333348
        value: .319576412
        inSlope: -1.05593574
        outSlope: -1.05593574
        tangentMode: 0
      - time: .550000131
        value: .302761227
        inSlope: -.974215865
        outSlope: -.974215865
        tangentMode: 0
      - time: .566666782
        value: .28710258
        inSlope: -.917572021
        outSlope: -.917572021
        tangentMode: 0
      - time: .583333433
        value: .272175521
        inSlope: -.8867293
        outSlope: -.8867293
        tangentMode: 0
      - time: .600000083
        value: .257544965
        inSlope: -.882246435
        outSlope: -.882246435
        tangentMode: 0
      - time: .616666734
        value: .242767334
        inSlope: -.904600441
        outSlope: -.904600441
        tangentMode: 0
      - time: .633333385
        value: .227391645
        inSlope: -.954204798
        outSlope: -.954204798
        tangentMode: 0
      - time: .650000036
        value: .210960537
        inSlope: -1.03142083
        outSlope: -1.03142083
        tangentMode: 0
      - time: .666666687
        value: .193010986
        inSlope: -1.12107193
        outSlope: -1.12107193
        tangentMode: 0
      - time: .683333337
        value: .173591509
        inSlope: -1.19441557
        outSlope: -1.19441557
        tangentMode: 0
      - time: .699999988
        value: .153197169
        inSlope: -1.24674916
        outSlope: -1.24674916
        tangentMode: 0
      - time: .716666639
        value: .132033244
        inSlope: -1.28663659
        outSlope: -1.28663659
        tangentMode: 0
      - time: .73333329
        value: .110309325
        inSlope: -1.31385231
        outSlope: -1.31385231
        tangentMode: 0
      - time: .74999994
        value: .0882382095
        inSlope: -1.32818627
        outSlope: -1.32818627
        tangentMode: 0
      - time: .766666591
        value: .0660364926
        inSlope: -1.32949615
        outSlope: -1.32949615
        tangentMode: 0
      - time: .783333242
        value: .0439217165
        inSlope: -1.31770515
        outSlope: -1.31770515
        tangentMode: 0
      - time: .799999893
        value: .0221130271
        inSlope: -1.29278469
        outSlope: -1.29278469
        tangentMode: 0
      - time: .816666543
        value: .000828937569
        inSlope: -1.25477862
        outSlope: -1.25477862
        tangentMode: 0
      - time: .833333194
        value: -.019712884
        inSlope: -1.20376968
        outSlope: -1.20376968
        tangentMode: 0
      - time: .849999845
        value: -.0392966829
        inSlope: -1.12968445
        outSlope: -1.12968445
        tangentMode: 0
      - time: .866666496
        value: -.0573689938
        inSlope: -1.04296732
        outSlope: -1.04296732
        tangentMode: 0
      - time: .883333147
        value: -.0740622282
        inSlope: -.984671593
        outSlope: -.984671593
        tangentMode: 0
      - time: .899999797
        value: -.0901913494
        inSlope: -.975179017
        outSlope: -.975179017
        tangentMode: 0
      - time: .916666448
        value: -.106568165
        inSlope: -.491315663
        outSlope: -.491315663
        tangentMode: 0
      - time: .933333337
        value: -.106568523
        inSlope: -2.14573865e-05
        outSlope: -2.14573865e-05
        tangentMode: 0
      m_PreInfinity: 2
      m_PostInfinity: 2
    attribute: m_LocalRotation.w
    path: 
    classID: 4
    script: {fileID: 0}
  - curve:
      serializedVersion: 2
      m_Curve:
      - time: 0
        value: 1
        inSlope: Infinity
        outSlope: Infinity
        tangentMode: 31
      - time: .916666687
        value: 0
        inSlope: Infinity
        outSlope: Infinity
        tangentMode: 31
      m_PreInfinity: 2
      m_PostInfinity: 2
    attribute: m_Enabled
    path: he019_effect
    classID: 212
    script: {fileID: 0}
  m_EulerEditorCurves:
  - curve:
      serializedVersion: 2
      m_Curve:
      - time: 0
        value: 0
        inSlope: 0
        outSlope: 0
        tangentMode: 10
      - time: .333333343
        value: 0
        inSlope: 0
        outSlope: 0
        tangentMode: 10
      - time: .5
        value: 0
        inSlope: 0
        outSlope: 0
        tangentMode: 10
      - time: .666666687
        value: 0
        inSlope: 0
        outSlope: 0
        tangentMode: 10
      - time: .850000024
        value: 0
        inSlope: 0
        outSlope: 0
        tangentMode: 10
      - time: .933333337
        value: 0
        inSlope: 0
        outSlope: 0
        tangentMode: 10
      m_PreInfinity: 2
      m_PostInfinity: 2
    attribute: localEulerAnglesBaked.x
    path: 
    classID: 4
    script: {fileID: 0}
  - curve:
      serializedVersion: 2
      m_Curve:
      - time: 0
        value: 0
        inSlope: 0
        outSlope: 0
        tangentMode: 10
      - time: .333333343
        value: 0
        inSlope: 0
        outSlope: 0
        tangentMode: 10
      - time: .5
        value: 0
        inSlope: 0
        outSlope: 0
        tangentMode: 10
      - time: .666666687
        value: 0
        inSlope: 0
        outSlope: 0
        tangentMode: 10
      - time: .850000024
        value: 0
        inSlope: 0
        outSlope: 0
        tangentMode: 10
      - time: .933333337
        value: 0
        inSlope: 0
        outSlope: 0
        tangentMode: 10
      m_PreInfinity: 2
      m_PostInfinity: 2
    attribute: localEulerAnglesBaked.y
    path: 
    classID: 4
    script: {fileID: 0}
  - curve:
      serializedVersion: 2
      m_Curve:
      - time: 0
        value: 40.3595886
        inSlope: 193.809647
        outSlope: 193.809647
        tangentMode: 10
      - time: .300000012
        value: 98.5024872
        inSlope: 195.668457
        outSlope: 195.668457
        tangentMode: 10
      - time: .5
        value: 138.007935
        inSlope: 157.968445
        outSlope: 157.968445
        tangentMode: 10
      - time: .666666687
        value: 157.742874
        inSlope: 132.190369
        outSlope: 132.190369
        tangentMode: 10
      - time: .850000024
        value: 184.504242
        inSlope: 130.966705
        outSlope: 130.966705
        tangentMode: 10
      - time: .916666687
        value: 192.235062
        inSlope: 115.962303
        outSlope: 115.962303
        tangentMode: 10
      m_PreInfinity: 2
      m_PostInfinity: 2
    attribute: localEulerAnglesBaked.z
    path: 
    classID: 4
    script: {fileID: 0}
  m_HasGenericRootTransform: 1
  m_HasMotionFloatCurves: 0
  m_GenerateMotionCurves: 0
  m_Events: []
