%YAML 1.1
%TAG !u! tag:unity3d.com,2011:
--- !u!74 &7400000
AnimationClip:
  m_ObjectHideFlags: 0
  m_PrefabParentObject: {fileID: 0}
  m_PrefabInternal: {fileID: 0}
  m_Name: he_eff23
  serializedVersion: 6
  m_Legacy: 0
  m_Compressed: 0
  m_UseHighQualityCurve: 1
  m_RotationCurves:
  - curve:
      serializedVersion: 2
      m_Curve:
      - time: 0
        value: {x: 0, y: 0, z: -.994876146, w: -.101101264}
        inSlope: {x: 0, y: 0, z: -.0315892696, w: .319354504}
        outSlope: {x: 0, y: 0, z: -.0315892696, w: .319354504}
        tangentMode: 0
      - time: .0166666675
        value: {x: 0, y: 0, z: -.995402634, w: -.0957786888}
        inSlope: {x: 0, y: 0, z: -.0310689211, w: .323094606}
        outSlope: {x: 0, y: 0, z: -.0310689211, w: .323094606}
        tangentMode: 0
      - time: .0333333351
        value: {x: 0, y: 0, z: -.995911777, w: -.0903314427}
        inSlope: {x: 0, y: 0, z: -.0298976861, w: .329791427}
        outSlope: {x: 0, y: 0, z: -.0298976861, w: .329791427}
        tangentMode: 0
      - time: .0500000045
        value: {x: 0, y: 0, z: -.996399224, w: -.0847856402}
        inSlope: {x: 0, y: 0, z: -.028486846, w: .334923387}
        outSlope: {x: 0, y: 0, z: -.028486846, w: .334923387}
        tangentMode: 0
      - time: .0666666701
        value: {x: 0, y: 0, z: -.996861339, w: -.0791673288}
        inSlope: {x: 0, y: 0, z: -.0268739481, w: .3384794}
        outSlope: {x: 0, y: 0, z: -.0268739481, w: .3384794}
        tangentMode: 0
      - time: .0833333358
        value: {x: 0, y: 0, z: -.997295022, w: -.0735029951}
        inSlope: {x: 0, y: 0, z: -.025089385, w: .340455711}
        outSlope: {x: 0, y: 0, z: -.025089385, w: .340455711}
        tangentMode: 0
      - time: .100000001
        value: {x: 0, y: 0, z: -.997697651, w: -.0678188056}
        inSlope: {x: 0, y: 0, z: -.0231707115, w: .340853453}
        outSlope: {x: 0, y: 0, z: -.0231707115, w: .340853453}
        tangentMode: 0
      - time: .116666667
        value: {x: 0, y: 0, z: -.998067379, w: -.0621412136}
        inSlope: {x: 0, y: 0, z: -.0211536847, w: .339669526}
        outSlope: {x: 0, y: 0, z: -.0211536847, w: .339669526}
        tangentMode: 0
      - time: .13333334
        value: {x: 0, y: 0, z: -.998402774, w: -.0564964861}
        inSlope: {x: 0, y: 0, z: -.0190740786, w: .336901933}
        outSlope: {x: 0, y: 0, z: -.0190740786, w: .336901933}
        tangentMode: 0
      - time: .150000006
        value: {x: 0, y: 0, z: -.998703182, w: -.0509111471}
        inSlope: {x: 0, y: 0, z: -.0169676561, w: .332553029}
        outSlope: {x: 0, y: 0, z: -.0169676561, w: .332553029}
        tangentMode: 0
      - time: .166666672
        value: {x: 0, y: 0, z: -.998968363, w: -.0454113856}
        inSlope: {x: 0, y: 0, z: -.0148665924, w: .32661438}
        outSlope: {x: 0, y: 0, z: -.0148665924, w: .32661438}
        tangentMode: 0
      - time: .183333337
        value: {x: 0, y: 0, z: -.999198735, w: -.0400240012}
        inSlope: {x: 0, y: 0, z: -.0128030786, w: .319081962}
        outSlope: {x: 0, y: 0, z: -.0128030786, w: .319081962}
        tangentMode: 0
      - time: .200000003
        value: {x: 0, y: 0, z: -.999395132, w: -.0347753204}
        inSlope: {x: 0, y: 0, z: -.0108110914, w: .309966505}
        outSlope: {x: 0, y: 0, z: -.0108110914, w: .309966505}
        tangentMode: 0
      - time: .216666669
        value: {x: 0, y: 0, z: -.999559104, w: -.0296917856}
        inSlope: {x: 0, y: 0, z: -.00891923998, w: .299261212}
        outSlope: {x: 0, y: 0, z: -.00891923998, w: .299261212}
        tangentMode: 0
      - time: .233333334
        value: {x: 0, y: 0, z: -.99969244, w: -.0247999467}
        inSlope: {x: 0, y: 0, z: -.00715077017, w: .286977708}
        outSlope: {x: 0, y: 0, z: -.00715077017, w: .286977708}
        tangentMode: 0
      - time: .25
        value: {x: 0, y: 0, z: -.999797463, w: -.0201258622}
        inSlope: {x: 0, y: 0, z: -.00553071313, w: .273109853}
        outSlope: {x: 0, y: 0, z: -.00553071313, w: .273109853}
        tangentMode: 0
      - time: .266666681
        value: {x: 0, y: 0, z: -.999876797, w: -.0156962816}
        inSlope: {x: 0, y: 0, z: -.00407874212, w: .257644743}
        outSlope: {x: 0, y: 0, z: -.00407874212, w: .257644743}
        tangentMode: 0
      - time: .283333361
        value: {x: 0, y: 0, z: -.999933422, w: -.0115376972}
        inSlope: {x: 0, y: 0, z: -.00282883411, w: .242876321}
        outSlope: {x: 0, y: 0, z: -.00282883411, w: .242876321}
        tangentMode: 0
      - time: .300000042
        value: {x: 0, y: 0, z: -.999971092, w: -.00760039734}
        inSlope: {x: 0, y: 0, z: -.00177919725, w: .231545717}
        outSlope: {x: 0, y: 0, z: -.00177919725, w: .231545717}
        tangentMode: 0
      - time: .316666722
        value: {x: 0, y: 0, z: -.999992728, w: -.0038195001}
        inSlope: {x: 0, y: 0, z: -.000867246883, w: .222066641}
        outSlope: {x: 0, y: 0, z: -.000867246883, w: .222066641}
        tangentMode: 0
      - time: .333333403
        value: {x: 0, y: 0, z: -1, w: -.000198169553}
        inSlope: {x: 0, y: 0, z: -5.90085401e-05, w: .212401718}
        outSlope: {x: 0, y: 0, z: -5.90085401e-05, w: .212401718}
        tangentMode: 0
      - time: .350000083
        value: {x: 0, y: 0, z: -.999994695, w: .00326056289}
        inSlope: {x: 0, y: 0, z: .00064372964, w: .202555269}
        outSlope: {x: 0, y: 0, z: .00064372964, w: .202555269}
        tangentMode: 0
      - time: .366666764
        value: {x: 0, y: 0, z: -.999978542, w: .00655367831}
        inSlope: {x: 0, y: 0, z: .00124633207, w: .192535177}
        outSlope: {x: 0, y: 0, z: .00124633207, w: .192535177}
        tangentMode: 0
      - time: .383333445
        value: {x: 0, y: 0, z: -.999953151, w: .00967840757}
        inSlope: {x: 0, y: 0, z: .00174879888, w: .182331324}
        outSlope: {x: 0, y: 0, z: .00174879888, w: .182331324}
        tangentMode: 0
      - time: .400000125
        value: {x: 0, y: 0, z: -.999920249, w: .012631394}
        inSlope: {x: 0, y: 0, z: .00215649419, w: .17194429}
        outSlope: {x: 0, y: 0, z: .00215649419, w: .17194429}
        tangentMode: 0
      - time: .416666806
        value: {x: 0, y: 0, z: -.999881268, w: .0154098887}
        inSlope: {x: 0, y: 0, z: .00247299485, w: .161385357}
        outSlope: {x: 0, y: 0, z: .00247299485, w: .161385357}
        tangentMode: 0
      - time: .433333486
        value: {x: 0, y: 0, z: -.999837816, w: .0180109106}
        inSlope: {x: 0, y: 0, z: .00270008808, w: .150640547}
        outSlope: {x: 0, y: 0, z: .00270008808, w: .150640547}
        tangentMode: 0
      - time: .450000167
        value: {x: 0, y: 0, z: -.999791265, w: .0204312447}
        inSlope: {x: 0, y: 0, z: .00284313923, w: .139721066}
        outSlope: {x: 0, y: 0, z: .00284313923, w: .139721066}
        tangentMode: 0
      - time: .466666847
        value: {x: 0, y: 0, z: -.999743044, w: .0226682834}
        inSlope: {x: 0, y: 0, z: .00290393597, w: .128630817}
        outSlope: {x: 0, y: 0, z: .00290393597, w: .128630817}
        tangentMode: 0
      - time: .483333528
        value: {x: 0, y: 0, z: -.999694467, w: .0247189421}
        inSlope: {x: 0, y: 0, z: .00289142155, w: .117352121}
        outSlope: {x: 0, y: 0, z: .00289142155, w: .117352121}
        tangentMode: 0
      - time: .500000179
        value: {x: 0, y: 0, z: -.999646664, w: .0265800208}
        inSlope: {x: 0, y: 0, z: .00280559342, w: .105899408}
        outSlope: {x: 0, y: 0, z: .00280559342, w: .105899408}
        tangentMode: 0
      - time: .51666683
        value: {x: 0, y: 0, z: -.999600947, w: .0282489192}
        inSlope: {x: 0, y: 0, z: .00265360135, w: .0942691192}
        outSlope: {x: 0, y: 0, z: .00265360135, w: .0942691192}
        tangentMode: 0
      - time: .53333348
        value: {x: 0, y: 0, z: -.99955821, w: .0297223218}
        inSlope: {x: 0, y: 0, z: .00128209719, w: .0442021191}
        outSlope: {x: 0, y: 0, z: .00128209719, w: .0442021191}
        tangentMode: 0
      - time: .550000012
        value: {x: 0, y: 0, z: -.99955821, w: .0297223218}
        inSlope: {x: 0, y: 0, z: 0, w: 0}
        outSlope: {x: 0, y: 0, z: 0, w: 0}
        tangentMode: 0
      m_PreInfinity: 2
      m_PostInfinity: 2
    path: 
  m_CompressedRotationCurves: []
  m_PositionCurves:
  - curve:
      serializedVersion: 2
      m_Curve:
      - time: 0
        value: {x: -.0759999976, y: .368999988, z: 0}
        inSlope: {x: -4.85796404, y: -3.52433085, z: 0}
        outSlope: {x: -4.85796404, y: -3.52433085, z: 0}
        tangentMode: 0
      - time: .283333331
        value: {x: -1.4524231, y: -.629560411, z: 0}
        inSlope: {x: -4.01210928, y: -3.70808268, z: 0}
        outSlope: {x: -4.01210928, y: -3.70808268, z: 0}
        tangentMode: 0
      - time: .533333361
        value: {x: -2.24398685, y: -1.48599124, z: 0}
        inSlope: {x: -2.66352224, y: -2.43312454, z: 0}
        outSlope: {x: -2.66352224, y: -2.43312454, z: 0}
        tangentMode: 0
      - time: .550000012
        value: {x: -2.27999997, y: -1.50999999, z: 0}
        inSlope: {x: -2.16078973, y: -1.44052649, z: 0}
        outSlope: {x: -2.16078973, y: -1.44052649, z: 0}
        tangentMode: 0
      m_PreInfinity: 2
      m_PostInfinity: 2
    path: 
  - curve:
      serializedVersion: 2
      m_Curve:
      - time: 0
        value: {x: 0, y: 0, z: 0}
        inSlope: {x: -.31411764, y: -.345882356, z: 0}
        outSlope: {x: -.31411764, y: -.345882356, z: 0}
        tangentMode: 0
      - time: .283333331
        value: {x: -.0890000015, y: -.0979999974, z: 0}
        inSlope: {x: -.31411764, y: -.345882356, z: 0}
        outSlope: {x: -.31411764, y: -.345882356, z: 0}
        tangentMode: 0
      m_PreInfinity: 2
      m_PostInfinity: 2
    path: he_eff023
  m_ScaleCurves: []
  m_FloatCurves:
  - curve:
      serializedVersion: 2
      m_Curve:
      - time: 0
        value: 1
        inSlope: Infinity
        outSlope: Infinity
        tangentMode: 31
      - time: .550000012
        value: 0
        inSlope: Infinity
        outSlope: Infinity
        tangentMode: 31
      m_PreInfinity: 2
      m_PostInfinity: 2
    attribute: m_Enabled
    path: he_eff023
    classID: 212
    script: {fileID: 0}
  m_PPtrCurves: []
  m_SampleRate: 60
  m_WrapMode: 0
  m_Bounds:
    m_Center: {x: 0, y: 0, z: 0}
    m_Extent: {x: 0, y: 0, z: 0}
  m_ClipBindingConstant:
    genericBindings:
    - path: 0
      attribute: 1
      script: {fileID: 0}
      classID: 4
      customType: 0
      isPPtrCurve: 0
    - path: 1793680575
      attribute: 1
      script: {fileID: 0}
      classID: 4
      customType: 0
      isPPtrCurve: 0
    - path: 0
      attribute: 2
      script: {fileID: 0}
      classID: 4
      customType: 0
      isPPtrCurve: 0
    - path: 1793680575
      attribute: 3305885265
      script: {fileID: 0}
      classID: 212
      customType: 0
      isPPtrCurve: 0
    pptrCurveMapping: []
  m_AnimationClipSettings:
    serializedVersion: 2
    m_StartTime: 0
    m_StopTime: .550000012
    m_OrientationOffsetY: 0
    m_Level: 0
    m_CycleOffset: 0
    m_LoopTime: 0
    m_LoopBlend: 0
    m_LoopBlendOrientation: 0
    m_LoopBlendPositionY: 0
    m_LoopBlendPositionXZ: 0
    m_KeepOriginalOrientation: 0
    m_KeepOriginalPositionY: 1
    m_KeepOriginalPositionXZ: 0
    m_HeightFromFeet: 0
    m_Mirror: 0
  m_EditorCurves:
  - curve:
      serializedVersion: 2
      m_Curve:
      - time: 0
        value: -.0759999976
        inSlope: -4.85796404
        outSlope: -4.85796404
        tangentMode: 10
      - time: .283333331
        value: -1.4524231
        inSlope: -4.01210928
        outSlope: -4.01210928
        tangentMode: 10
      - time: .533333361
        value: -2.24398685
        inSlope: -2.66352224
        outSlope: -2.66352224
        tangentMode: 10
      - time: .550000012
        value: -2.27999997
        inSlope: -2.16078973
        outSlope: -2.16078973
        tangentMode: 10
      m_PreInfinity: 2
      m_PostInfinity: 2
    attribute: m_LocalPosition.x
    path: 
    classID: 4
    script: {fileID: 0}
  - curve:
      serializedVersion: 2
      m_Curve:
      - time: 0
        value: .368999988
        inSlope: -3.52433085
        outSlope: -3.52433085
        tangentMode: 10
      - time: .283333331
        value: -.629560411
        inSlope: -3.70808268
        outSlope: -3.70808268
        tangentMode: 0
      - time: .533333361
        value: -1.48599124
        inSlope: -2.43312454
        outSlope: -2.43312454
        tangentMode: 10
      - time: .550000012
        value: -1.50999999
        inSlope: -1.44052649
        outSlope: -1.44052649
        tangentMode: 10
      m_PreInfinity: 2
      m_PostInfinity: 2
    attribute: m_LocalPosition.y
    path: 
    classID: 4
    script: {fileID: 0}
  - curve:
      serializedVersion: 2
      m_Curve:
      - time: 0
        value: 0
        inSlope: 0
        outSlope: 0
        tangentMode: 10
      - time: .283333331
        value: 0
        inSlope: 0
        outSlope: 0
        tangentMode: 10
      - time: .533333361
        value: 0
        inSlope: 0
        outSlope: 0
        tangentMode: 10
      - time: .550000012
        value: 0
        inSlope: 0
        outSlope: 0
        tangentMode: 10
      m_PreInfinity: 2
      m_PostInfinity: 2
    attribute: m_LocalPosition.z
    path: 
    classID: 4
    script: {fileID: 0}
  - curve:
      serializedVersion: 2
      m_Curve:
      - time: 0
        value: 1
        inSlope: Infinity
        outSlope: Infinity
        tangentMode: 31
      - time: .550000012
        value: 0
        inSlope: Infinity
        outSlope: Infinity
        tangentMode: 31
      m_PreInfinity: 2
      m_PostInfinity: 2
    attribute: m_Enabled
    path: he_eff023
    classID: 212
    script: {fileID: 0}
  - curve:
      serializedVersion: 2
      m_Curve:
      - time: 0
        value: 0
        inSlope: -.31411764
        outSlope: -.31411764
        tangentMode: 10
      - time: .283333331
        value: -.0890000015
        inSlope: -.31411764
        outSlope: -.31411764
        tangentMode: 10
      m_PreInfinity: 2
      m_PostInfinity: 2
    attribute: m_LocalPosition.x
    path: he_eff023
    classID: 4
    script: {fileID: 0}
  - curve:
      serializedVersion: 2
      m_Curve:
      - time: 0
        value: 0
        inSlope: -.345882356
        outSlope: -.345882356
        tangentMode: 10
      - time: .283333331
        value: -.0979999974
        inSlope: -.345882356
        outSlope: -.345882356
        tangentMode: 10
      m_PreInfinity: 2
      m_PostInfinity: 2
    attribute: m_LocalPosition.y
    path: he_eff023
    classID: 4
    script: {fileID: 0}
  - curve:
      serializedVersion: 2
      m_Curve:
      - time: 0
        value: 0
        inSlope: 0
        outSlope: 0
        tangentMode: 10
      - time: .283333331
        value: 0
        inSlope: 0
        outSlope: 0
        tangentMode: 10
      m_PreInfinity: 2
      m_PostInfinity: 2
    attribute: m_LocalPosition.z
    path: he_eff023
    classID: 4
    script: {fileID: 0}
  - curve:
      serializedVersion: 2
      m_Curve:
      - time: 0
        value: 0
        inSlope: 0
        outSlope: 0
        tangentMode: 0
      - time: .0166666675
        value: 0
        inSlope: 0
        outSlope: 0
        tangentMode: 0
      - time: .0333333351
        value: 0
        inSlope: 0
        outSlope: 0
        tangentMode: 0
      - time: .0500000045
        value: 0
        inSlope: 0
        outSlope: 0
        tangentMode: 0
      - time: .0666666701
        value: 0
        inSlope: 0
        outSlope: 0
        tangentMode: 0
      - time: .0833333358
        value: 0
        inSlope: 0
        outSlope: 0
        tangentMode: 0
      - time: .100000001
        value: 0
        inSlope: 0
        outSlope: 0
        tangentMode: 0
      - time: .116666667
        value: 0
        inSlope: 0
        outSlope: 0
        tangentMode: 0
      - time: .13333334
        value: 0
        inSlope: 0
        outSlope: 0
        tangentMode: 0
      - time: .150000006
        value: 0
        inSlope: 0
        outSlope: 0
        tangentMode: 0
      - time: .166666672
        value: 0
        inSlope: 0
        outSlope: 0
        tangentMode: 0
      - time: .183333337
        value: 0
        inSlope: 0
        outSlope: 0
        tangentMode: 0
      - time: .200000003
        value: 0
        inSlope: 0
        outSlope: 0
        tangentMode: 0
      - time: .216666669
        value: 0
        inSlope: 0
        outSlope: 0
        tangentMode: 0
      - time: .233333334
        value: 0
        inSlope: 0
        outSlope: 0
        tangentMode: 0
      - time: .25
        value: 0
        inSlope: 0
        outSlope: 0
        tangentMode: 0
      - time: .266666681
        value: 0
        inSlope: 0
        outSlope: 0
        tangentMode: 0
      - time: .283333361
        value: 0
        inSlope: 0
        outSlope: 0
        tangentMode: 0
      - time: .300000042
        value: 0
        inSlope: 0
        outSlope: 0
        tangentMode: 0
      - time: .316666722
        value: 0
        inSlope: 0
        outSlope: 0
        tangentMode: 0
      - time: .333333403
        value: 0
        inSlope: 0
        outSlope: 0
        tangentMode: 0
      - time: .350000083
        value: 0
        inSlope: 0
        outSlope: 0
        tangentMode: 0
      - time: .366666764
        value: 0
        inSlope: 0
        outSlope: 0
        tangentMode: 0
      - time: .383333445
        value: 0
        inSlope: 0
        outSlope: 0
        tangentMode: 0
      - time: .400000125
        value: 0
        inSlope: 0
        outSlope: 0
        tangentMode: 0
      - time: .416666806
        value: 0
        inSlope: 0
        outSlope: 0
        tangentMode: 0
      - time: .433333486
        value: 0
        inSlope: 0
        outSlope: 0
        tangentMode: 0
      - time: .450000167
        value: 0
        inSlope: 0
        outSlope: 0
        tangentMode: 0
      - time: .466666847
        value: 0
        inSlope: 0
        outSlope: 0
        tangentMode: 0
      - time: .483333528
        value: 0
        inSlope: 0
        outSlope: 0
        tangentMode: 0
      - time: .500000179
        value: 0
        inSlope: 0
        outSlope: 0
        tangentMode: 0
      - time: .51666683
        value: 0
        inSlope: 0
        outSlope: 0
        tangentMode: 0
      - time: .53333348
        value: 0
        inSlope: 0
        outSlope: 0
        tangentMode: 0
      - time: .550000012
        value: 0
        inSlope: 0
        outSlope: 0
        tangentMode: 0
      m_PreInfinity: 2
      m_PostInfinity: 2
    attribute: m_LocalRotation.x
    path: 
    classID: 4
    script: {fileID: 0}
  - curve:
      serializedVersion: 2
      m_Curve:
      - time: 0
        value: 0
        inSlope: 0
        outSlope: 0
        tangentMode: 0
      - time: .0166666675
        value: 0
        inSlope: 0
        outSlope: 0
        tangentMode: 0
      - time: .0333333351
        value: 0
        inSlope: 0
        outSlope: 0
        tangentMode: 0
      - time: .0500000045
        value: 0
        inSlope: 0
        outSlope: 0
        tangentMode: 0
      - time: .0666666701
        value: 0
        inSlope: 0
        outSlope: 0
        tangentMode: 0
      - time: .0833333358
        value: 0
        inSlope: 0
        outSlope: 0
        tangentMode: 0
      - time: .100000001
        value: 0
        inSlope: 0
        outSlope: 0
        tangentMode: 0
      - time: .116666667
        value: 0
        inSlope: 0
        outSlope: 0
        tangentMode: 0
      - time: .13333334
        value: 0
        inSlope: 0
        outSlope: 0
        tangentMode: 0
      - time: .150000006
        value: 0
        inSlope: 0
        outSlope: 0
        tangentMode: 0
      - time: .166666672
        value: 0
        inSlope: 0
        outSlope: 0
        tangentMode: 0
      - time: .183333337
        value: 0
        inSlope: 0
        outSlope: 0
        tangentMode: 0
      - time: .200000003
        value: 0
        inSlope: 0
        outSlope: 0
        tangentMode: 0
      - time: .216666669
        value: 0
        inSlope: 0
        outSlope: 0
        tangentMode: 0
      - time: .233333334
        value: 0
        inSlope: 0
        outSlope: 0
        tangentMode: 0
      - time: .25
        value: 0
        inSlope: 0
        outSlope: 0
        tangentMode: 0
      - time: .266666681
        value: 0
        inSlope: 0
        outSlope: 0
        tangentMode: 0
      - time: .283333361
        value: 0
        inSlope: 0
        outSlope: 0
        tangentMode: 0
      - time: .300000042
        value: 0
        inSlope: 0
        outSlope: 0
        tangentMode: 0
      - time: .316666722
        value: 0
        inSlope: 0
        outSlope: 0
        tangentMode: 0
      - time: .333333403
        value: 0
        inSlope: 0
        outSlope: 0
        tangentMode: 0
      - time: .350000083
        value: 0
        inSlope: 0
        outSlope: 0
        tangentMode: 0
      - time: .366666764
        value: 0
        inSlope: 0
        outSlope: 0
        tangentMode: 0
      - time: .383333445
        value: 0
        inSlope: 0
        outSlope: 0
        tangentMode: 0
      - time: .400000125
        value: 0
        inSlope: 0
        outSlope: 0
        tangentMode: 0
      - time: .416666806
        value: 0
        inSlope: 0
        outSlope: 0
        tangentMode: 0
      - time: .433333486
        value: 0
        inSlope: 0
        outSlope: 0
        tangentMode: 0
      - time: .450000167
        value: 0
        inSlope: 0
        outSlope: 0
        tangentMode: 0
      - time: .466666847
        value: 0
        inSlope: 0
        outSlope: 0
        tangentMode: 0
      - time: .483333528
        value: 0
        inSlope: 0
        outSlope: 0
        tangentMode: 0
      - time: .500000179
        value: 0
        inSlope: 0
        outSlope: 0
        tangentMode: 0
      - time: .51666683
        value: 0
        inSlope: 0
        outSlope: 0
        tangentMode: 0
      - time: .53333348
        value: 0
        inSlope: 0
        outSlope: 0
        tangentMode: 0
      - time: .550000012
        value: 0
        inSlope: 0
        outSlope: 0
        tangentMode: 0
      m_PreInfinity: 2
      m_PostInfinity: 2
    attribute: m_LocalRotation.y
    path: 
    classID: 4
    script: {fileID: 0}
  - curve:
      serializedVersion: 2
      m_Curve:
      - time: 0
        value: -.994876146
        inSlope: -.0315892696
        outSlope: -.0315892696
        tangentMode: 0
      - time: .0166666675
        value: -.995402634
        inSlope: -.0310689211
        outSlope: -.0310689211
        tangentMode: 0
      - time: .0333333351
        value: -.995911777
        inSlope: -.0298976861
        outSlope: -.0298976861
        tangentMode: 0
      - time: .0500000045
        value: -.996399224
        inSlope: -.028486846
        outSlope: -.028486846
        tangentMode: 0
      - time: .0666666701
        value: -.996861339
        inSlope: -.0268739481
        outSlope: -.0268739481
        tangentMode: 0
      - time: .0833333358
        value: -.997295022
        inSlope: -.025089385
        outSlope: -.025089385
        tangentMode: 0
      - time: .100000001
        value: -.997697651
        inSlope: -.0231707115
        outSlope: -.0231707115
        tangentMode: 0
      - time: .116666667
        value: -.998067379
        inSlope: -.0211536847
        outSlope: -.0211536847
        tangentMode: 0
      - time: .13333334
        value: -.998402774
        inSlope: -.0190740786
        outSlope: -.0190740786
        tangentMode: 0
      - time: .150000006
        value: -.998703182
        inSlope: -.0169676561
        outSlope: -.0169676561
        tangentMode: 0
      - time: .166666672
        value: -.998968363
        inSlope: -.0148665924
        outSlope: -.0148665924
        tangentMode: 0
      - time: .183333337
        value: -.999198735
        inSlope: -.0128030786
        outSlope: -.0128030786
        tangentMode: 0
      - time: .200000003
        value: -.999395132
        inSlope: -.0108110914
        outSlope: -.0108110914
        tangentMode: 0
      - time: .216666669
        value: -.999559104
        inSlope: -.00891923998
        outSlope: -.00891923998
        tangentMode: 0
      - time: .233333334
        value: -.99969244
        inSlope: -.00715077017
        outSlope: -.00715077017
        tangentMode: 0
      - time: .25
        value: -.999797463
        inSlope: -.00553071313
        outSlope: -.00553071313
        tangentMode: 0
      - time: .266666681
        value: -.999876797
        inSlope: -.00407874212
        outSlope: -.00407874212
        tangentMode: 0
      - time: .283333361
        value: -.999933422
        inSlope: -.00282883411
        outSlope: -.00282883411
        tangentMode: 0
      - time: .300000042
        value: -.999971092
        inSlope: -.00177919725
        outSlope: -.00177919725
        tangentMode: 0
      - time: .316666722
        value: -.999992728
        inSlope: -.000867246883
        outSlope: -.000867246883
        tangentMode: 0
      - time: .333333403
        value: -1
        inSlope: -5.90085401e-05
        outSlope: -5.90085401e-05
        tangentMode: 0
      - time: .350000083
        value: -.999994695
        inSlope: .00064372964
        outSlope: .00064372964
        tangentMode: 0
      - time: .366666764
        value: -.999978542
        inSlope: .00124633207
        outSlope: .00124633207
        tangentMode: 0
      - time: .383333445
        value: -.999953151
        inSlope: .00174879888
        outSlope: .00174879888
        tangentMode: 0
      - time: .400000125
        value: -.999920249
        inSlope: .00215649419
        outSlope: .00215649419
        tangentMode: 0
      - time: .416666806
        value: -.999881268
        inSlope: .00247299485
        outSlope: .00247299485
        tangentMode: 0
      - time: .433333486
        value: -.999837816
        inSlope: .00270008808
        outSlope: .00270008808
        tangentMode: 0
      - time: .450000167
        value: -.999791265
        inSlope: .00284313923
        outSlope: .00284313923
        tangentMode: 0
      - time: .466666847
        value: -.999743044
        inSlope: .00290393597
        outSlope: .00290393597
        tangentMode: 0
      - time: .483333528
        value: -.999694467
        inSlope: .00289142155
        outSlope: .00289142155
        tangentMode: 0
      - time: .500000179
        value: -.999646664
        inSlope: .00280559342
        outSlope: .00280559342
        tangentMode: 0
      - time: .51666683
        value: -.999600947
        inSlope: .00265360135
        outSlope: .00265360135
        tangentMode: 0
      - time: .53333348
        value: -.99955821
        inSlope: .00128209719
        outSlope: .00128209719
        tangentMode: 0
      - time: .550000012
        value: -.99955821
        inSlope: 0
        outSlope: 0
        tangentMode: 0
      m_PreInfinity: 2
      m_PostInfinity: 2
    attribute: m_LocalRotation.z
    path: 
    classID: 4
    script: {fileID: 0}
  - curve:
      serializedVersion: 2
      m_Curve:
      - time: 0
        value: -.101101264
        inSlope: .319354504
        outSlope: .319354504
        tangentMode: 0
      - time: .0166666675
        value: -.0957786888
        inSlope: .323094606
        outSlope: .323094606
        tangentMode: 0
      - time: .0333333351
        value: -.0903314427
        inSlope: .329791427
        outSlope: .329791427
        tangentMode: 0
      - time: .0500000045
        value: -.0847856402
        inSlope: .334923387
        outSlope: .334923387
        tangentMode: 0
      - time: .0666666701
        value: -.0791673288
        inSlope: .3384794
        outSlope: .3384794
        tangentMode: 0
      - time: .0833333358
        value: -.0735029951
        inSlope: .340455711
        outSlope: .340455711
        tangentMode: 0
      - time: .100000001
        value: -.0678188056
        inSlope: .340853453
        outSlope: .340853453
        tangentMode: 0
      - time: .116666667
        value: -.0621412136
        inSlope: .339669526
        outSlope: .339669526
        tangentMode: 0
      - time: .13333334
        value: -.0564964861
        inSlope: .336901933
        outSlope: .336901933
        tangentMode: 0
      - time: .150000006
        value: -.0509111471
        inSlope: .332553029
        outSlope: .332553029
        tangentMode: 0
      - time: .166666672
        value: -.0454113856
        inSlope: .32661438
        outSlope: .32661438
        tangentMode: 0
      - time: .183333337
        value: -.0400240012
        inSlope: .319081962
        outSlope: .319081962
        tangentMode: 0
      - time: .200000003
        value: -.0347753204
        inSlope: .309966505
        outSlope: .309966505
        tangentMode: 0
      - time: .216666669
        value: -.0296917856
        inSlope: .299261212
        outSlope: .299261212
        tangentMode: 0
      - time: .233333334
        value: -.0247999467
        inSlope: .286977708
        outSlope: .286977708
        tangentMode: 0
      - time: .25
        value: -.0201258622
        inSlope: .273109853
        outSlope: .273109853
        tangentMode: 0
      - time: .266666681
        value: -.0156962816
        inSlope: .257644743
        outSlope: .257644743
        tangentMode: 0
      - time: .283333361
        value: -.0115376972
        inSlope: .242876321
        outSlope: .242876321
        tangentMode: 0
      - time: .300000042
        value: -.00760039734
        inSlope: .231545717
        outSlope: .231545717
        tangentMode: 0
      - time: .316666722
        value: -.0038195001
        inSlope: .222066641
        outSlope: .222066641
        tangentMode: 0
      - time: .333333403
        value: -.000198169553
        inSlope: .212401718
        outSlope: .212401718
        tangentMode: 0
      - time: .350000083
        value: .00326056289
        inSlope: .202555269
        outSlope: .202555269
        tangentMode: 0
      - time: .366666764
        value: .00655367831
        inSlope: .192535177
        outSlope: .192535177
        tangentMode: 0
      - time: .383333445
        value: .00967840757
        inSlope: .182331324
        outSlope: .182331324
        tangentMode: 0
      - time: .400000125
        value: .012631394
        inSlope: .17194429
        outSlope: .17194429
        tangentMode: 0
      - time: .416666806
        value: .0154098887
        inSlope: .161385357
        outSlope: .161385357
        tangentMode: 0
      - time: .433333486
        value: .0180109106
        inSlope: .150640547
        outSlope: .150640547
        tangentMode: 0
      - time: .450000167
        value: .0204312447
        inSlope: .139721066
        outSlope: .139721066
        tangentMode: 0
      - time: .466666847
        value: .0226682834
        inSlope: .128630817
        outSlope: .128630817
        tangentMode: 0
      - time: .483333528
        value: .0247189421
        inSlope: .117352121
        outSlope: .117352121
        tangentMode: 0
      - time: .500000179
        value: .0265800208
        inSlope: .105899408
        outSlope: .105899408
        tangentMode: 0
      - time: .51666683
        value: .0282489192
        inSlope: .0942691192
        outSlope: .0942691192
        tangentMode: 0
      - time: .53333348
        value: .0297223218
        inSlope: .0442021191
        outSlope: .0442021191
        tangentMode: 0
      - time: .550000012
        value: .0297223218
        inSlope: 0
        outSlope: 0
        tangentMode: 0
      m_PreInfinity: 2
      m_PostInfinity: 2
    attribute: m_LocalRotation.w
    path: 
    classID: 4
    script: {fileID: 0}
  m_EulerEditorCurves:
  - curve:
      serializedVersion: 2
      m_Curve:
      - time: 0
        value: 0
        inSlope: 0
        outSlope: 0
        tangentMode: 10
      - time: .283333331
        value: 0
        inSlope: 0
        outSlope: 0
        tangentMode: 10
      - time: .533333361
        value: 0
        inSlope: 0
        outSlope: 0
        tangentMode: 10
      - time: .550000012
        value: 0
        inSlope: 0
        outSlope: 0
        tangentMode: 10
      m_PreInfinity: 2
      m_PostInfinity: 2
    attribute: localEulerAnglesBaked.x
    path: 
    classID: 4
    script: {fileID: 0}
  - curve:
      serializedVersion: 2
      m_Curve:
      - time: 0
        value: 0
        inSlope: 0
        outSlope: 0
        tangentMode: 10
      - time: .283333331
        value: 0
        inSlope: 0
        outSlope: 0
        tangentMode: 10
      - time: .533333361
        value: 0
        inSlope: 0
        outSlope: 0
        tangentMode: 10
      - time: .550000012
        value: 0
        inSlope: 0
        outSlope: 0
        tangentMode: 10
      m_PreInfinity: 2
      m_PostInfinity: 2
    attribute: localEulerAnglesBaked.y
    path: 
    classID: 4
    script: {fileID: 0}
  - curve:
      serializedVersion: 2
      m_Curve:
      - time: 0
        value: -191.605164
        inSlope: 36.2930641
        outSlope: 36.2930641
        tangentMode: 10
      - time: .283333331
        value: -181.322128
        inSlope: 27.6036835
        outSlope: 27.6036835
        tangentMode: 10
      - time: .533333361
        value: -176.593552
        inSlope: 9.45715237
        outSlope: 9.45715237
        tangentMode: 10
      - time: .550000012
        value: -176.593552
        inSlope: 0
        outSlope: 0
        tangentMode: 10
      m_PreInfinity: 2
      m_PostInfinity: 2
    attribute: localEulerAnglesBaked.z
    path: 
    classID: 4
    script: {fileID: 0}
  m_HasGenericRootTransform: 1
  m_HasMotionFloatCurves: 0
  m_GenerateMotionCurves: 0
  m_Events: []
