%YAML 1.1
%TAG !u! tag:unity3d.com,2011:
--- !u!114 &11400000
MonoBehaviour:
  m_ObjectHideFlags: 0
  m_PrefabParentObject: {fileID: 0}
  m_PrefabInternal: {fileID: 0}
  m_GameObject: {fileID: 0}
  m_Enabled: 1
  m_EditorHideFlags: 0
  m_Script: {fileID: 11500000, guid: b6c88e76926c9a64b92874e628e03a83, type: 3}
  m_Name: pvp_ui
  m_EditorClassIdentifier: 
  m_Texture: {fileID: 2800000, guid: 73f48ab78301247288c09bf7e964ba21, type: 3}
  m_Padding: 1
  m_MaxSize: 256
  m_PackingMethod: 0
  m_DefaultPivot: 0
  m_DefaultCustomPivot: {x: 0.5, y: 0.5}
  m_Sprites:
  - source: {fileID: 21300000, guid: ff7dd5d01b4e3406f9e25416d1ff1813, type: 3}
    targetSprite: {fileID: 21300000, guid: 73f48ab78301247288c09bf7e964ba21, type: 3}
  - source: {fileID: 21300000, guid: 8f4e5aea7cdd44587b4c0a7e3217983a, type: 3}
    targetSprite: {fileID: 21300008, guid: 73f48ab78301247288c09bf7e964ba21, type: 3}
  - source: {fileID: 21300000, guid: 941d6bf3f08694218a37b39e169d46b4, type: 3}
    targetSprite: {fileID: 21300002, guid: 73f48ab78301247288c09bf7e964ba21, type: 3}
  - source: {fileID: 21300000, guid: 0c5f953fdc3224479badfe67fcb1fe09, type: 3}
    targetSprite: {fileID: 21300004, guid: 73f48ab78301247288c09bf7e964ba21, type: 3}
  - source: {fileID: 21300000, guid: f7dab8a357f7744099eada24f62253e5, type: 3}
    targetSprite: {fileID: 21300006, guid: 73f48ab78301247288c09bf7e964ba21, type: 3}
  m_PendingActions: []
