%YAML 1.1
%TAG !u! tag:unity3d.com,2011:
--- !u!114 &11400000
MonoBehaviour:
  m_ObjectHideFlags: 0
  m_PrefabParentObject: {fileID: 0}
  m_PrefabInternal: {fileID: 0}
  m_GameObject: {fileID: 0}
  m_Enabled: 1
  m_EditorHideFlags: 0
  m_Script: {fileID: 11500000, guid: b6c88e76926c9a64b92874e628e03a83, type: 3}
  m_Name: overlay_icon_hero
  m_EditorClassIdentifier: 
  m_Texture: {fileID: 2800000, guid: 2a91fc4a1b2a54b188dfc62e06437ad2, type: 3}
  m_Padding: 1
  m_MaxSize: 512
  m_PackingMethod: 0
  m_DefaultPivot: 0
  m_DefaultCustomPivot: {x: .5, y: .5}
  m_Sprites:
  - source: {fileID: 21300000, guid: 4555fc50c821f4436a58211b5a0d6298, type: 3}
    targetSprite: {fileID: 21300012, guid: 2a91fc4a1b2a54b188dfc62e06437ad2, type: 3}
  - source: {fileID: 21300000, guid: 1ad414e1814ec448c9106e6529565c9b, type: 3}
    targetSprite: {fileID: 21300010, guid: 2a91fc4a1b2a54b188dfc62e06437ad2, type: 3}
  - source: {fileID: 21300000, guid: 3829d5f2511ec45d2b010aeff8ef7bde, type: 3}
    targetSprite: {fileID: 21300016, guid: 2a91fc4a1b2a54b188dfc62e06437ad2, type: 3}
  - source: {fileID: 21300000, guid: a173f234a6274480990c78ad43a83dc7, type: 3}
    targetSprite: {fileID: 21300014, guid: 2a91fc4a1b2a54b188dfc62e06437ad2, type: 3}
  - source: {fileID: 21300000, guid: 99b8b075617a3450e9dc3a1e37641994, type: 3}
    targetSprite: {fileID: 21300008, guid: 2a91fc4a1b2a54b188dfc62e06437ad2, type: 3}
  - source: {fileID: 21300000, guid: db034bc79367841d09ff8fa4913a903f, type: 3}
    targetSprite: {fileID: 21300002, guid: 2a91fc4a1b2a54b188dfc62e06437ad2, type: 3}
  - source: {fileID: 21300000, guid: ca1b60383d12240e4be865219691bbf4, type: 3}
    targetSprite: {fileID: 21300000, guid: 2a91fc4a1b2a54b188dfc62e06437ad2, type: 3}
  - source: {fileID: 21300000, guid: 0e4f2c48374294dd18a511120bb2296f, type: 3}
    targetSprite: {fileID: 21300006, guid: 2a91fc4a1b2a54b188dfc62e06437ad2, type: 3}
  - source: {fileID: 21300000, guid: 4a50d539df67742bd8c277ebdc17b54d, type: 3}
    targetSprite: {fileID: 21300004, guid: 2a91fc4a1b2a54b188dfc62e06437ad2, type: 3}
  m_PendingActions: []
