%YAML 1.1
%TAG !u! tag:unity3d.com,2011:
--- !u!74 &7400000
AnimationClip:
  m_ObjectHideFlags: 0
  m_PrefabParentObject: {fileID: 0}
  m_PrefabInternal: {fileID: 0}
  m_Name: Dead
  serializedVersion: 6
  m_Legacy: 0
  m_Compressed: 0
  m_UseHighQualityCurve: 1
  m_RotationCurves: []
  m_CompressedRotationCurves: []
  m_PositionCurves: []
  m_ScaleCurves:
  - curve:
      serializedVersion: 2
      m_Curve:
      - time: 0
        value: {x: 1, y: 1, z: 1}
        inSlope: {x: 0, y: 0, z: 0}
        outSlope: {x: 0, y: 0, z: 0}
        tangentMode: 0
      - time: .0666666701
        value: {x: 1, y: 1, z: 1}
        inSlope: {x: Infinity, y: Infinity, z: Infinity}
        outSlope: {x: 6, y: 6, z: 0}
        tangentMode: 0
      - time: .25
        value: {x: 1.00999999, y: 1.00999999, z: 1}
        inSlope: {x: -.392727196, y: -.392727196, z: 0}
        outSlope: {x: -.392727196, y: -.392727196, z: 0}
        tangentMode: 0
      - time: .333333343
        value: {x: .939999998, y: .939999998, z: 1}
        inSlope: {x: -.839999795, y: -.839999795, z: 0}
        outSlope: {x: -.839999795, y: -.839999795, z: 0}
        tangentMode: 0
      m_PreInfinity: 2
      m_PostInfinity: 2
    path: 
  m_FloatCurves:
  - curve:
      serializedVersion: 2
      m_Curve:
      - time: 0
        value: 1
        inSlope: 0
        outSlope: 0
        tangentMode: 10
      - time: 1
        value: 1
        inSlope: 0
        outSlope: 0
        tangentMode: 10
      m_PreInfinity: 2
      m_PostInfinity: 2
    attribute: m_Color.r
    path: EnemyBody
    classID: 212
    script: {fileID: 0}
  - curve:
      serializedVersion: 2
      m_Curve:
      - time: 0
        value: 1
        inSlope: 0
        outSlope: 0
        tangentMode: 10
      - time: 1
        value: 1
        inSlope: 0
        outSlope: 0
        tangentMode: 10
      m_PreInfinity: 2
      m_PostInfinity: 2
    attribute: m_Color.g
    path: EnemyBody
    classID: 212
    script: {fileID: 0}
  - curve:
      serializedVersion: 2
      m_Curve:
      - time: 0
        value: 1
        inSlope: 0
        outSlope: 0
        tangentMode: 10
      - time: 1
        value: 1
        inSlope: 0
        outSlope: 0
        tangentMode: 10
      m_PreInfinity: 2
      m_PostInfinity: 2
    attribute: m_Color.b
    path: EnemyBody
    classID: 212
    script: {fileID: 0}
  - curve:
      serializedVersion: 2
      m_Curve:
      - time: 0
        value: 1
        inSlope: 0
        outSlope: 0
        tangentMode: 10
      - time: .166666672
        value: 1
        inSlope: -3
        outSlope: -3
        tangentMode: 10
      - time: .333333343
        value: 0
        inSlope: -3
        outSlope: -3
        tangentMode: 10
      - time: 1
        value: 0
        inSlope: 0
        outSlope: 0
        tangentMode: 10
      m_PreInfinity: 2
      m_PostInfinity: 2
    attribute: m_Color.a
    path: EnemyBody
    classID: 212
    script: {fileID: 0}
  - curve:
      serializedVersion: 2
      m_Curve:
      - time: 0
        value: 0
        inSlope: Infinity
        outSlope: Infinity
        tangentMode: 31
      - time: .166666672
        value: 0
        inSlope: 0
        outSlope: 0
        tangentMode: 15
      - time: .983333349
        value: 0
        inSlope: 30.0000286
        outSlope: 30.0000286
        tangentMode: 10
      - time: 1
        value: 1
        inSlope: 60.0000572
        outSlope: 60.0000572
        tangentMode: 10
      m_PreInfinity: 2
      m_PostInfinity: 2
    attribute: material._FlashColor.r
    path: EnemyBody
    classID: 212
    script: {fileID: 0}
  - curve:
      serializedVersion: 2
      m_Curve:
      - time: 0
        value: 0
        inSlope: Infinity
        outSlope: Infinity
        tangentMode: 31
      - time: .166666672
        value: 0
        inSlope: 0
        outSlope: 0
        tangentMode: 15
      - time: .983333349
        value: 0
        inSlope: 30.0000286
        outSlope: 30.0000286
        tangentMode: 10
      - time: 1
        value: 1
        inSlope: 60.0000572
        outSlope: 60.0000572
        tangentMode: 10
      m_PreInfinity: 2
      m_PostInfinity: 2
    attribute: material._FlashColor.g
    path: EnemyBody
    classID: 212
    script: {fileID: 0}
  - curve:
      serializedVersion: 2
      m_Curve:
      - time: 0
        value: 0
        inSlope: Infinity
        outSlope: Infinity
        tangentMode: 31
      - time: .166666672
        value: 0
        inSlope: 0
        outSlope: 0
        tangentMode: 15
      - time: .983333349
        value: 0
        inSlope: 30.0000286
        outSlope: 30.0000286
        tangentMode: 10
      - time: 1
        value: 1
        inSlope: 60.0000572
        outSlope: 60.0000572
        tangentMode: 10
      m_PreInfinity: 2
      m_PostInfinity: 2
    attribute: material._FlashColor.b
    path: EnemyBody
    classID: 212
    script: {fileID: 0}
  - curve:
      serializedVersion: 2
      m_Curve:
      - time: 0
        value: 1
        inSlope: Infinity
        outSlope: Infinity
        tangentMode: 31
      - time: 1
        value: 1
        inSlope: 0
        outSlope: 0
        tangentMode: 10
      m_PreInfinity: 2
      m_PostInfinity: 2
    attribute: material._FlashColor.a
    path: EnemyBody
    classID: 212
    script: {fileID: 0}
  - curve:
      serializedVersion: 2
      m_Curve:
      - time: 0
        value: 0
        inSlope: 8.5714283
        outSlope: 8.5714283
        tangentMode: 10
      - time: .116666667
        value: 1
        inSlope: 5.16897869
        outSlope: 5.16897869
        tangentMode: 10
      - time: .333333343
        value: 1.38274801
        inSlope: -.153796494
        outSlope: -.153796494
        tangentMode: 10
      - time: 1
        value: 0
        inSlope: -2.07412219
        outSlope: -2.07412219
        tangentMode: 10
      m_PreInfinity: 2
      m_PostInfinity: 2
    attribute: material._FlashAmount
    path: EnemyBody
    classID: 212
    script: {fileID: 0}
  - curve:
      serializedVersion: 2
      m_Curve:
      - time: 0
        value: 0
        inSlope: Infinity
        outSlope: Infinity
        tangentMode: 31
      - time: 1
        value: 0
        inSlope: Infinity
        outSlope: Infinity
        tangentMode: 31
      m_PreInfinity: 2
      m_PostInfinity: 2
    attribute: m_Enabled
    path: EnemyEyeOnHit
    classID: 212
    script: {fileID: 0}
  m_PPtrCurves: []
  m_SampleRate: 60
  m_WrapMode: 0
  m_Bounds:
    m_Center: {x: 0, y: 0, z: 0}
    m_Extent: {x: 0, y: 0, z: 0}
  m_ClipBindingConstant:
    genericBindings:
    - path: 0
      attribute: 3
      script: {fileID: 0}
      classID: 4
      customType: 0
      isPPtrCurve: 0
    - path: 1955948167
      attribute: 304273561
      script: {fileID: 0}
      classID: 212
      customType: 0
      isPPtrCurve: 0
    - path: 1955948167
      attribute: 1306651149
      script: {fileID: 0}
      classID: 212
      customType: 22
      isPPtrCurve: 0
    - path: 1955948167
      attribute: 1575086605
      script: {fileID: 0}
      classID: 212
      customType: 22
      isPPtrCurve: 0
    - path: 1955948167
      attribute: 1843522061
      script: {fileID: 0}
      classID: 212
      customType: 22
      isPPtrCurve: 0
    - path: 1955948167
      attribute: 2111957517
      script: {fileID: 0}
      classID: 212
      customType: 22
      isPPtrCurve: 0
    - path: 1955948167
      attribute: 2303582593
      script: {fileID: 0}
      classID: 212
      customType: 22
      isPPtrCurve: 0
    - path: 3944688283
      attribute: 3305885265
      script: {fileID: 0}
      classID: 212
      customType: 0
      isPPtrCurve: 0
    - path: 1955948167
      attribute: 2526845255
      script: {fileID: 0}
      classID: 212
      customType: 0
      isPPtrCurve: 0
    - path: 1955948167
      attribute: 4215373228
      script: {fileID: 0}
      classID: 212
      customType: 0
      isPPtrCurve: 0
    - path: 1955948167
      attribute: 2334886179
      script: {fileID: 0}
      classID: 212
      customType: 0
      isPPtrCurve: 0
    pptrCurveMapping: []
  m_AnimationClipSettings:
    serializedVersion: 2
    m_StartTime: 0
    m_StopTime: 1
    m_OrientationOffsetY: 0
    m_Level: 0
    m_CycleOffset: 0
    m_LoopTime: 1
    m_LoopBlend: 0
    m_LoopBlendOrientation: 0
    m_LoopBlendPositionY: 0
    m_LoopBlendPositionXZ: 0
    m_KeepOriginalOrientation: 0
    m_KeepOriginalPositionY: 1
    m_KeepOriginalPositionXZ: 0
    m_HeightFromFeet: 0
    m_Mirror: 0
  m_EditorCurves:
  - curve:
      serializedVersion: 2
      m_Curve:
      - time: 0
        value: 1
        inSlope: 0
        outSlope: 0
        tangentMode: 10
      - time: .0666666701
        value: 1
        inSlope: Infinity
        outSlope: 6
        tangentMode: 7
      - time: .25
        value: 1.00999999
        inSlope: -.392727196
        outSlope: -.392727196
        tangentMode: 9
      - time: .333333343
        value: .939999998
        inSlope: -.839999795
        outSlope: -.839999795
        tangentMode: 10
      m_PreInfinity: 2
      m_PostInfinity: 2
    attribute: m_LocalScale.x
    path: 
    classID: 4
    script: {fileID: 0}
  - curve:
      serializedVersion: 2
      m_Curve:
      - time: 0
        value: 1
        inSlope: 0
        outSlope: 0
        tangentMode: 10
      - time: .0666666701
        value: 1
        inSlope: Infinity
        outSlope: 6
        tangentMode: 7
      - time: .25
        value: 1.00999999
        inSlope: -.392727196
        outSlope: -.392727196
        tangentMode: 9
      - time: .333333343
        value: .939999998
        inSlope: -.839999795
        outSlope: -.839999795
        tangentMode: 10
      m_PreInfinity: 2
      m_PostInfinity: 2
    attribute: m_LocalScale.y
    path: 
    classID: 4
    script: {fileID: 0}
  - curve:
      serializedVersion: 2
      m_Curve:
      - time: 0
        value: 1
        inSlope: 0
        outSlope: 0
        tangentMode: 10
      - time: .0666666701
        value: 1
        inSlope: Infinity
        outSlope: 0
        tangentMode: 7
      - time: .25
        value: 1
        inSlope: 0
        outSlope: 0
        tangentMode: 9
      - time: .333333343
        value: 1
        inSlope: 0
        outSlope: 0
        tangentMode: 10
      m_PreInfinity: 2
      m_PostInfinity: 2
    attribute: m_LocalScale.z
    path: 
    classID: 4
    script: {fileID: 0}
  - curve:
      serializedVersion: 2
      m_Curve:
      - time: 0
        value: 1
        inSlope: 0
        outSlope: 0
        tangentMode: 10
      - time: 1
        value: 1
        inSlope: 0
        outSlope: 0
        tangentMode: 10
      m_PreInfinity: 2
      m_PostInfinity: 2
    attribute: m_Color.r
    path: EnemyBody
    classID: 212
    script: {fileID: 0}
  - curve:
      serializedVersion: 2
      m_Curve:
      - time: 0
        value: 1
        inSlope: 0
        outSlope: 0
        tangentMode: 10
      - time: 1
        value: 1
        inSlope: 0
        outSlope: 0
        tangentMode: 10
      m_PreInfinity: 2
      m_PostInfinity: 2
    attribute: m_Color.g
    path: EnemyBody
    classID: 212
    script: {fileID: 0}
  - curve:
      serializedVersion: 2
      m_Curve:
      - time: 0
        value: 1
        inSlope: 0
        outSlope: 0
        tangentMode: 10
      - time: 1
        value: 1
        inSlope: 0
        outSlope: 0
        tangentMode: 10
      m_PreInfinity: 2
      m_PostInfinity: 2
    attribute: m_Color.b
    path: EnemyBody
    classID: 212
    script: {fileID: 0}
  - curve:
      serializedVersion: 2
      m_Curve:
      - time: 0
        value: 1
        inSlope: 0
        outSlope: 0
        tangentMode: 10
      - time: .166666672
        value: 1
        inSlope: -3
        outSlope: -3
        tangentMode: 10
      - time: .333333343
        value: 0
        inSlope: -3
        outSlope: -3
        tangentMode: 10
      - time: 1
        value: 0
        inSlope: 0
        outSlope: 0
        tangentMode: 10
      m_PreInfinity: 2
      m_PostInfinity: 2
    attribute: m_Color.a
    path: EnemyBody
    classID: 212
    script: {fileID: 0}
  - curve:
      serializedVersion: 2
      m_Curve:
      - time: 0
        value: 0
        inSlope: Infinity
        outSlope: Infinity
        tangentMode: 31
      - time: .166666672
        value: 0
        inSlope: 0
        outSlope: 0
        tangentMode: 15
      - time: .983333349
        value: 0
        inSlope: 30.0000286
        outSlope: 30.0000286
        tangentMode: 10
      - time: 1
        value: 1
        inSlope: 60.0000572
        outSlope: 60.0000572
        tangentMode: 10
      m_PreInfinity: 2
      m_PostInfinity: 2
    attribute: material._FlashColor.r
    path: EnemyBody
    classID: 212
    script: {fileID: 0}
  - curve:
      serializedVersion: 2
      m_Curve:
      - time: 0
        value: 0
        inSlope: Infinity
        outSlope: Infinity
        tangentMode: 31
      - time: .166666672
        value: 0
        inSlope: 0
        outSlope: 0
        tangentMode: 15
      - time: .983333349
        value: 0
        inSlope: 30.0000286
        outSlope: 30.0000286
        tangentMode: 10
      - time: 1
        value: 1
        inSlope: 60.0000572
        outSlope: 60.0000572
        tangentMode: 10
      m_PreInfinity: 2
      m_PostInfinity: 2
    attribute: material._FlashColor.g
    path: EnemyBody
    classID: 212
    script: {fileID: 0}
  - curve:
      serializedVersion: 2
      m_Curve:
      - time: 0
        value: 0
        inSlope: Infinity
        outSlope: Infinity
        tangentMode: 31
      - time: .166666672
        value: 0
        inSlope: 0
        outSlope: 0
        tangentMode: 15
      - time: .983333349
        value: 0
        inSlope: 30.0000286
        outSlope: 30.0000286
        tangentMode: 10
      - time: 1
        value: 1
        inSlope: 60.0000572
        outSlope: 60.0000572
        tangentMode: 10
      m_PreInfinity: 2
      m_PostInfinity: 2
    attribute: material._FlashColor.b
    path: EnemyBody
    classID: 212
    script: {fileID: 0}
  - curve:
      serializedVersion: 2
      m_Curve:
      - time: 0
        value: 1
        inSlope: Infinity
        outSlope: Infinity
        tangentMode: 31
      - time: 1
        value: 1
        inSlope: 0
        outSlope: 0
        tangentMode: 10
      m_PreInfinity: 2
      m_PostInfinity: 2
    attribute: material._FlashColor.a
    path: EnemyBody
    classID: 212
    script: {fileID: 0}
  - curve:
      serializedVersion: 2
      m_Curve:
      - time: 0
        value: 0
        inSlope: 8.5714283
        outSlope: 8.5714283
        tangentMode: 10
      - time: .116666667
        value: 1
        inSlope: 5.16897869
        outSlope: 5.16897869
        tangentMode: 10
      - time: .333333343
        value: 1.38274801
        inSlope: -.153796494
        outSlope: -.153796494
        tangentMode: 10
      - time: 1
        value: 0
        inSlope: -2.07412219
        outSlope: -2.07412219
        tangentMode: 10
      m_PreInfinity: 2
      m_PostInfinity: 2
    attribute: material._FlashAmount
    path: EnemyBody
    classID: 212
    script: {fileID: 0}
  - curve:
      serializedVersion: 2
      m_Curve:
      - time: 0
        value: 0
        inSlope: Infinity
        outSlope: Infinity
        tangentMode: 31
      - time: 1
        value: 0
        inSlope: Infinity
        outSlope: Infinity
        tangentMode: 31
      m_PreInfinity: 2
      m_PostInfinity: 2
    attribute: m_Enabled
    path: EnemyEyeOnHit
    classID: 212
    script: {fileID: 0}
  m_EulerEditorCurves: []
  m_HasGenericRootTransform: 0
  m_HasMotionFloatCurves: 0
  m_GenerateMotionCurves: 0
  m_Events: []
