%YAML 1.1
%TAG !u! tag:unity3d.com,2011:
--- !u!74 &7400000
AnimationClip:
  m_ObjectHideFlags: 0
  m_PrefabParentObject: {fileID: 0}
  m_PrefabInternal: {fileID: 0}
  m_Name: FairyTreasure_Flying
  serializedVersion: 6
  m_Legacy: 0
  m_Compressed: 0
  m_UseHighQualityCurve: 1
  m_RotationCurves: []
  m_CompressedRotationCurves: []
  m_PositionCurves: []
  m_ScaleCurves: []
  m_FloatCurves: []
  m_PPtrCurves:
  - curve:
    - time: 0
      value: {fileID: 21300000, guid: 3ff5478b8e3a0fa47aab1d64eccf52d3, type: 3}
    - time: .200000003
      value: {fileID: 21300000, guid: ea791951699d9c64aa345e79e35c099f, type: 3}
    - time: .400000006
      value: {fileID: 21300000, guid: e3a4bc14aff96d34394c6062e887746d, type: 3}
    - time: .600000024
      value: {fileID: 21300000, guid: 3ff5478b8e3a0fa47aab1d64eccf52d3, type: 3}
    attribute: m_Sprite
    path: Fairy
    classID: 212
    script: {fileID: 0}
  m_SampleRate: 10
  m_WrapMode: 0
  m_Bounds:
    m_Center: {x: 0, y: 0, z: 0}
    m_Extent: {x: 0, y: 0, z: 0}
  m_ClipBindingConstant:
    genericBindings:
    - path: 3789416657
      attribute: 0
      script: {fileID: 0}
      classID: 212
      customType: 23
      isPPtrCurve: 1
    pptrCurveMapping:
    - {fileID: 21300000, guid: 3ff5478b8e3a0fa47aab1d64eccf52d3, type: 3}
    - {fileID: 21300000, guid: ea791951699d9c64aa345e79e35c099f, type: 3}
    - {fileID: 21300000, guid: e3a4bc14aff96d34394c6062e887746d, type: 3}
    - {fileID: 21300000, guid: 3ff5478b8e3a0fa47aab1d64eccf52d3, type: 3}
  m_AnimationClipSettings:
    serializedVersion: 2
    m_StartTime: 0
    m_StopTime: .700000048
    m_OrientationOffsetY: 0
    m_Level: 0
    m_CycleOffset: 0
    m_LoopTime: 1
    m_LoopBlend: 0
    m_LoopBlendOrientation: 0
    m_LoopBlendPositionY: 0
    m_LoopBlendPositionXZ: 0
    m_KeepOriginalOrientation: 0
    m_KeepOriginalPositionY: 1
    m_KeepOriginalPositionXZ: 0
    m_HeightFromFeet: 0
    m_Mirror: 0
  m_EditorCurves: []
  m_EulerEditorCurves: []
  m_HasGenericRootTransform: 0
  m_HasMotionFloatCurves: 0
  m_GenerateMotionCurves: 0
  m_Events: []
