%YAML 1.1
%TAG !u! tag:unity3d.com,2011:
--- !u!74 &7400000
AnimationClip:
  m_ObjectHideFlags: 0
  m_PrefabParentObject: {fileID: 0}
  m_PrefabInternal: {fileID: 0}
  m_Name: FullTouchCreditBtn_Play
  serializedVersion: 6
  m_Legacy: 0
  m_Compressed: 0
  m_UseHighQualityCurve: 1
  m_RotationCurves:
  - curve:
      serializedVersion: 2
      m_Curve:
      - time: 0
        value: {x: 0, y: 0, z: -.000523598806, w: .999999881}
        inSlope: {x: 0, y: 0, z: 0, w: 0}
        outSlope: {x: 0, y: 0, z: 0, w: 0}
        tangentMode: 0
      - time: .0833333358
        value: {x: 0, y: 0, z: -.000523598806, w: .999999881}
        inSlope: {x: 0, y: 0, z: 0, w: 0}
        outSlope: {x: 0, y: 0, z: 0, w: 0}
        tangentMode: 0
      - time: .166666672
        value: {x: 0, y: 0, z: -.000523598806, w: .999999881}
        inSlope: {x: 0, y: 0, z: 0, w: 0}
        outSlope: {x: 0, y: 0, z: 0, w: 0}
        tangentMode: 0
      - time: .25
        value: {x: 0, y: 0, z: -.000523598806, w: .999999881}
        inSlope: {x: 0, y: 0, z: 0, w: 0}
        outSlope: {x: 0, y: 0, z: 0, w: 0}
        tangentMode: 0
      - time: .333333343
        value: {x: 0, y: 0, z: -.000523598806, w: .999999881}
        inSlope: {x: 0, y: 0, z: 0, w: 0}
        outSlope: {x: 0, y: 0, z: 0, w: 0}
        tangentMode: 0
      - time: .416666687
        value: {x: 0, y: 0, z: -.000523598806, w: .999999881}
        inSlope: {x: 0, y: 0, z: 0, w: 0}
        outSlope: {x: 0, y: 0, z: 0, w: 0}
        tangentMode: 0
      - time: .5
        value: {x: 0, y: 0, z: -.000523598806, w: .999999881}
        inSlope: {x: 0, y: 0, z: 0, w: 0}
        outSlope: {x: 0, y: 0, z: 0, w: 0}
        tangentMode: 0
      - time: .583333313
        value: {x: 0, y: 0, z: -.000523598806, w: .999999881}
        inSlope: {x: 0, y: 0, z: 0, w: 0}
        outSlope: {x: 0, y: 0, z: 0, w: 0}
        tangentMode: 0
      - time: .666666627
        value: {x: 0, y: 0, z: -.000523598806, w: .999999881}
        inSlope: {x: 0, y: 0, z: .355754554, w: -.0103694228}
        outSlope: {x: 0, y: 0, z: .355754554, w: -.0103694228}
        tangentMode: 0
      - time: .74999994
        value: {x: 0, y: 0, z: .0587688163, w: .998271644}
        inSlope: {x: 0, y: 0, z: .749694049, w: -.0466253869}
        outSlope: {x: 0, y: 0, z: .749694049, w: -.0466253869}
        tangentMode: 0
      - time: .833333254
        value: {x: 0, y: 0, z: .124425381, w: .992228985}
        inSlope: {x: 0, y: 0, z: .712700486, w: -.0849616677}
        outSlope: {x: 0, y: 0, z: .712700486, w: -.0849616677}
        tangentMode: 0
      - time: .916666567
        value: {x: 0, y: 0, z: .177552193, w: .984111369}
        inSlope: {x: 0, y: 0, z: .449655563, w: -.0738258511}
        outSlope: {x: 0, y: 0, z: .449655563, w: -.0738258511}
        tangentMode: 0
      - time: .999999881
        value: {x: 0, y: 0, z: .199367955, w: .979924679}
        inSlope: {x: 0, y: 0, z: .00154352188, w: -.000278608873}
        outSlope: {x: 0, y: 0, z: .00154352188, w: -.000278608873}
        tangentMode: 0
      - time: 1.08333325
        value: {x: 0, y: 0, z: .177809432, w: .984064937}
        inSlope: {x: 0, y: 0, z: -.445506394, w: .0733040273}
        outSlope: {x: 0, y: 0, z: -.445506394, w: .0733040273}
        tangentMode: 0
      - time: 1.16666663
        value: {x: 0, y: 0, z: .125116855, w: .992142022}
        inSlope: {x: 0, y: 0, z: -.709547639, w: .0849616081}
        outSlope: {x: 0, y: 0, z: -.709547639, w: .0849616081}
        tangentMode: 0
      - time: 1.25
        value: {x: 0, y: 0, z: .0595514327, w: .998225212}
        inSlope: {x: 0, y: 0, z: -.750700772, w: .0471478477}
        outSlope: {x: 0, y: 0, z: -.750700772, w: .0471478477}
        tangentMode: 0
      - time: 1.33333337
        value: {x: 0, y: 0, z: 0, w: 1}
        inSlope: {x: 0, y: 0, z: -.714616835, w: .0212974455}
        outSlope: {x: 0, y: 0, z: -.714616835, w: .0212974455}
        tangentMode: 0
      m_PreInfinity: 2
      m_PostInfinity: 2
    path: effect_a
  m_CompressedRotationCurves: []
  m_PositionCurves: []
  m_ScaleCurves: []
  m_FloatCurves:
  - curve:
      serializedVersion: 2
      m_Curve:
      - time: 0
        value: 35
        inSlope: 0
        outSlope: 0
        tangentMode: 10
      - time: .666666687
        value: 35
        inSlope: Infinity
        outSlope: -.0870542228
        tangentMode: 7
      - time: 1
        value: 20
        inSlope: -3.81469727e-06
        outSlope: -3.81469727e-06
        tangentMode: 10
      - time: 1.33333337
        value: 35
        inSlope: 44.9999962
        outSlope: 44.9999962
        tangentMode: 10
      m_PreInfinity: 2
      m_PostInfinity: 2
    attribute: m_AnchoredPosition.x
    path: effect_a
    classID: 224
    script: {fileID: 0}
  - curve:
      serializedVersion: 2
      m_Curve:
      - time: 0
        value: 27
        inSlope: 0
        outSlope: 0
        tangentMode: 10
      - time: .666666687
        value: 27
        inSlope: Infinity
        outSlope: -.410777748
        tangentMode: 7
      - time: 1
        value: 45
        inSlope: 5.7220459e-06
        outSlope: 5.7220459e-06
        tangentMode: 10
      - time: 1.33333337
        value: 27
        inSlope: -53.9999924
        outSlope: -53.9999924
        tangentMode: 10
      m_PreInfinity: 2
      m_PostInfinity: 2
    attribute: m_AnchoredPosition.y
    path: effect_a
    classID: 224
    script: {fileID: 0}
  - curve:
      serializedVersion: 2
      m_Curve:
      - time: 0
        value: 0
        inSlope: 3
        outSlope: 3
        tangentMode: 10
      - time: .333333343
        value: 1
        inSlope: 0
        outSlope: 0
        tangentMode: 10
      - time: .666666687
        value: 0
        inSlope: -3.44928432
        outSlope: Infinity
        tangentMode: 25
      - time: 1.33333337
        value: 0
        inSlope: 0
        outSlope: 0
        tangentMode: 10
      m_PreInfinity: 2
      m_PostInfinity: 2
    attribute: m_Color.a
    path: effect_a/effect_b
    classID: 114
    script: {fileID: -765806418, guid: f5f67c52d1564df4a8936ccd202a3bd8, type: 3}
  m_PPtrCurves: []
  m_SampleRate: 12
  m_WrapMode: 0
  m_Bounds:
    m_Center: {x: 0, y: 0, z: 0}
    m_Extent: {x: 0, y: 0, z: 0}
  m_ClipBindingConstant:
    genericBindings:
    - path: 3889009703
      attribute: 2
      script: {fileID: 0}
      classID: 4
      customType: 0
      isPPtrCurve: 0
    - path: 3889009703
      attribute: 1460864421
      script: {fileID: 0}
      classID: 224
      customType: 0
      isPPtrCurve: 0
    - path: 3889009703
      attribute: 538195251
      script: {fileID: 0}
      classID: 224
      customType: 0
      isPPtrCurve: 0
    - path: 1266074424
      attribute: 304273561
      script: {fileID: -765806418, guid: f5f67c52d1564df4a8936ccd202a3bd8, type: 3}
      classID: 114
      customType: 0
      isPPtrCurve: 0
    pptrCurveMapping: []
  m_AnimationClipSettings:
    serializedVersion: 2
    m_StartTime: 0
    m_StopTime: 1.33333337
    m_OrientationOffsetY: 0
    m_Level: 0
    m_CycleOffset: 0
    m_LoopTime: 1
    m_LoopBlend: 0
    m_LoopBlendOrientation: 0
    m_LoopBlendPositionY: 0
    m_LoopBlendPositionXZ: 0
    m_KeepOriginalOrientation: 0
    m_KeepOriginalPositionY: 1
    m_KeepOriginalPositionXZ: 0
    m_HeightFromFeet: 0
    m_Mirror: 0
  m_EditorCurves:
  - curve:
      serializedVersion: 2
      m_Curve:
      - time: 0
        value: 35
        inSlope: 0
        outSlope: 0
        tangentMode: 10
      - time: .666666687
        value: 35
        inSlope: Infinity
        outSlope: -.0870542228
        tangentMode: 7
      - time: 1
        value: 20
        inSlope: -3.81469727e-06
        outSlope: -3.81469727e-06
        tangentMode: 10
      - time: 1.33333337
        value: 35
        inSlope: 44.9999962
        outSlope: 44.9999962
        tangentMode: 10
      m_PreInfinity: 2
      m_PostInfinity: 2
    attribute: m_AnchoredPosition.x
    path: effect_a
    classID: 224
    script: {fileID: 0}
  - curve:
      serializedVersion: 2
      m_Curve:
      - time: 0
        value: 27
        inSlope: 0
        outSlope: 0
        tangentMode: 10
      - time: .666666687
        value: 27
        inSlope: Infinity
        outSlope: -.410777748
        tangentMode: 7
      - time: 1
        value: 45
        inSlope: 5.7220459e-06
        outSlope: 5.7220459e-06
        tangentMode: 10
      - time: 1.33333337
        value: 27
        inSlope: -53.9999924
        outSlope: -53.9999924
        tangentMode: 10
      m_PreInfinity: 2
      m_PostInfinity: 2
    attribute: m_AnchoredPosition.y
    path: effect_a
    classID: 224
    script: {fileID: 0}
  - curve:
      serializedVersion: 2
      m_Curve:
      - time: 0
        value: 0
        inSlope: 3
        outSlope: 3
        tangentMode: 10
      - time: .333333343
        value: 1
        inSlope: 0
        outSlope: 0
        tangentMode: 10
      - time: .666666687
        value: 0
        inSlope: -3.44928432
        outSlope: Infinity
        tangentMode: 25
      - time: 1.33333337
        value: 0
        inSlope: 0
        outSlope: 0
        tangentMode: 10
      m_PreInfinity: 2
      m_PostInfinity: 2
    attribute: m_Color.a
    path: effect_a/effect_b
    classID: 114
    script: {fileID: -765806418, guid: f5f67c52d1564df4a8936ccd202a3bd8, type: 3}
  - curve:
      serializedVersion: 2
      m_Curve:
      - time: 0
        value: 0
        inSlope: 0
        outSlope: 0
        tangentMode: 0
      - time: .0833333358
        value: 0
        inSlope: 0
        outSlope: 0
        tangentMode: 0
      - time: .166666672
        value: 0
        inSlope: 0
        outSlope: 0
        tangentMode: 0
      - time: .25
        value: 0
        inSlope: 0
        outSlope: 0
        tangentMode: 0
      - time: .333333343
        value: 0
        inSlope: 0
        outSlope: 0
        tangentMode: 0
      - time: .416666687
        value: 0
        inSlope: 0
        outSlope: 0
        tangentMode: 0
      - time: .5
        value: 0
        inSlope: 0
        outSlope: 0
        tangentMode: 0
      - time: .583333313
        value: 0
        inSlope: 0
        outSlope: 0
        tangentMode: 0
      - time: .666666627
        value: 0
        inSlope: 0
        outSlope: 0
        tangentMode: 0
      - time: .74999994
        value: 0
        inSlope: 0
        outSlope: 0
        tangentMode: 0
      - time: .833333254
        value: 0
        inSlope: 0
        outSlope: 0
        tangentMode: 0
      - time: .916666567
        value: 0
        inSlope: 0
        outSlope: 0
        tangentMode: 0
      - time: .999999881
        value: 0
        inSlope: 0
        outSlope: 0
        tangentMode: 0
      - time: 1.08333325
        value: 0
        inSlope: 0
        outSlope: 0
        tangentMode: 0
      - time: 1.16666663
        value: 0
        inSlope: 0
        outSlope: 0
        tangentMode: 0
      - time: 1.25
        value: 0
        inSlope: 0
        outSlope: 0
        tangentMode: 0
      - time: 1.33333337
        value: 0
        inSlope: 0
        outSlope: 0
        tangentMode: 0
      m_PreInfinity: 2
      m_PostInfinity: 2
    attribute: m_LocalRotation.x
    path: effect_a
    classID: 224
    script: {fileID: 0}
  - curve:
      serializedVersion: 2
      m_Curve:
      - time: 0
        value: 0
        inSlope: 0
        outSlope: 0
        tangentMode: 0
      - time: .0833333358
        value: 0
        inSlope: 0
        outSlope: 0
        tangentMode: 0
      - time: .166666672
        value: 0
        inSlope: 0
        outSlope: 0
        tangentMode: 0
      - time: .25
        value: 0
        inSlope: 0
        outSlope: 0
        tangentMode: 0
      - time: .333333343
        value: 0
        inSlope: 0
        outSlope: 0
        tangentMode: 0
      - time: .416666687
        value: 0
        inSlope: 0
        outSlope: 0
        tangentMode: 0
      - time: .5
        value: 0
        inSlope: 0
        outSlope: 0
        tangentMode: 0
      - time: .583333313
        value: 0
        inSlope: 0
        outSlope: 0
        tangentMode: 0
      - time: .666666627
        value: 0
        inSlope: 0
        outSlope: 0
        tangentMode: 0
      - time: .74999994
        value: 0
        inSlope: 0
        outSlope: 0
        tangentMode: 0
      - time: .833333254
        value: 0
        inSlope: 0
        outSlope: 0
        tangentMode: 0
      - time: .916666567
        value: 0
        inSlope: 0
        outSlope: 0
        tangentMode: 0
      - time: .999999881
        value: 0
        inSlope: 0
        outSlope: 0
        tangentMode: 0
      - time: 1.08333325
        value: 0
        inSlope: 0
        outSlope: 0
        tangentMode: 0
      - time: 1.16666663
        value: 0
        inSlope: 0
        outSlope: 0
        tangentMode: 0
      - time: 1.25
        value: 0
        inSlope: 0
        outSlope: 0
        tangentMode: 0
      - time: 1.33333337
        value: 0
        inSlope: 0
        outSlope: 0
        tangentMode: 0
      m_PreInfinity: 2
      m_PostInfinity: 2
    attribute: m_LocalRotation.y
    path: effect_a
    classID: 224
    script: {fileID: 0}
  - curve:
      serializedVersion: 2
      m_Curve:
      - time: 0
        value: -.000523598806
        inSlope: 0
        outSlope: 0
        tangentMode: 0
      - time: .0833333358
        value: -.000523598806
        inSlope: 0
        outSlope: 0
        tangentMode: 0
      - time: .166666672
        value: -.000523598806
        inSlope: 0
        outSlope: 0
        tangentMode: 0
      - time: .25
        value: -.000523598806
        inSlope: 0
        outSlope: 0
        tangentMode: 0
      - time: .333333343
        value: -.000523598806
        inSlope: 0
        outSlope: 0
        tangentMode: 0
      - time: .416666687
        value: -.000523598806
        inSlope: 0
        outSlope: 0
        tangentMode: 0
      - time: .5
        value: -.000523598806
        inSlope: 0
        outSlope: 0
        tangentMode: 0
      - time: .583333313
        value: -.000523598806
        inSlope: 0
        outSlope: 0
        tangentMode: 0
      - time: .666666627
        value: -.000523598806
        inSlope: .355754554
        outSlope: .355754554
        tangentMode: 0
      - time: .74999994
        value: .0587688163
        inSlope: .749694049
        outSlope: .749694049
        tangentMode: 0
      - time: .833333254
        value: .124425381
        inSlope: .712700486
        outSlope: .712700486
        tangentMode: 0
      - time: .916666567
        value: .177552193
        inSlope: .449655563
        outSlope: .449655563
        tangentMode: 0
      - time: .999999881
        value: .199367955
        inSlope: .00154352188
        outSlope: .00154352188
        tangentMode: 0
      - time: 1.08333325
        value: .177809432
        inSlope: -.445506394
        outSlope: -.445506394
        tangentMode: 0
      - time: 1.16666663
        value: .125116855
        inSlope: -.709547639
        outSlope: -.709547639
        tangentMode: 0
      - time: 1.25
        value: .0595514327
        inSlope: -.750700772
        outSlope: -.750700772
        tangentMode: 0
      - time: 1.33333337
        value: 0
        inSlope: -.714616835
        outSlope: -.714616835
        tangentMode: 0
      m_PreInfinity: 2
      m_PostInfinity: 2
    attribute: m_LocalRotation.z
    path: effect_a
    classID: 224
    script: {fileID: 0}
  - curve:
      serializedVersion: 2
      m_Curve:
      - time: 0
        value: .999999881
        inSlope: 0
        outSlope: 0
        tangentMode: 0
      - time: .0833333358
        value: .999999881
        inSlope: 0
        outSlope: 0
        tangentMode: 0
      - time: .166666672
        value: .999999881
        inSlope: 0
        outSlope: 0
        tangentMode: 0
      - time: .25
        value: .999999881
        inSlope: 0
        outSlope: 0
        tangentMode: 0
      - time: .333333343
        value: .999999881
        inSlope: 0
        outSlope: 0
        tangentMode: 0
      - time: .416666687
        value: .999999881
        inSlope: 0
        outSlope: 0
        tangentMode: 0
      - time: .5
        value: .999999881
        inSlope: 0
        outSlope: 0
        tangentMode: 0
      - time: .583333313
        value: .999999881
        inSlope: 0
        outSlope: 0
        tangentMode: 0
      - time: .666666627
        value: .999999881
        inSlope: -.0103694228
        outSlope: -.0103694228
        tangentMode: 0
      - time: .74999994
        value: .998271644
        inSlope: -.0466253869
        outSlope: -.0466253869
        tangentMode: 0
      - time: .833333254
        value: .992228985
        inSlope: -.0849616677
        outSlope: -.0849616677
        tangentMode: 0
      - time: .916666567
        value: .984111369
        inSlope: -.0738258511
        outSlope: -.0738258511
        tangentMode: 0
      - time: .999999881
        value: .979924679
        inSlope: -.000278608873
        outSlope: -.000278608873
        tangentMode: 0
      - time: 1.08333325
        value: .984064937
        inSlope: .0733040273
        outSlope: .0733040273
        tangentMode: 0
      - time: 1.16666663
        value: .992142022
        inSlope: .0849616081
        outSlope: .0849616081
        tangentMode: 0
      - time: 1.25
        value: .998225212
        inSlope: .0471478477
        outSlope: .0471478477
        tangentMode: 0
      - time: 1.33333337
        value: 1
        inSlope: .0212974455
        outSlope: .0212974455
        tangentMode: 0
      m_PreInfinity: 2
      m_PostInfinity: 2
    attribute: m_LocalRotation.w
    path: effect_a
    classID: 224
    script: {fileID: 0}
  m_EulerEditorCurves:
  - curve:
      serializedVersion: 2
      m_Curve:
      - time: 0
        value: 0
        inSlope: 0
        outSlope: 0
        tangentMode: 10
      - time: 1
        value: 0
        inSlope: 0
        outSlope: 0
        tangentMode: 10
      m_PreInfinity: 2
      m_PostInfinity: 2
    attribute: localEulerAnglesBaked.x
    path: effect_a
    classID: 224
    script: {fileID: 0}
  - curve:
      serializedVersion: 2
      m_Curve:
      - time: 0
        value: 0
        inSlope: 0
        outSlope: 0
        tangentMode: 10
      - time: 1
        value: 0
        inSlope: 0
        outSlope: 0
        tangentMode: 10
      m_PreInfinity: 2
      m_PostInfinity: 2
    attribute: localEulerAnglesBaked.y
    path: effect_a
    classID: 224
    script: {fileID: 0}
  - curve:
      serializedVersion: 2
      m_Curve:
      - time: 0
        value: -.0599999987
        inSlope: .0899999961
        outSlope: .0899999961
        tangentMode: 10
      - time: .666666687
        value: 0
        inSlope: Infinity
        outSlope: 67.0837097
        tangentMode: 7
      - time: 1
        value: 23
        inSlope: 7.62939453e-06
        outSlope: 7.62939453e-06
        tangentMode: 10
      - time: 1.33333337
        value: 0
        inSlope: -68.9999924
        outSlope: -68.9999924
        tangentMode: 10
      m_PreInfinity: 2
      m_PostInfinity: 2
    attribute: localEulerAnglesBaked.z
    path: effect_a
    classID: 224
    script: {fileID: 0}
  m_HasGenericRootTransform: 0
  m_HasMotionFloatCurves: 0
  m_GenerateMotionCurves: 0
  m_Events: []
