%YAML 1.1
%TAG !u! tag:unity3d.com,2011:
--- !u!74 &7400000
AnimationClip:
  m_ObjectHideFlags: 0
  m_PrefabParentObject: {fileID: 0}
  m_PrefabInternal: {fileID: 0}
  m_Name: pl_atk01
  serializedVersion: 6
  m_Legacy: 0
  m_Compressed: 0
  m_UseHighQualityCurve: 1
  m_RotationCurves:
  - curve:
      serializedVersion: 2
      m_Curve:
      - time: 0
        value: {x: 0, y: 0, z: -0.5436722, w: -0.83929765}
        inSlope: {x: 0, y: 0, z: 7.367858, w: -4.069272}
        outSlope: {x: 0, y: 0, z: 7.367858, w: -4.069272}
        tangentMode: 0
      - time: 0.016666668
        value: {x: 0, y: 0, z: -0.42087457, w: -0.90711886}
        inSlope: {x: 0, y: 0, z: 8.109935, w: -3.678587}
        outSlope: {x: 0, y: 0, z: 8.109935, w: -3.678587}
        tangentMode: 0
      - time: 0.033333335
        value: {x: 0, y: 0, z: -0.27334103, w: -0.9619172}
        inSlope: {x: 0, y: 0, z: 9.3745575, w: -2.6096907}
        outSlope: {x: 0, y: 0, z: 9.3745575, w: -2.6096907}
        tangentMode: 0
      - time: 0.050000004
        value: {x: 0, y: 0, z: -0.10838925, w: -0.99410856}
        inSlope: {x: 0, y: 0, z: 10.117308, w: -1.0811679}
        outSlope: {x: 0, y: 0, z: 10.117308, w: -1.0811679}
        tangentMode: 0
      - time: 0.06666667
        value: {x: 0, y: 0, z: 0.06390259, w: -0.99795616}
        inSlope: {x: 0, y: 0, z: 10.218055, w: 0.64330465}
        outSlope: {x: 0, y: 0, z: 10.218055, w: 0.64330465}
        tangentMode: 0
      - time: 0.083333336
        value: {x: 0, y: 0, z: 0.23221254, w: -0.9726651}
        inSlope: {x: 0, y: 0, z: 9.659929, w: 2.2624686}
        outSlope: {x: 0, y: 0, z: 9.659929, w: 2.2624686}
        tangentMode: 0
      - time: 0.1
        value: {x: 0, y: 0, z: 0.3859002, w: -0.92254055}
        inSlope: {x: 0, y: 0, z: 8.535101, w: 3.495244}
        outSlope: {x: 0, y: 0, z: 8.535101, w: 3.495244}
        tangentMode: 0
      - time: 0.11666667
        value: {x: 0, y: 0, z: 0.5167159, w: -0.85615695}
        inSlope: {x: 0, y: 0, z: 7.0150037, w: 4.1318493}
        outSlope: {x: 0, y: 0, z: 7.0150037, w: 4.1318493}
        tangentMode: 0
      - time: 0.13333334
        value: {x: 0, y: 0, z: 0.6197337, w: -0.7848122}
        inSlope: {x: 0, y: 0, z: 5.2947726, w: 4.0625896}
        outSlope: {x: 0, y: 0, z: 5.2947726, w: 4.0625896}
        tangentMode: 0
      - time: 0.15
        value: {x: 0, y: 0, z: 0.69320834, w: -0.7207373}
        inSlope: {x: 0, y: 0, z: 3.528981, w: 3.2795765}
        outSlope: {x: 0, y: 0, z: 3.528981, w: 3.2795765}
        tangentMode: 0
      - time: 0.16666667
        value: {x: 0, y: 0, z: 0.7373664, w: -0.675493}
        inSlope: {x: 0, y: 0, z: 1.7751898, w: 1.8602839}
        outSlope: {x: 0, y: 0, z: 1.7751898, w: 1.8602839}
        tangentMode: 0
      - time: 0.18333334
        value: {x: 0, y: 0, z: 0.7523813, w: -0.6587278}
        inSlope: {x: 0, y: 0, z: 0.4596055, w: 0.51341957}
        outSlope: {x: 0, y: 0, z: 0.4596055, w: 0.51341957}
        tangentMode: 0
      - time: 0.2
        value: {x: 0, y: 0, z: 0.75268656, w: -0.658379}
        inSlope: {x: 0, y: 0, z: 0.035469536, w: 0.04058719}
        outSlope: {x: 0, y: 0, z: 0.035469536, w: 0.04058719}
        tangentMode: 0
      - time: 0.21666667
        value: {x: 0, y: 0, z: 0.75356364, w: -0.6573749}
        inSlope: {x: 0, y: 0, z: 0.0680101, w: 0.07802368}
        outSlope: {x: 0, y: 0, z: 0.0680101, w: 0.07802368}
        tangentMode: 0
      - time: 0.23333333
        value: {x: 0, y: 0, z: 0.75495356, w: -0.6557782}
        inSlope: {x: 0, y: 0, z: 0.096979745, w: 0.11172475}
        outSlope: {x: 0, y: 0, z: 0.096979745, w: 0.11172475}
        tangentMode: 0
      - time: 0.25
        value: {x: 0, y: 0, z: 0.7567963, w: -0.65365076}
        inSlope: {x: 0, y: 0, z: 0.12233728, w: 0.14172786}
        outSlope: {x: 0, y: 0, z: 0.12233728, w: 0.14172786}
        tangentMode: 0
      - time: 0.26666668
        value: {x: 0, y: 0, z: 0.7590315, w: -0.65105397}
        inSlope: {x: 0, y: 0, z: 0.14406669, w: 0.1680474}
        outSlope: {x: 0, y: 0, z: 0.14406669, w: 0.1680474}
        tangentMode: 0
      - time: 0.28333336
        value: {x: 0, y: 0, z: 0.7615985, w: -0.6480492}
        inSlope: {x: 0, y: 0, z: 0.16216621, w: 0.19066736}
        outSlope: {x: 0, y: 0, z: 0.16216621, w: 0.19066736}
        tangentMode: 0
      - time: 0.30000004
        value: {x: 0, y: 0, z: 0.764437, w: -0.6446984}
        inSlope: {x: 0, y: 0, z: 0.17667338, w: 0.20956439}
        outSlope: {x: 0, y: 0, z: 0.17667338, w: 0.20956439}
        tangentMode: 0
      - time: 0.31666672
        value: {x: 0, y: 0, z: 0.76748765, w: -0.6410637}
        inSlope: {x: 0, y: 0, z: 0.18763825, w: 0.22470278}
        outSlope: {x: 0, y: 0, z: 0.18763825, w: 0.22470278}
        tangentMode: 0
      - time: 0.3333334
        value: {x: 0, y: 0, z: 0.77069163, w: -0.6372083}
        inSlope: {x: 0, y: 0, z: 0.19510551, w: 0.2360181}
        outSlope: {x: 0, y: 0, z: 0.19510551, w: 0.2360181}
        tangentMode: 0
      - time: 0.35000008
        value: {x: 0, y: 0, z: 0.77399117, w: -0.6331964}
        inSlope: {x: 0, y: 0, z: 0.19914491, w: 0.2434496}
        outSlope: {x: 0, y: 0, z: 0.19914491, w: 0.2434496}
        tangentMode: 0
      - time: 0.36666676
        value: {x: 0, y: 0, z: 0.7773298, w: -0.6290933}
        inSlope: {x: 0, y: 0, z: 0.19984408, w: 0.24693826}
        outSlope: {x: 0, y: 0, z: 0.19984408, w: 0.24693826}
        tangentMode: 0
      - time: 0.38333344
        value: {x: 0, y: 0, z: 0.78065264, w: -0.62496513}
        inSlope: {x: 0, y: 0, z: 0.19729598, w: 0.24642506}
        outSlope: {x: 0, y: 0, z: 0.19729598, w: 0.24642506}
        tangentMode: 0
      - time: 0.40000013
        value: {x: 0, y: 0, z: 0.78390634, w: -0.6208791}
        inSlope: {x: 0, y: 0, z: 0.19157214, w: 0.24183133}
        outSlope: {x: 0, y: 0, z: 0.19157214, w: 0.24183133}
        tangentMode: 0
      - time: 0.4166668
        value: {x: 0, y: 0, z: 0.7870384, w: -0.6169041}
        inSlope: {x: 0, y: 0, z: 0.18274233, w: 0.23308198}
        outSlope: {x: 0, y: 0, z: 0.18274233, w: 0.23308198}
        tangentMode: 0
      - time: 0.4333335
        value: {x: 0, y: 0, z: 0.78999776, w: -0.6131097}
        inSlope: {x: 0, y: 0, z: 0.17089948, w: 0.22013229}
        outSlope: {x: 0, y: 0, z: 0.17089948, w: 0.22013229}
        tangentMode: 0
      - time: 0.45000017
        value: {x: 0, y: 0, z: 0.79273504, w: -0.60956633}
        inSlope: {x: 0, y: 0, z: 0.15611696, w: 0.20293933}
        outSlope: {x: 0, y: 0, z: 0.15611696, w: 0.20293933}
        tangentMode: 0
      - time: 0.46666685
        value: {x: 0, y: 0, z: 0.79520166, w: -0.60634506}
        inSlope: {x: 0, y: 0, z: 0.13843226, w: 0.18145308}
        outSlope: {x: 0, y: 0, z: 0.13843226, w: 0.18145308}
        tangentMode: 0
      - time: 0.48333353
        value: {x: 0, y: 0, z: 0.79734945, w: -0.6035179}
        inSlope: {x: 0, y: 0, z: 0.11788666, w: 0.15565217}
        outSlope: {x: 0, y: 0, z: 0.11788666, w: 0.15565217}
        tangentMode: 0
      - time: 0.5000002
        value: {x: 0, y: 0, z: 0.7991312, w: -0.60115665}
        inSlope: {x: 0, y: 0, z: 0.0944961, w: 0.1255275}
        outSlope: {x: 0, y: 0, z: 0.0944961, w: 0.1255275}
        tangentMode: 0
      - time: 0.5166668
        value: {x: 0, y: 0, z: 0.8004993, w: -0.59933364}
        inSlope: {x: 0, y: 0, z: 0.069417424, w: 0.09265074}
        outSlope: {x: 0, y: 0, z: 0.069417424, w: 0.09265074}
        tangentMode: 0
      - time: 0.5333335
        value: {x: 0, y: 0, z: 0.8014451, w: -0.5980683}
        inSlope: {x: 0, y: 0, z: 0.045935556, w: 0.061517417}
        outSlope: {x: 0, y: 0, z: 0.045935556, w: 0.061517417}
        tangentMode: 0
      - time: 0.55000013
        value: {x: 0, y: 0, z: 0.8020305, w: -0.59728307}
        inSlope: {x: 0, y: 0, z: 0.026051428, w: 0.034963522}
        outSlope: {x: 0, y: 0, z: 0.026051428, w: 0.034963522}
        tangentMode: 0
      - time: 0.5666668
        value: {x: 0, y: 0, z: 0.8023135, w: -0.59690285}
        inSlope: {x: 0, y: 0, z: 0.009618411, w: 0.012921108}
        outSlope: {x: 0, y: 0, z: 0.009618411, w: 0.012921108}
        tangentMode: 0
      - time: 0.58333343
        value: {x: 0, y: 0, z: 0.8023511, w: -0.59685236}
        inSlope: {x: 0, y: 0, z: -0.003397468, w: -0.004566912}
        outSlope: {x: 0, y: 0, z: -0.003397468, w: -0.004566912}
        tangentMode: 0
      - time: 0.6000001
        value: {x: 0, y: 0, z: 0.80220026, w: -0.5970551}
        inSlope: {x: 0, y: 0, z: -0.013014091, w: -0.017480867}
        outSlope: {x: 0, y: 0, z: -0.013014091, w: -0.017480867}
        tangentMode: 0
      - time: 0.61666673
        value: {x: 0, y: 0, z: 0.8019173, w: -0.59743506}
        inSlope: {x: 0, y: 0, z: -0.019252915, w: -0.02583864}
        outSlope: {x: 0, y: 0, z: -0.019252915, w: -0.02583864}
        tangentMode: 0
      - time: 0.6333334
        value: {x: 0, y: 0, z: 0.8015585, w: -0.59791636}
        inSlope: {x: 0, y: 0, z: -0.022103213, w: -0.029629499}
        outSlope: {x: 0, y: 0, z: -0.022103213, w: -0.029629499}
        tangentMode: 0
      - time: 0.65000004
        value: {x: 0, y: 0, z: 0.80118054, w: -0.5984227}
        inSlope: {x: 0, y: 0, z: -0.021554252, w: -0.028858809}
        outSlope: {x: 0, y: 0, z: -0.021554252, w: -0.028858809}
        tangentMode: 0
      - time: 0.6666667
        value: {x: 0, y: 0, z: 0.80084, w: -0.5988783}
        inSlope: {x: 0, y: 0, z: -0.017598884, w: -0.0235373}
        outSlope: {x: 0, y: 0, z: -0.017598884, w: -0.0235373}
        tangentMode: 0
      - time: 0.68333334
        value: {x: 0, y: 0, z: 0.8005939, w: -0.5992073}
        inSlope: {x: 0, y: 0, z: -0.010221014, w: -0.0136596095}
        outSlope: {x: 0, y: 0, z: -0.010221014, w: -0.0136596095}
        tangentMode: 0
      - time: 0.7
        value: {x: 0, y: 0, z: 0.8004993, w: -0.59933364}
        inSlope: {x: 0, y: 0, z: -0.00283778, w: -0.0037908591}
        outSlope: {x: 0, y: 0, z: -0.00283778, w: -0.0037908591}
        tangentMode: 0
      - time: 0.71666664
        value: {x: 0, y: 0, z: 0.8004993, w: -0.59933364}
        inSlope: {x: 0, y: 0, z: 0, w: 0}
        outSlope: {x: 0, y: 0, z: 0, w: 0}
        tangentMode: 0
      - time: 0.7333333
        value: {x: 0, y: 0, z: 0.8004993, w: -0.59933364}
        inSlope: {x: 0, y: 0, z: 0, w: 0}
        outSlope: {x: 0, y: 0, z: 0, w: 0}
        tangentMode: 0
      - time: 0.74999994
        value: {x: 0, y: 0, z: 0.8004993, w: -0.59933364}
        inSlope: {x: 0, y: 0, z: 0, w: 0}
        outSlope: {x: 0, y: 0, z: 0, w: 0}
        tangentMode: 0
      - time: 0.76666665
        value: {x: 0, y: 0, z: 0.8004993, w: -0.59933364}
        inSlope: {x: 0, y: 0, z: 0, w: 0}
        outSlope: {x: 0, y: 0, z: 0, w: 0}
        tangentMode: 0
      m_PreInfinity: 2
      m_PostInfinity: 2
      m_RotationOrder: 4
    path: pl001/sword
  m_CompressedRotationCurves: []
  m_EulerCurves: []
  m_PositionCurves:
  - curve:
      serializedVersion: 2
      m_Curve:
      - time: 0
        value: {x: -0.05, y: 1.67, z: 0}
        inSlope: {x: 0.2942857, y: -0.13260637, z: 0}
        outSlope: {x: 0.2942857, y: -0.13260637, z: 0}
        tangentMode: 0
      - time: 0.35
        value: {x: 0.053, y: 1.6235877, z: 0}
        inSlope: {x: 0.122999996, y: -0.0647099, z: 0}
        outSlope: {x: -0.126, y: 0.019633772, z: -0}
        tangentMode: 0
      - time: 0.51666665
        value: {x: 0.032, y: 1.62686, z: 0}
        inSlope: {x: -0.060272735, y: 0.07565325, z: 0}
        outSlope: {x: -0.060272735, y: 0.07565325, z: 0}
        tangentMode: 0
      - time: 0.7
        value: {x: 0.033, y: 1.651, z: 0}
        inSlope: {x: 0.005454536, y: 0.13167273, z: 0}
        outSlope: {x: 0.005454536, y: 0.13167273, z: 0}
        tangentMode: 0
      m_PreInfinity: 2
      m_PostInfinity: 2
      m_RotationOrder: 4
    path: pl001/head
  - curve:
      serializedVersion: 2
      m_Curve:
      - time: 0
        value: {x: -0.013, y: 1.615, z: 0}
        inSlope: {x: -0.09999998, y: 2.479999, z: 0}
        outSlope: {x: -0.09999998, y: 2.479999, z: 0}
        tangentMode: 0
      - time: 0.05
        value: {x: -0.018, y: 1.739, z: 0}
        inSlope: {x: 1.2700001, y: 0.16749942, z: 0}
        outSlope: {x: 1.2700001, y: 0.16749942, z: 0}
        tangentMode: 0
      - time: 0.11666667
        value: {x: 0.158, y: 1.596, z: 0}
        inSlope: {x: 1.0125, y: -1.2674993, z: 0}
        outSlope: {x: 1.0125, y: -1.2674993, z: 0}
        tangentMode: 0
      - time: 0.18333334
        value: {x: 0.117, y: 1.57, z: 0}
        inSlope: {x: -0.61500007, y: -0.38999853, z: 0}
        outSlope: {x: -0.023999956, y: -0.15600012, z: -0}
        tangentMode: 0
      - time: 0.26666668
        value: {x: 0.115, y: 1.557, z: 0}
        inSlope: {x: 0.024000013, y: -0.14694953, z: 0}
        outSlope: {x: 0.024000013, y: -0.14694953, z: 0}
        tangentMode: 0
      - time: 0.35
        value: {x: 0.121, y: 1.5431756, z: 0}
        inSlope: {x: 0.10799999, y: -0.17385484, z: 0}
        outSlope: {x: 0.10799999, y: -0.17385484, z: 0}
        tangentMode: 0
      - time: 0.51666665
        value: {x: 0.145, y: 1.5225253, z: 0}
        inSlope: {x: -0.015272722, y: -0.030033119, z: 0}
        outSlope: {x: -0.015272722, y: -0.030033119, z: 0}
        tangentMode: 0
      - time: 0.7
        value: {x: 0.113, y: 1.5353884, z: 0}
        inSlope: {x: -0.08727272, y: 0.11234999, z: 0}
        outSlope: {x: -0.08727272, y: 0.11234999, z: 0}
        tangentMode: 0
      - time: 0.76666665
        value: {x: 0.113, y: 1.5419835, z: 0}
        inSlope: {x: 0, y: 0.0778327, z: 0}
        outSlope: {x: 0, y: 0.0778327, z: 0}
        tangentMode: 0
      m_PreInfinity: 2
      m_PostInfinity: 2
      m_RotationOrder: 4
    path: pl001/sword
  m_ScaleCurves:
  - curve:
      serializedVersion: 2
      m_Curve:
      - time: 0
        value: {x: 1, y: 1, z: 1}
        inSlope: {x: 0, y: -0.3205148, z: 0}
        outSlope: {x: 0, y: -0.3205148, z: 0}
        tangentMode: 0
      - time: 0.26666668
        value: {x: 1, y: 0.9145294, z: 1}
        inSlope: {x: 0, y: -0.061637454, z: 0}
        outSlope: {x: 0, y: -0.061637454, z: 0}
        tangentMode: 0
      - time: 0.7
        value: {x: 1, y: 1, z: 1}
        inSlope: {x: 0, y: 0.19723989, z: 0}
        outSlope: {x: 0, y: 0.19723989, z: 0}
        tangentMode: 0
      m_PreInfinity: 2
      m_PostInfinity: 2
      m_RotationOrder: 4
    path: pl001/body
  - curve:
      serializedVersion: 2
      m_Curve:
      - time: 0
        value: {x: 1, y: 1, z: 1}
        inSlope: {x: 0, y: -3.7783773, z: 0}
        outSlope: {x: 0, y: -3.7783773, z: 0}
        tangentMode: 0
      - time: 0.11666667
        value: {x: 1, y: 0.5591893, z: 1}
        inSlope: {x: 0, y: -1.8891886, z: 0}
        outSlope: {x: 0, y: -1.8891886, z: 0}
        tangentMode: 0
      - time: 0.15
        value: {x: 1, y: 0.5591893, z: 1}
        inSlope: {x: -3, y: 3.3060803, z: 0}
        outSlope: {x: -3, y: 3.3060803, z: 0}
        tangentMode: 0
      - time: 0.21666667
        value: {x: 0.6, y: 1, z: 1}
        inSlope: {x: 0, y: 4.4081063, z: 0}
        outSlope: {x: Infinity, y: Infinity, z: Infinity}
        tangentMode: 0
      - time: 0.6
        value: {x: 0.6, y: 1, z: 1}
        inSlope: {x: 2.0000007, y: Infinity, z: Infinity}
        outSlope: {x: 2.0000007, y: Infinity, z: Infinity}
        tangentMode: 0
      - time: 0.7
        value: {x: 1, y: 1, z: 1}
        inSlope: {x: 4.0000014, y: 0, z: 0}
        outSlope: {x: 4.0000014, y: 0, z: 0}
        tangentMode: 0
      m_PreInfinity: 2
      m_PostInfinity: 2
      m_RotationOrder: 4
    path: pl001/sword
  m_FloatCurves: []
  m_PPtrCurves:
  - curve:
    - time: 0
      value: {fileID: 21300014, guid: 7c8ecb0c03832d44193162d1298bbaaf, type: 3}
    - time: 0.05
      value: {fileID: 21300004, guid: 7c8ecb0c03832d44193162d1298bbaaf, type: 3}
    - time: 0.1
      value: {fileID: 21300000, guid: 7c8ecb0c03832d44193162d1298bbaaf, type: 3}
    - time: 0.25
      value: {fileID: 21300002, guid: 7c8ecb0c03832d44193162d1298bbaaf, type: 3}
    - time: 0.68333334
      value: {fileID: 21300002, guid: 7c8ecb0c03832d44193162d1298bbaaf, type: 3}
    attribute: m_Sprite
    path: pl001/body
    classID: 212
    script: {fileID: 0}
  - curve:
    - time: 0
      value: {fileID: 21300000, guid: a6d0afbbf7efccd438b39b645a140b43, type: 3}
    - time: 0.15
      value: {fileID: 21300004, guid: a6d0afbbf7efccd438b39b645a140b43, type: 3}
    - time: 0.26666668
      value: {fileID: 21300006, guid: a6d0afbbf7efccd438b39b645a140b43, type: 3}
    - time: 0.35
      value: {fileID: 21300008, guid: a6d0afbbf7efccd438b39b645a140b43, type: 3}
    - time: 0.43333334
      value: {fileID: 21300000, guid: a6d0afbbf7efccd438b39b645a140b43, type: 3}
    - time: 0.7
      value: {fileID: 21300000, guid: a6d0afbbf7efccd438b39b645a140b43, type: 3}
    attribute: m_Sprite
    path: pl001/head
    classID: 212
    script: {fileID: 0}
  m_SampleRate: 60
  m_WrapMode: 0
  m_Bounds:
    m_Center: {x: 0, y: 0, z: 0}
    m_Extent: {x: 0, y: 0, z: 0}
  m_ClipBindingConstant:
    genericBindings:
    - path: 2285513772
      attribute: 1
      script: {fileID: 0}
      classID: 4
      customType: 0
      isPPtrCurve: 0
    - path: 1370209625
      attribute: 1
      script: {fileID: 0}
      classID: 4
      customType: 0
      isPPtrCurve: 0
    - path: 1370209625
      attribute: 2
      script: {fileID: 0}
      classID: 4
      customType: 0
      isPPtrCurve: 0
    - path: 4100051202
      attribute: 3
      script: {fileID: 0}
      classID: 4
      customType: 0
      isPPtrCurve: 0
    - path: 1370209625
      attribute: 3
      script: {fileID: 0}
      classID: 4
      customType: 0
      isPPtrCurve: 0
    - path: 4100051202
      attribute: 0
      script: {fileID: 0}
      classID: 212
      customType: 23
      isPPtrCurve: 1
    - path: 2285513772
      attribute: 0
      script: {fileID: 0}
      classID: 212
      customType: 23
      isPPtrCurve: 1
    pptrCurveMapping:
    - {fileID: 21300014, guid: 7c8ecb0c03832d44193162d1298bbaaf, type: 3}
    - {fileID: 21300004, guid: 7c8ecb0c03832d44193162d1298bbaaf, type: 3}
    - {fileID: 21300000, guid: 7c8ecb0c03832d44193162d1298bbaaf, type: 3}
    - {fileID: 21300002, guid: 7c8ecb0c03832d44193162d1298bbaaf, type: 3}
    - {fileID: 21300002, guid: 7c8ecb0c03832d44193162d1298bbaaf, type: 3}
    - {fileID: 21300000, guid: a6d0afbbf7efccd438b39b645a140b43, type: 3}
    - {fileID: 21300004, guid: a6d0afbbf7efccd438b39b645a140b43, type: 3}
    - {fileID: 21300006, guid: a6d0afbbf7efccd438b39b645a140b43, type: 3}
    - {fileID: 21300008, guid: a6d0afbbf7efccd438b39b645a140b43, type: 3}
    - {fileID: 21300000, guid: a6d0afbbf7efccd438b39b645a140b43, type: 3}
    - {fileID: 21300000, guid: a6d0afbbf7efccd438b39b645a140b43, type: 3}
  m_AnimationClipSettings:
    serializedVersion: 2
    m_AdditiveReferencePoseClip: {fileID: 0}
    m_AdditiveReferencePoseTime: 0
    m_StartTime: 0
    m_StopTime: 0.76666665
    m_OrientationOffsetY: 0
    m_Level: 0
    m_CycleOffset: 0
    m_HasAdditiveReferencePose: 0
    m_LoopTime: 0
    m_LoopBlend: 0
    m_LoopBlendOrientation: 0
    m_LoopBlendPositionY: 0
    m_LoopBlendPositionXZ: 0
    m_KeepOriginalOrientation: 0
    m_KeepOriginalPositionY: 1
    m_KeepOriginalPositionXZ: 0
    m_HeightFromFeet: 0
    m_Mirror: 0
  m_EditorCurves:
  - curve:
      serializedVersion: 2
      m_Curve:
      - time: 0
        value: -0.05
        inSlope: 0.2942857
        outSlope: 0.2942857
        tangentMode: 10
      - time: 0.35
        value: 0.053
        inSlope: 0.122999996
        outSlope: -0.126
        tangentMode: 17
      - time: 0.51666665
        value: 0.032
        inSlope: -0.060272735
        outSlope: -0.060272735
        tangentMode: 10
      - time: 0.7
        value: 0.033
        inSlope: 0.005454536
        outSlope: 0.005454536
        tangentMode: 10
      m_PreInfinity: 2
      m_PostInfinity: 2
      m_RotationOrder: 4
    attribute: m_LocalPosition.x
    path: pl001/head
    classID: 4
    script: {fileID: 0}
  - curve:
      serializedVersion: 2
      m_Curve:
      - time: 0
        value: 1.67
        inSlope: -0.13260637
        outSlope: -0.13260637
        tangentMode: 10
      - time: 0.35
        value: 1.6235877
        inSlope: -0.0647099
        outSlope: 0.019633772
        tangentMode: 17
      - time: 0.51666665
        value: 1.62686
        inSlope: 0.07565325
        outSlope: 0.07565325
        tangentMode: 10
      - time: 0.7
        value: 1.651
        inSlope: 0.13167273
        outSlope: 0.13167273
        tangentMode: 10
      m_PreInfinity: 2
      m_PostInfinity: 2
      m_RotationOrder: 4
    attribute: m_LocalPosition.y
    path: pl001/head
    classID: 4
    script: {fileID: 0}
  - curve:
      serializedVersion: 2
      m_Curve:
      - time: 0
        value: 0
        inSlope: 0
        outSlope: 0
        tangentMode: 10
      - time: 0.35
        value: 0
        inSlope: 0
        outSlope: -0
        tangentMode: 17
      - time: 0.51666665
        value: 0
        inSlope: 0
        outSlope: 0
        tangentMode: 10
      - time: 0.7
        value: 0
        inSlope: 0
        outSlope: 0
        tangentMode: 10
      m_PreInfinity: 2
      m_PostInfinity: 2
      m_RotationOrder: 4
    attribute: m_LocalPosition.z
    path: pl001/head
    classID: 4
    script: {fileID: 0}
  - curve:
      serializedVersion: 2
      m_Curve:
      - time: 0
        value: 1
        inSlope: 0
        outSlope: 0
        tangentMode: 10
      - time: 0.26666668
        value: 1
        inSlope: 0
        outSlope: 0
        tangentMode: 10
      - time: 0.7
        value: 1
        inSlope: 0
        outSlope: 0
        tangentMode: 10
      m_PreInfinity: 2
      m_PostInfinity: 2
      m_RotationOrder: 4
    attribute: m_LocalScale.x
    path: pl001/body
    classID: 4
    script: {fileID: 0}
  - curve:
      serializedVersion: 2
      m_Curve:
      - time: 0
        value: 1
        inSlope: -0.3205148
        outSlope: -0.3205148
        tangentMode: 10
      - time: 0.26666668
        value: 0.9145294
        inSlope: -0.061637454
        outSlope: -0.061637454
        tangentMode: 10
      - time: 0.7
        value: 1
        inSlope: 0.19723989
        outSlope: 0.19723989
        tangentMode: 10
      m_PreInfinity: 2
      m_PostInfinity: 2
      m_RotationOrder: 4
    attribute: m_LocalScale.y
    path: pl001/body
    classID: 4
    script: {fileID: 0}
  - curve:
      serializedVersion: 2
      m_Curve:
      - time: 0
        value: 1
        inSlope: 0
        outSlope: 0
        tangentMode: 10
      - time: 0.26666668
        value: 1
        inSlope: 0
        outSlope: 0
        tangentMode: 10
      - time: 0.7
        value: 1
        inSlope: 0
        outSlope: 0
        tangentMode: 10
      m_PreInfinity: 2
      m_PostInfinity: 2
      m_RotationOrder: 4
    attribute: m_LocalScale.z
    path: pl001/body
    classID: 4
    script: {fileID: 0}
  - curve:
      serializedVersion: 2
      m_Curve:
      - time: 0
        value: -0.013
        inSlope: -0.09999998
        outSlope: -0.09999998
        tangentMode: 10
      - time: 0.05
        value: -0.018
        inSlope: 1.2700001
        outSlope: 1.2700001
        tangentMode: 11
      - time: 0.11666667
        value: 0.158
        inSlope: 1.0125
        outSlope: 1.0125
        tangentMode: 19
      - time: 0.18333334
        value: 0.117
        inSlope: -0.61500007
        outSlope: -0.023999956
        tangentMode: 21
      - time: 0.26666668
        value: 0.115
        inSlope: 0.024000013
        outSlope: 0.024000013
        tangentMode: 13
      - time: 0.35
        value: 0.121
        inSlope: 0.10799999
        outSlope: 0.10799999
        tangentMode: 10
      - time: 0.51666665
        value: 0.145
        inSlope: -0.015272722
        outSlope: -0.015272722
        tangentMode: 10
      - time: 0.7
        value: 0.113
        inSlope: -0.08727272
        outSlope: -0.08727272
        tangentMode: 10
      - time: 0.76666665
        value: 0.113
        inSlope: 0
        outSlope: 0
        tangentMode: 10
      m_PreInfinity: 2
      m_PostInfinity: 2
      m_RotationOrder: 4
    attribute: m_LocalPosition.x
    path: pl001/sword
    classID: 4
    script: {fileID: 0}
  - curve:
      serializedVersion: 2
      m_Curve:
      - time: 0
        value: 1.615
        inSlope: 2.479999
        outSlope: 2.479999
        tangentMode: 10
      - time: 0.05
        value: 1.739
        inSlope: 0.16749942
        outSlope: 0.16749942
        tangentMode: 11
      - time: 0.11666667
        value: 1.596
        inSlope: -1.2674993
        outSlope: -1.2674993
        tangentMode: 19
      - time: 0.18333334
        value: 1.57
        inSlope: -0.38999853
        outSlope: -0.15600012
        tangentMode: 21
      - time: 0.26666668
        value: 1.557
        inSlope: -0.14694953
        outSlope: -0.14694953
        tangentMode: 13
      - time: 0.51666665
        value: 1.5225253
        inSlope: -0.030033119
        outSlope: -0.030033119
        tangentMode: 10
      - time: 0.76666665
        value: 1.5419835
        inSlope: 0.0778327
        outSlope: 0.0778327
        tangentMode: 10
      m_PreInfinity: 2
      m_PostInfinity: 2
      m_RotationOrder: 4
    attribute: m_LocalPosition.y
    path: pl001/sword
    classID: 4
    script: {fileID: 0}
  - curve:
      serializedVersion: 2
      m_Curve:
      - time: 0
        value: 0
        inSlope: 0
        outSlope: 0
        tangentMode: 10
      - time: 0.05
        value: 0
        inSlope: 0
        outSlope: 0
        tangentMode: 11
      - time: 0.11666667
        value: 0
        inSlope: 0
        outSlope: 0
        tangentMode: 19
      - time: 0.18333334
        value: 0
        inSlope: 0
        outSlope: -0
        tangentMode: 21
      - time: 0.26666668
        value: 0
        inSlope: 0
        outSlope: 0
        tangentMode: 13
      - time: 0.35
        value: 0
        inSlope: 0
        outSlope: 0
        tangentMode: 10
      - time: 0.51666665
        value: 0
        inSlope: 0
        outSlope: 0
        tangentMode: 10
      - time: 0.7
        value: 0
        inSlope: 0
        outSlope: 0
        tangentMode: 10
      - time: 0.76666665
        value: 0
        inSlope: 0
        outSlope: 0
        tangentMode: 10
      m_PreInfinity: 2
      m_PostInfinity: 2
      m_RotationOrder: 4
    attribute: m_LocalPosition.z
    path: pl001/sword
    classID: 4
    script: {fileID: 0}
  - curve:
      serializedVersion: 2
      m_Curve:
      - time: 0
        value: 1
        inSlope: 0
        outSlope: 0
        tangentMode: 10
      - time: 0.11666667
        value: 1
        inSlope: 0
        outSlope: 0
        tangentMode: 10
      - time: 0.15
        value: 1
        inSlope: -3
        outSlope: -3
        tangentMode: 10
      - time: 0.21666667
        value: 0.6
        inSlope: 0
        outSlope: Infinity
        tangentMode: 25
      - time: 0.6
        value: 0.6
        inSlope: 2.0000007
        outSlope: 2.0000007
        tangentMode: 15
      - time: 0.7
        value: 1
        inSlope: 4.0000014
        outSlope: 4.0000014
        tangentMode: 10
      m_PreInfinity: 2
      m_PostInfinity: 2
      m_RotationOrder: 4
    attribute: m_LocalScale.x
    path: pl001/sword
    classID: 4
    script: {fileID: 0}
  - curve:
      serializedVersion: 2
      m_Curve:
      - time: 0
        value: 1
        inSlope: -3.7783773
        outSlope: -3.7783773
        tangentMode: 10
      - time: 0.11666667
        value: 0.5591893
        inSlope: -1.8891886
        outSlope: -1.8891886
        tangentMode: 10
      - time: 0.15
        value: 0.5591893
        inSlope: 3.3060803
        outSlope: 3.3060803
        tangentMode: 10
      - time: 0.21666667
        value: 1
        inSlope: 4.4081063
        outSlope: Infinity
        tangentMode: 25
      - time: 0.7
        value: 1
        inSlope: 0
        outSlope: 0
        tangentMode: 10
      m_PreInfinity: 2
      m_PostInfinity: 2
      m_RotationOrder: 4
    attribute: m_LocalScale.y
    path: pl001/sword
    classID: 4
    script: {fileID: 0}
  - curve:
      serializedVersion: 2
      m_Curve:
      - time: 0
        value: 1
        inSlope: 0
        outSlope: 0
        tangentMode: 10
      - time: 0.11666667
        value: 1
        inSlope: 0
        outSlope: 0
        tangentMode: 10
      - time: 0.15
        value: 1
        inSlope: 0
        outSlope: 0
        tangentMode: 10
      - time: 0.21666667
        value: 1
        inSlope: 0
        outSlope: Infinity
        tangentMode: 25
      - time: 0.7
        value: 1
        inSlope: 0
        outSlope: 0
        tangentMode: 10
      m_PreInfinity: 2
      m_PostInfinity: 2
      m_RotationOrder: 4
    attribute: m_LocalScale.z
    path: pl001/sword
    classID: 4
    script: {fileID: 0}
  - curve:
      serializedVersion: 2
      m_Curve:
      - time: 0
        value: 0
        inSlope: 0
        outSlope: 0
        tangentMode: 0
      - time: 0.016666668
        value: 0
        inSlope: 0
        outSlope: 0
        tangentMode: 0
      - time: 0.033333335
        value: 0
        inSlope: 0
        outSlope: 0
        tangentMode: 0
      - time: 0.050000004
        value: 0
        inSlope: 0
        outSlope: 0
        tangentMode: 0
      - time: 0.06666667
        value: 0
        inSlope: 0
        outSlope: 0
        tangentMode: 0
      - time: 0.083333336
        value: 0
        inSlope: 0
        outSlope: 0
        tangentMode: 0
      - time: 0.1
        value: 0
        inSlope: 0
        outSlope: 0
        tangentMode: 0
      - time: 0.11666667
        value: 0
        inSlope: 0
        outSlope: 0
        tangentMode: 0
      - time: 0.13333334
        value: 0
        inSlope: 0
        outSlope: 0
        tangentMode: 0
      - time: 0.15
        value: 0
        inSlope: 0
        outSlope: 0
        tangentMode: 0
      - time: 0.16666667
        value: 0
        inSlope: 0
        outSlope: 0
        tangentMode: 0
      - time: 0.18333334
        value: 0
        inSlope: 0
        outSlope: 0
        tangentMode: 0
      - time: 0.2
        value: 0
        inSlope: 0
        outSlope: 0
        tangentMode: 0
      - time: 0.21666667
        value: 0
        inSlope: 0
        outSlope: 0
        tangentMode: 0
      - time: 0.23333333
        value: 0
        inSlope: 0
        outSlope: 0
        tangentMode: 0
      - time: 0.25
        value: 0
        inSlope: 0
        outSlope: 0
        tangentMode: 0
      - time: 0.26666668
        value: 0
        inSlope: 0
        outSlope: 0
        tangentMode: 0
      - time: 0.28333336
        value: 0
        inSlope: 0
        outSlope: 0
        tangentMode: 0
      - time: 0.30000004
        value: 0
        inSlope: 0
        outSlope: 0
        tangentMode: 0
      - time: 0.31666672
        value: 0
        inSlope: 0
        outSlope: 0
        tangentMode: 0
      - time: 0.3333334
        value: 0
        inSlope: 0
        outSlope: 0
        tangentMode: 0
      - time: 0.35000008
        value: 0
        inSlope: 0
        outSlope: 0
        tangentMode: 0
      - time: 0.36666676
        value: 0
        inSlope: 0
        outSlope: 0
        tangentMode: 0
      - time: 0.38333344
        value: 0
        inSlope: 0
        outSlope: 0
        tangentMode: 0
      - time: 0.40000013
        value: 0
        inSlope: 0
        outSlope: 0
        tangentMode: 0
      - time: 0.4166668
        value: 0
        inSlope: 0
        outSlope: 0
        tangentMode: 0
      - time: 0.4333335
        value: 0
        inSlope: 0
        outSlope: 0
        tangentMode: 0
      - time: 0.45000017
        value: 0
        inSlope: 0
        outSlope: 0
        tangentMode: 0
      - time: 0.46666685
        value: 0
        inSlope: 0
        outSlope: 0
        tangentMode: 0
      - time: 0.48333353
        value: 0
        inSlope: 0
        outSlope: 0
        tangentMode: 0
      - time: 0.5000002
        value: 0
        inSlope: 0
        outSlope: 0
        tangentMode: 0
      - time: 0.5166668
        value: 0
        inSlope: 0
        outSlope: 0
        tangentMode: 0
      - time: 0.5333335
        value: 0
        inSlope: 0
        outSlope: 0
        tangentMode: 0
      - time: 0.55000013
        value: 0
        inSlope: 0
        outSlope: 0
        tangentMode: 0
      - time: 0.5666668
        value: 0
        inSlope: 0
        outSlope: 0
        tangentMode: 0
      - time: 0.58333343
        value: 0
        inSlope: 0
        outSlope: 0
        tangentMode: 0
      - time: 0.6000001
        value: 0
        inSlope: 0
        outSlope: 0
        tangentMode: 0
      - time: 0.61666673
        value: 0
        inSlope: 0
        outSlope: 0
        tangentMode: 0
      - time: 0.6333334
        value: 0
        inSlope: 0
        outSlope: 0
        tangentMode: 0
      - time: 0.65000004
        value: 0
        inSlope: 0
        outSlope: 0
        tangentMode: 0
      - time: 0.6666667
        value: 0
        inSlope: 0
        outSlope: 0
        tangentMode: 0
      - time: 0.68333334
        value: 0
        inSlope: 0
        outSlope: 0
        tangentMode: 0
      - time: 0.7
        value: 0
        inSlope: 0
        outSlope: 0
        tangentMode: 0
      - time: 0.71666664
        value: 0
        inSlope: 0
        outSlope: 0
        tangentMode: 0
      - time: 0.7333333
        value: 0
        inSlope: 0
        outSlope: 0
        tangentMode: 0
      - time: 0.74999994
        value: 0
        inSlope: 0
        outSlope: 0
        tangentMode: 0
      - time: 0.76666665
        value: 0
        inSlope: 0
        outSlope: 0
        tangentMode: 0
      m_PreInfinity: 2
      m_PostInfinity: 2
      m_RotationOrder: 4
    attribute: m_LocalRotation.x
    path: pl001/sword
    classID: 4
    script: {fileID: 0}
  - curve:
      serializedVersion: 2
      m_Curve:
      - time: 0
        value: 0
        inSlope: 0
        outSlope: 0
        tangentMode: 0
      - time: 0.016666668
        value: 0
        inSlope: 0
        outSlope: 0
        tangentMode: 0
      - time: 0.033333335
        value: 0
        inSlope: 0
        outSlope: 0
        tangentMode: 0
      - time: 0.050000004
        value: 0
        inSlope: 0
        outSlope: 0
        tangentMode: 0
      - time: 0.06666667
        value: 0
        inSlope: 0
        outSlope: 0
        tangentMode: 0
      - time: 0.083333336
        value: 0
        inSlope: 0
        outSlope: 0
        tangentMode: 0
      - time: 0.1
        value: 0
        inSlope: 0
        outSlope: 0
        tangentMode: 0
      - time: 0.11666667
        value: 0
        inSlope: 0
        outSlope: 0
        tangentMode: 0
      - time: 0.13333334
        value: 0
        inSlope: 0
        outSlope: 0
        tangentMode: 0
      - time: 0.15
        value: 0
        inSlope: 0
        outSlope: 0
        tangentMode: 0
      - time: 0.16666667
        value: 0
        inSlope: 0
        outSlope: 0
        tangentMode: 0
      - time: 0.18333334
        value: 0
        inSlope: 0
        outSlope: 0
        tangentMode: 0
      - time: 0.2
        value: 0
        inSlope: 0
        outSlope: 0
        tangentMode: 0
      - time: 0.21666667
        value: 0
        inSlope: 0
        outSlope: 0
        tangentMode: 0
      - time: 0.23333333
        value: 0
        inSlope: 0
        outSlope: 0
        tangentMode: 0
      - time: 0.25
        value: 0
        inSlope: 0
        outSlope: 0
        tangentMode: 0
      - time: 0.26666668
        value: 0
        inSlope: 0
        outSlope: 0
        tangentMode: 0
      - time: 0.28333336
        value: 0
        inSlope: 0
        outSlope: 0
        tangentMode: 0
      - time: 0.30000004
        value: 0
        inSlope: 0
        outSlope: 0
        tangentMode: 0
      - time: 0.31666672
        value: 0
        inSlope: 0
        outSlope: 0
        tangentMode: 0
      - time: 0.3333334
        value: 0
        inSlope: 0
        outSlope: 0
        tangentMode: 0
      - time: 0.35000008
        value: 0
        inSlope: 0
        outSlope: 0
        tangentMode: 0
      - time: 0.36666676
        value: 0
        inSlope: 0
        outSlope: 0
        tangentMode: 0
      - time: 0.38333344
        value: 0
        inSlope: 0
        outSlope: 0
        tangentMode: 0
      - time: 0.40000013
        value: 0
        inSlope: 0
        outSlope: 0
        tangentMode: 0
      - time: 0.4166668
        value: 0
        inSlope: 0
        outSlope: 0
        tangentMode: 0
      - time: 0.4333335
        value: 0
        inSlope: 0
        outSlope: 0
        tangentMode: 0
      - time: 0.45000017
        value: 0
        inSlope: 0
        outSlope: 0
        tangentMode: 0
      - time: 0.46666685
        value: 0
        inSlope: 0
        outSlope: 0
        tangentMode: 0
      - time: 0.48333353
        value: 0
        inSlope: 0
        outSlope: 0
        tangentMode: 0
      - time: 0.5000002
        value: 0
        inSlope: 0
        outSlope: 0
        tangentMode: 0
      - time: 0.5166668
        value: 0
        inSlope: 0
        outSlope: 0
        tangentMode: 0
      - time: 0.5333335
        value: 0
        inSlope: 0
        outSlope: 0
        tangentMode: 0
      - time: 0.55000013
        value: 0
        inSlope: 0
        outSlope: 0
        tangentMode: 0
      - time: 0.5666668
        value: 0
        inSlope: 0
        outSlope: 0
        tangentMode: 0
      - time: 0.58333343
        value: 0
        inSlope: 0
        outSlope: 0
        tangentMode: 0
      - time: 0.6000001
        value: 0
        inSlope: 0
        outSlope: 0
        tangentMode: 0
      - time: 0.61666673
        value: 0
        inSlope: 0
        outSlope: 0
        tangentMode: 0
      - time: 0.6333334
        value: 0
        inSlope: 0
        outSlope: 0
        tangentMode: 0
      - time: 0.65000004
        value: 0
        inSlope: 0
        outSlope: 0
        tangentMode: 0
      - time: 0.6666667
        value: 0
        inSlope: 0
        outSlope: 0
        tangentMode: 0
      - time: 0.68333334
        value: 0
        inSlope: 0
        outSlope: 0
        tangentMode: 0
      - time: 0.7
        value: 0
        inSlope: 0
        outSlope: 0
        tangentMode: 0
      - time: 0.71666664
        value: 0
        inSlope: 0
        outSlope: 0
        tangentMode: 0
      - time: 0.7333333
        value: 0
        inSlope: 0
        outSlope: 0
        tangentMode: 0
      - time: 0.74999994
        value: 0
        inSlope: 0
        outSlope: 0
        tangentMode: 0
      - time: 0.76666665
        value: 0
        inSlope: 0
        outSlope: 0
        tangentMode: 0
      m_PreInfinity: 2
      m_PostInfinity: 2
      m_RotationOrder: 4
    attribute: m_LocalRotation.y
    path: pl001/sword
    classID: 4
    script: {fileID: 0}
  - curve:
      serializedVersion: 2
      m_Curve:
      - time: 0
        value: -0.5436722
        inSlope: 7.367858
        outSlope: 7.367858
        tangentMode: 0
      - time: 0.016666668
        value: -0.42087457
        inSlope: 8.109935
        outSlope: 8.109935
        tangentMode: 0
      - time: 0.033333335
        value: -0.27334103
        inSlope: 9.3745575
        outSlope: 9.3745575
        tangentMode: 0
      - time: 0.050000004
        value: -0.10838925
        inSlope: 10.117308
        outSlope: 10.117308
        tangentMode: 0
      - time: 0.06666667
        value: 0.06390259
        inSlope: 10.218055
        outSlope: 10.218055
        tangentMode: 0
      - time: 0.083333336
        value: 0.23221254
        inSlope: 9.659929
        outSlope: 9.659929
        tangentMode: 0
      - time: 0.1
        value: 0.3859002
        inSlope: 8.535101
        outSlope: 8.535101
        tangentMode: 0
      - time: 0.11666667
        value: 0.5167159
        inSlope: 7.0150037
        outSlope: 7.0150037
        tangentMode: 0
      - time: 0.13333334
        value: 0.6197337
        inSlope: 5.2947726
        outSlope: 5.2947726
        tangentMode: 0
      - time: 0.15
        value: 0.69320834
        inSlope: 3.528981
        outSlope: 3.528981
        tangentMode: 0
      - time: 0.16666667
        value: 0.7373664
        inSlope: 1.7751898
        outSlope: 1.7751898
        tangentMode: 0
      - time: 0.18333334
        value: 0.7523813
        inSlope: 0.4596055
        outSlope: 0.4596055
        tangentMode: 0
      - time: 0.2
        value: 0.75268656
        inSlope: 0.035469536
        outSlope: 0.035469536
        tangentMode: 0
      - time: 0.21666667
        value: 0.75356364
        inSlope: 0.0680101
        outSlope: 0.0680101
        tangentMode: 0
      - time: 0.23333333
        value: 0.75495356
        inSlope: 0.096979745
        outSlope: 0.096979745
        tangentMode: 0
      - time: 0.25
        value: 0.7567963
        inSlope: 0.12233728
        outSlope: 0.12233728
        tangentMode: 0
      - time: 0.26666668
        value: 0.7590315
        inSlope: 0.14406669
        outSlope: 0.14406669
        tangentMode: 0
      - time: 0.28333336
        value: 0.7615985
        inSlope: 0.16216621
        outSlope: 0.16216621
        tangentMode: 0
      - time: 0.30000004
        value: 0.764437
        inSlope: 0.17667338
        outSlope: 0.17667338
        tangentMode: 0
      - time: 0.31666672
        value: 0.76748765
        inSlope: 0.18763825
        outSlope: 0.18763825
        tangentMode: 0
      - time: 0.3333334
        value: 0.77069163
        inSlope: 0.19510551
        outSlope: 0.19510551
        tangentMode: 0
      - time: 0.35000008
        value: 0.77399117
        inSlope: 0.19914491
        outSlope: 0.19914491
        tangentMode: 0
      - time: 0.36666676
        value: 0.7773298
        inSlope: 0.19984408
        outSlope: 0.19984408
        tangentMode: 0
      - time: 0.38333344
        value: 0.78065264
        inSlope: 0.19729598
        outSlope: 0.19729598
        tangentMode: 0
      - time: 0.40000013
        value: 0.78390634
        inSlope: 0.19157214
        outSlope: 0.19157214
        tangentMode: 0
      - time: 0.4166668
        value: 0.7870384
        inSlope: 0.18274233
        outSlope: 0.18274233
        tangentMode: 0
      - time: 0.4333335
        value: 0.78999776
        inSlope: 0.17089948
        outSlope: 0.17089948
        tangentMode: 0
      - time: 0.45000017
        value: 0.79273504
        inSlope: 0.15611696
        outSlope: 0.15611696
        tangentMode: 0
      - time: 0.46666685
        value: 0.79520166
        inSlope: 0.13843226
        outSlope: 0.13843226
        tangentMode: 0
      - time: 0.48333353
        value: 0.79734945
        inSlope: 0.11788666
        outSlope: 0.11788666
        tangentMode: 0
      - time: 0.5000002
        value: 0.7991312
        inSlope: 0.0944961
        outSlope: 0.0944961
        tangentMode: 0
      - time: 0.5166668
        value: 0.8004993
        inSlope: 0.069417424
        outSlope: 0.069417424
        tangentMode: 0
      - time: 0.5333335
        value: 0.8014451
        inSlope: 0.045935556
        outSlope: 0.045935556
        tangentMode: 0
      - time: 0.55000013
        value: 0.8020305
        inSlope: 0.026051428
        outSlope: 0.026051428
        tangentMode: 0
      - time: 0.5666668
        value: 0.8023135
        inSlope: 0.009618411
        outSlope: 0.009618411
        tangentMode: 0
      - time: 0.58333343
        value: 0.8023511
        inSlope: -0.003397468
        outSlope: -0.003397468
        tangentMode: 0
      - time: 0.6000001
        value: 0.80220026
        inSlope: -0.013014091
        outSlope: -0.013014091
        tangentMode: 0
      - time: 0.61666673
        value: 0.8019173
        inSlope: -0.019252915
        outSlope: -0.019252915
        tangentMode: 0
      - time: 0.6333334
        value: 0.8015585
        inSlope: -0.022103213
        outSlope: -0.022103213
        tangentMode: 0
      - time: 0.65000004
        value: 0.80118054
        inSlope: -0.021554252
        outSlope: -0.021554252
        tangentMode: 0
      - time: 0.6666667
        value: 0.80084
        inSlope: -0.017598884
        outSlope: -0.017598884
        tangentMode: 0
      - time: 0.68333334
        value: 0.8005939
        inSlope: -0.010221014
        outSlope: -0.010221014
        tangentMode: 0
      - time: 0.7
        value: 0.8004993
        inSlope: -0.00283778
        outSlope: -0.00283778
        tangentMode: 0
      - time: 0.71666664
        value: 0.8004993
        inSlope: 0
        outSlope: 0
        tangentMode: 0
      - time: 0.7333333
        value: 0.8004993
        inSlope: 0
        outSlope: 0
        tangentMode: 0
      - time: 0.74999994
        value: 0.8004993
        inSlope: 0
        outSlope: 0
        tangentMode: 0
      - time: 0.76666665
        value: 0.8004993
        inSlope: 0
        outSlope: 0
        tangentMode: 0
      m_PreInfinity: 2
      m_PostInfinity: 2
      m_RotationOrder: 4
    attribute: m_LocalRotation.z
    path: pl001/sword
    classID: 4
    script: {fileID: 0}
  - curve:
      serializedVersion: 2
      m_Curve:
      - time: 0
        value: -0.83929765
        inSlope: -4.069272
        outSlope: -4.069272
        tangentMode: 0
      - time: 0.016666668
        value: -0.90711886
        inSlope: -3.678587
        outSlope: -3.678587
        tangentMode: 0
      - time: 0.033333335
        value: -0.9619172
        inSlope: -2.6096907
        outSlope: -2.6096907
        tangentMode: 0
      - time: 0.050000004
        value: -0.99410856
        inSlope: -1.0811679
        outSlope: -1.0811679
        tangentMode: 0
      - time: 0.06666667
        value: -0.99795616
        inSlope: 0.64330465
        outSlope: 0.64330465
        tangentMode: 0
      - time: 0.083333336
        value: -0.9726651
        inSlope: 2.2624686
        outSlope: 2.2624686
        tangentMode: 0
      - time: 0.1
        value: -0.92254055
        inSlope: 3.495244
        outSlope: 3.495244
        tangentMode: 0
      - time: 0.11666667
        value: -0.85615695
        inSlope: 4.1318493
        outSlope: 4.1318493
        tangentMode: 0
      - time: 0.13333334
        value: -0.7848122
        inSlope: 4.0625896
        outSlope: 4.0625896
        tangentMode: 0
      - time: 0.15
        value: -0.7207373
        inSlope: 3.2795765
        outSlope: 3.2795765
        tangentMode: 0
      - time: 0.16666667
        value: -0.675493
        inSlope: 1.8602839
        outSlope: 1.8602839
        tangentMode: 0
      - time: 0.18333334
        value: -0.6587278
        inSlope: 0.51341957
        outSlope: 0.51341957
        tangentMode: 0
      - time: 0.2
        value: -0.658379
        inSlope: 0.04058719
        outSlope: 0.04058719
        tangentMode: 0
      - time: 0.21666667
        value: -0.6573749
        inSlope: 0.07802368
        outSlope: 0.07802368
        tangentMode: 0
      - time: 0.23333333
        value: -0.6557782
        inSlope: 0.11172475
        outSlope: 0.11172475
        tangentMode: 0
      - time: 0.25
        value: -0.65365076
        inSlope: 0.14172786
        outSlope: 0.14172786
        tangentMode: 0
      - time: 0.26666668
        value: -0.65105397
        inSlope: 0.1680474
        outSlope: 0.1680474
        tangentMode: 0
      - time: 0.28333336
        value: -0.6480492
        inSlope: 0.19066736
        outSlope: 0.19066736
        tangentMode: 0
      - time: 0.30000004
        value: -0.6446984
        inSlope: 0.20956439
        outSlope: 0.20956439
        tangentMode: 0
      - time: 0.31666672
        value: -0.6410637
        inSlope: 0.22470278
        outSlope: 0.22470278
        tangentMode: 0
      - time: 0.3333334
        value: -0.6372083
        inSlope: 0.2360181
        outSlope: 0.2360181
        tangentMode: 0
      - time: 0.35000008
        value: -0.6331964
        inSlope: 0.2434496
        outSlope: 0.2434496
        tangentMode: 0
      - time: 0.36666676
        value: -0.6290933
        inSlope: 0.24693826
        outSlope: 0.24693826
        tangentMode: 0
      - time: 0.38333344
        value: -0.62496513
        inSlope: 0.24642506
        outSlope: 0.24642506
        tangentMode: 0
      - time: 0.40000013
        value: -0.6208791
        inSlope: 0.24183133
        outSlope: 0.24183133
        tangentMode: 0
      - time: 0.4166668
        value: -0.6169041
        inSlope: 0.23308198
        outSlope: 0.23308198
        tangentMode: 0
      - time: 0.4333335
        value: -0.6131097
        inSlope: 0.22013229
        outSlope: 0.22013229
        tangentMode: 0
      - time: 0.45000017
        value: -0.60956633
        inSlope: 0.20293933
        outSlope: 0.20293933
        tangentMode: 0
      - time: 0.46666685
        value: -0.60634506
        inSlope: 0.18145308
        outSlope: 0.18145308
        tangentMode: 0
      - time: 0.48333353
        value: -0.6035179
        inSlope: 0.15565217
        outSlope: 0.15565217
        tangentMode: 0
      - time: 0.5000002
        value: -0.60115665
        inSlope: 0.1255275
        outSlope: 0.1255275
        tangentMode: 0
      - time: 0.5166668
        value: -0.59933364
        inSlope: 0.09265074
        outSlope: 0.09265074
        tangentMode: 0
      - time: 0.5333335
        value: -0.5980683
        inSlope: 0.061517417
        outSlope: 0.061517417
        tangentMode: 0
      - time: 0.55000013
        value: -0.59728307
        inSlope: 0.034963522
        outSlope: 0.034963522
        tangentMode: 0
      - time: 0.5666668
        value: -0.59690285
        inSlope: 0.012921108
        outSlope: 0.012921108
        tangentMode: 0
      - time: 0.58333343
        value: -0.59685236
        inSlope: -0.004566912
        outSlope: -0.004566912
        tangentMode: 0
      - time: 0.6000001
        value: -0.5970551
        inSlope: -0.017480867
        outSlope: -0.017480867
        tangentMode: 0
      - time: 0.61666673
        value: -0.59743506
        inSlope: -0.02583864
        outSlope: -0.02583864
        tangentMode: 0
      - time: 0.6333334
        value: -0.59791636
        inSlope: -0.029629499
        outSlope: -0.029629499
        tangentMode: 0
      - time: 0.65000004
        value: -0.5984227
        inSlope: -0.028858809
        outSlope: -0.028858809
        tangentMode: 0
      - time: 0.6666667
        value: -0.5988783
        inSlope: -0.0235373
        outSlope: -0.0235373
        tangentMode: 0
      - time: 0.68333334
        value: -0.5992073
        inSlope: -0.0136596095
        outSlope: -0.0136596095
        tangentMode: 0
      - time: 0.7
        value: -0.59933364
        inSlope: -0.0037908591
        outSlope: -0.0037908591
        tangentMode: 0
      - time: 0.71666664
        value: -0.59933364
        inSlope: 0
        outSlope: 0
        tangentMode: 0
      - time: 0.7333333
        value: -0.59933364
        inSlope: 0
        outSlope: 0
        tangentMode: 0
      - time: 0.74999994
        value: -0.59933364
        inSlope: 0
        outSlope: 0
        tangentMode: 0
      - time: 0.76666665
        value: -0.59933364
        inSlope: 0
        outSlope: 0
        tangentMode: 0
      m_PreInfinity: 2
      m_PostInfinity: 2
      m_RotationOrder: 4
    attribute: m_LocalRotation.w
    path: pl001/sword
    classID: 4
    script: {fileID: 0}
  m_EulerEditorCurves:
  - curve:
      serializedVersion: 2
      m_Curve:
      - time: 0
        value: 0
        inSlope: 0
        outSlope: 0
        tangentMode: 10
      - time: 0.18333334
        value: 0
        inSlope: Infinity
        outSlope: -0
        tangentMode: 23
      - time: 0.51666665
        value: 0
        inSlope: 0
        outSlope: 0
        tangentMode: 10
      - time: 0.7
        value: 0
        inSlope: 0
        outSlope: 0
        tangentMode: 10
      - time: 0.76666665
        value: 0
        inSlope: 0
        outSlope: 0
        tangentMode: 10
      m_PreInfinity: 2
      m_PostInfinity: 2
      m_RotationOrder: 4
    attribute: localEulerAnglesBaked.x
    path: pl001/sword
    classID: 4
    script: {fileID: 0}
  - curve:
      serializedVersion: 2
      m_Curve:
      - time: 0
        value: 0
        inSlope: 0
        outSlope: 0
        tangentMode: 10
      - time: 0.18333334
        value: 0
        inSlope: Infinity
        outSlope: -0
        tangentMode: 23
      - time: 0.51666665
        value: 0
        inSlope: 0
        outSlope: 0
        tangentMode: 10
      - time: 0.7
        value: 0
        inSlope: 0
        outSlope: 0
        tangentMode: 10
      - time: 0.76666665
        value: 0
        inSlope: 0
        outSlope: 0
        tangentMode: 10
      m_PreInfinity: 2
      m_PostInfinity: 2
      m_RotationOrder: 4
    attribute: localEulerAnglesBaked.y
    path: pl001/sword
    classID: 4
    script: {fileID: 0}
  - curve:
      serializedVersion: 2
      m_Curve:
      - time: 0
        value: 425.86792
        inSlope: -891.61145
        outSlope: -891.61145
        tangentMode: 10
      - time: 0.18333334
        value: 262.40582
        inSlope: 0
        outSlope: 0
        tangentMode: 0
      - time: 0.51666665
        value: 253.64435
        inSlope: -13.142213
        outSlope: -13.142213
        tangentMode: 10
      - time: 0.7
        value: 253.64435
        inSlope: 0
        outSlope: 0
        tangentMode: 10
      - time: 0.76666665
        value: 253.64435
        inSlope: 0
        outSlope: 0
        tangentMode: 10
      m_PreInfinity: 2
      m_PostInfinity: 2
      m_RotationOrder: 4
    attribute: localEulerAnglesBaked.z
    path: pl001/sword
    classID: 4
    script: {fileID: 0}
  m_HasGenericRootTransform: 0
  m_HasMotionFloatCurves: 0
  m_GenerateMotionCurves: 0
  m_Events: []
