%YAML 1.1
%TAG !u! tag:unity3d.com,2011:
--- !u!74 &7400000
AnimationClip:
  m_ObjectHideFlags: 0
  m_PrefabParentObject: {fileID: 0}
  m_PrefabInternal: {fileID: 0}
  m_Name: pl_sp02_001
  serializedVersion: 6
  m_Legacy: 0
  m_Compressed: 0
  m_UseHighQualityCurve: 1
  m_RotationCurves: []
  m_CompressedRotationCurves: []
  m_PositionCurves:
  - curve:
      serializedVersion: 2
      m_Curve:
      - time: 0
        value: {x: -.0820000023, y: 1.93112183, z: 0}
        inSlope: {x: 0, y: 0, z: 0}
        outSlope: {x: 0, y: 0, z: 0}
        tangentMode: 0
      - time: .13333334
        value: {x: -.0820000023, y: 1.92999995, z: 0}
        inSlope: {x: 0, y: 0, z: 0}
        outSlope: {x: 0, y: 0, z: 0}
        tangentMode: 0
      - time: .283333331
        value: {x: -.0820000023, y: 3.70000005, z: 0}
        inSlope: {x: 0, y: 4.62209702, z: 0}
        outSlope: {x: 0, y: 4.62209702, z: 0}
        tangentMode: 0
      - time: .333333343
        value: {x: -.0820000023, y: 3.78999996, z: 0}
        inSlope: {x: 0, y: 1.79999781, z: 0}
        outSlope: {x: 0, y: 1.79999781, z: 0}
        tangentMode: 0
      m_PreInfinity: 2
      m_PostInfinity: 2
    path: 
  m_ScaleCurves: []
  m_FloatCurves: []
  m_PPtrCurves:
  - curve:
    - time: 0
      value: {fileID: 21300000, guid: fe5fc365b4316834bb41f412c2ccc91e, type: 3}
    - time: .100000001
      value: {fileID: 21300000, guid: bd487081a68c4a1448b1ede52246f513, type: 3}
    - time: .166666672
      value: {fileID: 21300000, guid: 2605438917428cb48861d607163618b4, type: 3}
    - time: .333333343
      value: {fileID: 21300000, guid: 2605438917428cb48861d607163618b4, type: 3}
    attribute: m_Sprite
    path: 
    classID: 212
    script: {fileID: 0}
  m_SampleRate: 60
  m_WrapMode: 0
  m_Bounds:
    m_Center: {x: 0, y: 0, z: 0}
    m_Extent: {x: 0, y: 0, z: 0}
  m_ClipBindingConstant:
    genericBindings:
    - path: 0
      attribute: 1
      script: {fileID: 0}
      classID: 4
      customType: 0
      isPPtrCurve: 0
    - path: 0
      attribute: 0
      script: {fileID: 0}
      classID: 212
      customType: 23
      isPPtrCurve: 1
    pptrCurveMapping:
    - {fileID: 21300000, guid: fe5fc365b4316834bb41f412c2ccc91e, type: 3}
    - {fileID: 21300000, guid: bd487081a68c4a1448b1ede52246f513, type: 3}
    - {fileID: 21300000, guid: 2605438917428cb48861d607163618b4, type: 3}
    - {fileID: 21300000, guid: 2605438917428cb48861d607163618b4, type: 3}
  m_AnimationClipSettings:
    serializedVersion: 2
    m_StartTime: 0
    m_StopTime: .350000024
    m_OrientationOffsetY: 0
    m_Level: 0
    m_CycleOffset: 0
    m_LoopTime: 1
    m_LoopBlend: 0
    m_LoopBlendOrientation: 0
    m_LoopBlendPositionY: 0
    m_LoopBlendPositionXZ: 0
    m_KeepOriginalOrientation: 0
    m_KeepOriginalPositionY: 1
    m_KeepOriginalPositionXZ: 0
    m_HeightFromFeet: 0
    m_Mirror: 0
  m_EditorCurves:
  - curve:
      serializedVersion: 2
      m_Curve:
      - time: 0
        value: -.0820000023
        inSlope: 0
        outSlope: 0
        tangentMode: 0
      - time: .283333331
        value: -.0820000023
        inSlope: 0
        outSlope: 0
        tangentMode: 0
      - time: .333333343
        value: -.0820000023
        inSlope: 0
        outSlope: 0
        tangentMode: 10
      m_PreInfinity: 2
      m_PostInfinity: 2
    attribute: m_LocalPosition.x
    path: 
    classID: 4
    script: {fileID: 0}
  - curve:
      serializedVersion: 2
      m_Curve:
      - time: 0
        value: 1.93112183
        inSlope: 0
        outSlope: 0
        tangentMode: 0
      - time: .13333334
        value: 1.92999995
        inSlope: 0
        outSlope: 0
        tangentMode: 0
      - time: .283333331
        value: 3.70000005
        inSlope: 4.62209702
        outSlope: 4.62209702
        tangentMode: 0
      - time: .333333343
        value: 3.78999996
        inSlope: 1.79999781
        outSlope: 1.79999781
        tangentMode: 10
      m_PreInfinity: 2
      m_PostInfinity: 2
    attribute: m_LocalPosition.y
    path: 
    classID: 4
    script: {fileID: 0}
  - curve:
      serializedVersion: 2
      m_Curve:
      - time: 0
        value: 0
        inSlope: 0
        outSlope: 0
        tangentMode: 0
      - time: .13333334
        value: 0
        inSlope: 0
        outSlope: 0
        tangentMode: 0
      - time: .283333331
        value: 0
        inSlope: 0
        outSlope: 0
        tangentMode: 0
      - time: .333333343
        value: 0
        inSlope: 0
        outSlope: 0
        tangentMode: 10
      m_PreInfinity: 2
      m_PostInfinity: 2
    attribute: m_LocalPosition.z
    path: 
    classID: 4
    script: {fileID: 0}
  m_EulerEditorCurves: []
  m_HasGenericRootTransform: 1
  m_HasMotionFloatCurves: 0
  m_GenerateMotionCurves: 0
  m_Events: []
