%YAML 1.1
%TAG !u! tag:unity3d.com,2011:
--- !u!74 &7400000
AnimationClip:
  m_ObjectHideFlags: 0
  m_PrefabParentObject: {fileID: 0}
  m_PrefabInternal: {fileID: 0}
  m_Name: pl_stand
  serializedVersion: 6
  m_Legacy: 0
  m_Compressed: 0
  m_UseHighQualityCurve: 1
  m_RotationCurves:
  - curve:
      serializedVersion: 2
      m_Curve:
      - time: 0
        value: {x: 0, y: 0, z: -.801563263, w: .597909927}
        inSlope: {x: 0, y: 0, z: -.00075340271, w: -.00100970268}
        outSlope: {x: 0, y: 0, z: -.00075340271, w: -.00100970268}
        tangentMode: 0
      - time: .0500000007
        value: {x: 0, y: 0, z: -.801600933, w: .597859442}
        inSlope: {x: 0, y: 0, z: -.00113010406, w: -.00151515007}
        outSlope: {x: 0, y: 0, z: -.00113010406, w: -.00151515007}
        tangentMode: 0
      - time: .100000001
        value: {x: 0, y: 0, z: -.801676273, w: .597758412}
        inSlope: {x: 0, y: 0, z: -.00131845474, w: -.00176787376}
        outSlope: {x: 0, y: 0, z: -.00131845474, w: -.00176787376}
        tangentMode: 0
      - time: .150000006
        value: {x: 0, y: 0, z: -.801732779, w: .597682655}
        inSlope: {x: 0, y: 0, z: -.000376701297, w: -.000505447271}
        outSlope: {x: 0, y: 0, z: -.000376701297, w: -.000505447271}
        tangentMode: 0
      - time: .200000003
        value: {x: 0, y: 0, z: -.801713943, w: .597707868}
        inSlope: {x: 0, y: 0, z: .00169515621, w: .00227272534}
        outSlope: {x: 0, y: 0, z: .00169515621, w: .00227272534}
        tangentMode: 0
      - time: .25
        value: {x: 0, y: 0, z: -.801563263, w: .597909927}
        inSlope: {x: 0, y: 0, z: .00422775699, w: .00566720869}
        outSlope: {x: 0, y: 0, z: .00422775699, w: .00566720869}
        tangentMode: 0
      - time: .300000012
        value: {x: 0, y: 0, z: -.801291168, w: .598274589}
        inSlope: {x: 0, y: 0, z: .00613033632, w: .00820994191}
        outSlope: {x: 0, y: 0, z: .00613033632, w: .00820994191}
        tangentMode: 0
      - time: .350000024
        value: {x: 0, y: 0, z: -.800950229, w: .598730922}
        inSlope: {x: 0, y: 0, z: .00744104199, w: .00995278172}
        outSlope: {x: 0, y: 0, z: .00744104199, w: .00995278172}
        tangentMode: 0
      - time: .400000036
        value: {x: 0, y: 0, z: -.800547063, w: .599269867}
        inSlope: {x: 0, y: 0, z: .00861823373, w: .0115114423}
        outSlope: {x: 0, y: 0, z: .00861823373, w: .0115114423}
        tangentMode: 0
      - time: .450000048
        value: {x: 0, y: 0, z: -.800088406, w: .599882066}
        inSlope: {x: 0, y: 0, z: .00966191106, w: .0128853293}
        outSlope: {x: 0, y: 0, z: .00966191106, w: .0128853293}
        tangentMode: 0
      - time: .50000006
        value: {x: 0, y: 0, z: -.799580872, w: .6005584}
        inSlope: {x: 0, y: 0, z: .0105738612, w: .0140774213}
        outSlope: {x: 0, y: 0, z: .0105738612, w: .0140774213}
        tangentMode: 0
      - time: .550000072
        value: {x: 0, y: 0, z: -.799031019, w: .601289809}
        inSlope: {x: 0, y: 0, z: .0113522978, w: .0150847398}
        outSlope: {x: 0, y: 0, z: .0113522978, w: .0150847398}
        tangentMode: 0
      - time: .600000083
        value: {x: 0, y: 0, z: -.798445642, w: .602066875}
        inSlope: {x: 0, y: 0, z: .0119966241, w: .015908476}
        outSlope: {x: 0, y: 0, z: .0119966241, w: .015908476}
        tangentMode: 0
      - time: .650000095
        value: {x: 0, y: 0, z: -.797831357, w: .602880657}
        inSlope: {x: 0, y: 0, z: .0125062438, w: .016550418}
        outSlope: {x: 0, y: 0, z: .0125062438, w: .016550418}
        tangentMode: 0
      - time: .700000107
        value: {x: 0, y: 0, z: -.797195017, w: .603721917}
        inSlope: {x: 0, y: 0, z: .012881753, w: .0170093738}
        outSlope: {x: 0, y: 0, z: .012881753, w: .0170093738}
        tangentMode: 0
      - time: .750000119
        value: {x: 0, y: 0, z: -.796543181, w: .604581594}
        inSlope: {x: 0, y: 0, z: .0131207677, w: .0172865354}
        outSlope: {x: 0, y: 0, z: .0131207677, w: .0172865354}
        tangentMode: 0
      - time: .800000131
        value: {x: 0, y: 0, z: -.79588294, w: .605450571}
        inSlope: {x: 0, y: 0, z: .0132232876, w: .0173824988}
        outSlope: {x: 0, y: 0, z: .0132232876, w: .0173824988}
        tangentMode: 0
      - time: .850000143
        value: {x: 0, y: 0, z: -.795220852, w: .606319845}
        inSlope: {x: 0, y: 0, z: .013189313, w: .0172984563}
        outSlope: {x: 0, y: 0, z: .013189313, w: .0172984563}
        tangentMode: 0
      - time: .900000155
        value: {x: 0, y: 0, z: -.794564009, w: .607180417}
        inSlope: {x: 0, y: 0, z: .0130158635, w: .0170338117}
        outSlope: {x: 0, y: 0, z: .0130158635, w: .0170338117}
        tangentMode: 0
      - time: .950000167
        value: {x: 0, y: 0, z: -.793919265, w: .608023226}
        inSlope: {x: 0, y: 0, z: .0127047347, w: .0165891703}
        outSlope: {x: 0, y: 0, z: .0127047347, w: .0165891703}
        tangentMode: 0
      - time: 1.00000012
        value: {x: 0, y: 0, z: -.793293536, w: .608839333}
        inSlope: {x: 0, y: 0, z: .012253534, w: .0159663111}
        outSlope: {x: 0, y: 0, z: .012253534, w: .0159663111}
        tangentMode: 0
      - time: 1.05000007
        value: {x: 0, y: 0, z: -.792693913, w: .609619856}
        inSlope: {x: 0, y: 0, z: .011662256, w: .0151652247}
        outSlope: {x: 0, y: 0, z: .011662256, w: .0151652247}
        tangentMode: 0
      - time: 1.10000002
        value: {x: 0, y: 0, z: -.792127311, w: .610355854}
        inSlope: {x: 0, y: 0, z: .0109303109, w: .0141859185}
        outSlope: {x: 0, y: 0, z: .0109303109, w: .0141859185}
        tangentMode: 0
      - time: 1.14999998
        value: {x: 0, y: 0, z: -.791600883, w: .611038446}
        inSlope: {x: 0, y: 0, z: .010056505, w: .0130295884}
        outSlope: {x: 0, y: 0, z: .010056505, w: .0130295884}
        tangentMode: 0
      - time: 1.19999993
        value: {x: 0, y: 0, z: -.791121662, w: .611658812}
        inSlope: {x: 0, y: 0, z: .00904143788, w: .0116956346}
        outSlope: {x: 0, y: 0, z: .00904143788, w: .0116956346}
        tangentMode: 0
      - time: 1.24999988
        value: {x: 0, y: 0, z: -.79069674, w: .612208009}
        inSlope: {x: 0, y: 0, z: .00788510591, w: .010185251}
        outSlope: {x: 0, y: 0, z: .00788510591, w: .010185251}
        tangentMode: 0
      - time: 1.29999983
        value: {x: 0, y: 0, z: -.790333152, w: .612677336}
        inSlope: {x: 0, y: 0, z: .00658631977, w: .00849724654}
        outSlope: {x: 0, y: 0, z: .00658631977, w: .00849724654}
        tangentMode: 0
      - time: 1.34999979
        value: {x: 0, y: 0, z: -.790038109, w: .613057733}
        inSlope: {x: 0, y: 0, z: .00514507759, w: .0066316193}
        outSlope: {x: 0, y: 0, z: .00514507759, w: .0066316193}
        tangentMode: 0
      - time: 1.39999974
        value: {x: 0, y: 0, z: -.789818645, w: .613340497}
        inSlope: {x: 0, y: 0, z: .00356316892, w: .00458896626}
        outSlope: {x: 0, y: 0, z: .00356316892, w: .00458896626}
        tangentMode: 0
      - time: 1.44999969
        value: {x: 0, y: 0, z: -.789681792, w: .613516629}
        inSlope: {x: 0, y: 0, z: .00183999713, w: .00236869091}
        outSlope: {x: 0, y: 0, z: .00183999713, w: .00236869091}
        tangentMode: 0
      - time: 1.49999964
        value: {x: 0, y: 0, z: -.789634645, w: .613577366}
        inSlope: {x: 0, y: 0, z: 0, w: 0}
        outSlope: {x: 0, y: 0, z: 0, w: 0}
        tangentMode: 0
      - time: 1.54999959
        value: {x: 0, y: 0, z: -.789681792, w: .613516629}
        inSlope: {x: 0, y: 0, z: -.00183999713, w: -.00236869091}
        outSlope: {x: 0, y: 0, z: -.00183999713, w: -.00236869091}
        tangentMode: 0
      - time: 1.59999955
        value: {x: 0, y: 0, z: -.789818645, w: .613340497}
        inSlope: {x: 0, y: 0, z: -.00356316892, w: -.00458896626}
        outSlope: {x: 0, y: 0, z: -.00356316892, w: -.00458896626}
        tangentMode: 0
      - time: 1.6499995
        value: {x: 0, y: 0, z: -.790038109, w: .613057733}
        inSlope: {x: 0, y: 0, z: -.00514507759, w: -.0066316193}
        outSlope: {x: 0, y: 0, z: -.00514507759, w: -.0066316193}
        tangentMode: 0
      - time: 1.69999945
        value: {x: 0, y: 0, z: -.790333152, w: .612677336}
        inSlope: {x: 0, y: 0, z: -.00658572372, w: -.00849605445}
        outSlope: {x: 0, y: 0, z: -.00658572372, w: -.00849605445}
        tangentMode: 0
      - time: 1.7499994
        value: {x: 0, y: 0, z: -.790696681, w: .612208128}
        inSlope: {x: 0, y: 0, z: -.00788450986, w: -.010184655}
        outSlope: {x: 0, y: 0, z: -.00788450986, w: -.010184655}
        tangentMode: 0
      - time: 1.79999936
        value: {x: 0, y: 0, z: -.791121602, w: .611658871}
        inSlope: {x: 0, y: 0, z: -.00904203393, w: -.0116962306}
        outSlope: {x: 0, y: 0, z: -.00904203393, w: -.0116962306}
        tangentMode: 0
      - time: 1.84999931
        value: {x: 0, y: 0, z: -.791600883, w: .611038506}
        inSlope: {x: 0, y: 0, z: -.010057101, w: -.0130301844}
        outSlope: {x: 0, y: 0, z: -.010057101, w: -.0130301844}
        tangentMode: 0
      - time: 1.89999926
        value: {x: 0, y: 0, z: -.792127311, w: .610355854}
        inSlope: {x: 0, y: 0, z: -.0109303109, w: -.0141865145}
        outSlope: {x: 0, y: 0, z: -.0109303109, w: -.0141865145}
        tangentMode: 0
      - time: 1.94999921
        value: {x: 0, y: 0, z: -.792693913, w: .609619856}
        inSlope: {x: 0, y: 0, z: -.011662256, w: -.0151652247}
        outSlope: {x: 0, y: 0, z: -.011662256, w: -.0151652247}
        tangentMode: 0
      - time: 1.99999917
        value: {x: 0, y: 0, z: -.793293536, w: .608839333}
        inSlope: {x: 0, y: 0, z: -.0122529231, w: -.0159662925}
        outSlope: {x: 0, y: 0, z: -.0122529231, w: -.0159662925}
        tangentMode: 0
      - time: 2.04999924
        value: {x: 0, y: 0, z: -.793919206, w: .608023226}
        inSlope: {x: 0, y: 0, z: -.0127047272, w: -.016589161}
        outSlope: {x: 0, y: 0, z: -.0127047272, w: -.016589161}
        tangentMode: 0
      - time: 2.09999919
        value: {x: 0, y: 0, z: -.794564009, w: .607180417}
        inSlope: {x: 0, y: 0, z: -.0130164744, w: -.0170338321}
        outSlope: {x: 0, y: 0, z: -.0130164744, w: -.0170338321}
        tangentMode: 0
      - time: 2.14999914
        value: {x: 0, y: 0, z: -.795220852, w: .606319845}
        inSlope: {x: 0, y: 0, z: -.0131887328, w: -.0172978807}
        outSlope: {x: 0, y: 0, z: -.0131887328, w: -.0172978807}
        tangentMode: 0
      - time: 2.19999909
        value: {x: 0, y: 0, z: -.795882881, w: .60545063}
        inSlope: {x: 0, y: 0, z: -.0132233035, w: -.0173825193}
        outSlope: {x: 0, y: 0, z: -.0132233035, w: -.0173825193}
        tangentMode: 0
      - time: 2.24999905
        value: {x: 0, y: 0, z: -.796543181, w: .604581594}
        inSlope: {x: 0, y: 0, z: -.0131207835, w: -.0172865558}
        outSlope: {x: 0, y: 0, z: -.0131207835, w: -.0172865558}
        tangentMode: 0
      - time: 2.299999
        value: {x: 0, y: 0, z: -.797194958, w: .603721976}
        inSlope: {x: 0, y: 0, z: -.0128817679, w: -.0170093942}
        outSlope: {x: 0, y: 0, z: -.0128817679, w: -.0170093942}
        tangentMode: 0
      - time: 2.34999895
        value: {x: 0, y: 0, z: -.797831357, w: .602880657}
        inSlope: {x: 0, y: 0, z: -.0125068547, w: -.0165510327}
        outSlope: {x: 0, y: 0, z: -.0125068547, w: -.0165510327}
        tangentMode: 0
      - time: 2.3999989
        value: {x: 0, y: 0, z: -.798445642, w: .602066875}
        inSlope: {x: 0, y: 0, z: -.011996638, w: -.0159084946}
        outSlope: {x: 0, y: 0, z: -.011996638, w: -.0159084946}
        tangentMode: 0
      - time: 2.44999886
        value: {x: 0, y: 0, z: -.799031019, w: .601289809}
        inSlope: {x: 0, y: 0, z: -.0113523118, w: -.0150847584}
        outSlope: {x: 0, y: 0, z: -.0113523118, w: -.0150847584}
        tangentMode: 0
      - time: 2.49999881
        value: {x: 0, y: 0, z: -.799580872, w: .6005584}
        inSlope: {x: 0, y: 0, z: -.0105738733, w: -.014077438}
        outSlope: {x: 0, y: 0, z: -.0105738733, w: -.014077438}
        tangentMode: 0
      - time: 2.54999876
        value: {x: 0, y: 0, z: -.800088406, w: .599882066}
        inSlope: {x: 0, y: 0, z: -.00966192223, w: -.0128853451}
        outSlope: {x: 0, y: 0, z: -.00966192223, w: -.0128853451}
        tangentMode: 0
      - time: 2.59999871
        value: {x: 0, y: 0, z: -.800547063, w: .599269867}
        inSlope: {x: 0, y: 0, z: -.00861824304, w: -.0115108602}
        outSlope: {x: 0, y: 0, z: -.00861824304, w: -.0115108602}
        tangentMode: 0
      - time: 2.64999866
        value: {x: 0, y: 0, z: -.800950229, w: .598730981}
        inSlope: {x: 0, y: 0, z: -.00744105084, w: -.0099527929}
        outSlope: {x: 0, y: 0, z: -.00744105084, w: -.0099527929}
        tangentMode: 0
      - time: 2.69999862
        value: {x: 0, y: 0, z: -.801291168, w: .598274589}
        inSlope: {x: 0, y: 0, z: -.0061303433, w: -.00821054727}
        outSlope: {x: 0, y: 0, z: -.0061303433, w: -.00821054727}
        tangentMode: 0
      - time: 2.74999857
        value: {x: 0, y: 0, z: -.801563263, w: .597909927}
        inSlope: {x: 0, y: 0, z: -.00422776118, w: -.00566721521}
        outSlope: {x: 0, y: 0, z: -.00422776118, w: -.00566721521}
        tangentMode: 0
      - time: 2.79999852
        value: {x: 0, y: 0, z: -.801713943, w: .597707868}
        inSlope: {x: 0, y: 0, z: -.00169515773, w: -.0022727272}
        outSlope: {x: 0, y: 0, z: -.00169515773, w: -.0022727272}
        tangentMode: 0
      - time: 2.84999847
        value: {x: 0, y: 0, z: -.801732779, w: .597682655}
        inSlope: {x: 0, y: 0, z: .000376701704, w: .000505447853}
        outSlope: {x: 0, y: 0, z: .000376701704, w: .000505447853}
        tangentMode: 0
      - time: 2.89999843
        value: {x: 0, y: 0, z: -.801676273, w: .597758412}
        inSlope: {x: 0, y: 0, z: .00131785986, w: .00176727935}
        outSlope: {x: 0, y: 0, z: .00131785986, w: .00176727935}
        tangentMode: 0
      - time: 2.94999838
        value: {x: 0, y: 0, z: -.801600993, w: .597859383}
        inSlope: {x: 0, y: 0, z: .00113009254, w: .00151513459}
        outSlope: {x: 0, y: 0, z: .00113009254, w: .00151513459}
        tangentMode: 0
      - time: 3
        value: {x: 0, y: 0, z: -.801563263, w: .597909927}
        inSlope: {x: 0, y: 0, z: .000754570356, w: .00101086195}
        outSlope: {x: 0, y: 0, z: .000754570356, w: .00101086195}
        tangentMode: 0
      m_PreInfinity: 2
      m_PostInfinity: 2
    path: pl001/sword
  m_CompressedRotationCurves: []
  m_PositionCurves:
  - curve:
      serializedVersion: 2
      m_Curve:
      - time: 0
        value: {x: .0329999998, y: 1.65100002, z: 0}
        inSlope: {x: 0, y: 0, z: 0}
        outSlope: {x: 0, y: 0, z: 0}
        tangentMode: 0
      - time: .25
        value: {x: .0329999998, y: 1.65100002, z: 0}
        inSlope: {x: 0, y: -.0262500364, z: 0}
        outSlope: {x: 0, y: -.0262500364, z: 0}
        tangentMode: 0
      - time: .649999976
        value: {x: .0329999998, y: 1.63, z: 0}
        inSlope: {x: 0, y: -.0333088376, z: 0}
        outSlope: {x: 0, y: -.0333088376, z: 0}
        tangentMode: 0
      - time: 1.5
        value: {x: .0329999998, y: 1.61800003, z: 0}
        inSlope: {x: 0, y: .00160787208, z: 0}
        outSlope: {x: 0, y: .00160787208, z: 0}
        tangentMode: 0
      - time: 2.25
        value: {x: .0329999998, y: 1.63100004, z: 0}
        inSlope: {x: 0, y: .0286666565, z: 0}
        outSlope: {x: 0, y: .0286666565, z: 0}
        tangentMode: 0
      - time: 2.75
        value: {x: .0329999998, y: 1.65100002, z: 0}
        inSlope: {x: 0, y: .0199999809, z: 0}
        outSlope: {x: 0, y: .0199999809, z: 0}
        tangentMode: 0
      - time: 3
        value: {x: .0329999998, y: 1.65100002, z: 0}
        inSlope: {x: 0, y: 0, z: 0}
        outSlope: {x: 0, y: 0, z: 0}
        tangentMode: 0
      m_PreInfinity: 2
      m_PostInfinity: 2
    path: pl001/head
  - curve:
      serializedVersion: 2
      m_Curve:
      - time: 0
        value: {x: .112999998, y: 1.53999996, z: 0}
        inSlope: {x: 0, y: 0, z: 0}
        outSlope: {x: 0, y: 0, z: 0}
        tangentMode: 0
      - time: .25
        value: {x: .112999998, y: 1.53999996, z: 0}
        inSlope: {x: 0, y: -.0148436436, z: 0}
        outSlope: {x: 0, y: -.0148436436, z: 0}
        tangentMode: 0
      - time: .649999976
        value: {x: .112999998, y: 1.52812505, z: 0}
        inSlope: {x: 0, y: -.0190348327, z: 0}
        outSlope: {x: 0, y: -.0190348327, z: 0}
        tangentMode: 0
      - time: 1.5
        value: {x: .112999998, y: 1.52100003, z: 0}
        inSlope: {x: 0, y: .000905167777, z: 0}
        outSlope: {x: 0, y: .000905167777, z: 0}
        tangentMode: 0
      - time: 2.25
        value: {x: .112999998, y: 1.52864456, z: 0}
        inSlope: {x: 0, y: .0164517555, z: 0}
        outSlope: {x: 0, y: .0164517555, z: 0}
        tangentMode: 0
      - time: 2.75
        value: {x: .112999998, y: 1.53999996, z: 0}
        inSlope: {x: 0, y: .0113554001, z: 0}
        outSlope: {x: 0, y: .0113554001, z: 0}
        tangentMode: 0
      - time: 3
        value: {x: .112999998, y: 1.53999996, z: 0}
        inSlope: {x: 0, y: 0, z: 0}
        outSlope: {x: 0, y: 0, z: 0}
        tangentMode: 0
      m_PreInfinity: 2
      m_PostInfinity: 2
    path: pl001/sword
  m_ScaleCurves:
  - curve:
      serializedVersion: 2
      m_Curve:
      - time: 0
        value: {x: 1, y: 1, z: 1}
        inSlope: {x: 0, y: 0, z: 0}
        outSlope: {x: 0, y: 0, z: 0}
        tangentMode: 0
      - time: .25
        value: {x: 1, y: 1, z: 1}
        inSlope: {x: 0, y: -.0905770883, z: 0}
        outSlope: {x: 0, y: -.0905770883, z: 0}
        tangentMode: 0
      - time: .649999976
        value: {x: 1, y: .927538335, z: 1}
        inSlope: {x: 0, y: -.116151795, z: 0}
        outSlope: {x: 0, y: -.116151795, z: 0}
        tangentMode: 0
      - time: 1.5
        value: {x: 1, y: .884061337, z: 1}
        inSlope: {x: 0, y: .00522150472, z: 0}
        outSlope: {x: 0, y: .00522150472, z: 0}
        tangentMode: 0
      - time: 2.25
        value: {x: 1, y: .930255651, z: 1}
        inSlope: {x: 0, y: .100540556, z: 0}
        outSlope: {x: 0, y: .100540556, z: 0}
        tangentMode: 0
      - time: 2.75
        value: {x: 1, y: 1, z: 1}
        inSlope: {x: 0, y: .0697443485, z: 0}
        outSlope: {x: 0, y: .0697443485, z: 0}
        tangentMode: 0
      - time: 3
        value: {x: 1, y: 1, z: 1}
        inSlope: {x: 0, y: 0, z: 0}
        outSlope: {x: 0, y: 0, z: 0}
        tangentMode: 0
      m_PreInfinity: 2
      m_PostInfinity: 2
    path: pl001/body
  m_FloatCurves: []
  m_PPtrCurves: []
  m_SampleRate: 20
  m_WrapMode: 0
  m_Bounds:
    m_Center: {x: 0, y: 0, z: 0}
    m_Extent: {x: 0, y: 0, z: 0}
  m_ClipBindingConstant:
    genericBindings:
    - path: 2285513772
      attribute: 1
      script: {fileID: 0}
      classID: 4
      customType: 0
      isPPtrCurve: 0
    - path: 1370209625
      attribute: 1
      script: {fileID: 0}
      classID: 4
      customType: 0
      isPPtrCurve: 0
    - path: 1370209625
      attribute: 2
      script: {fileID: 0}
      classID: 4
      customType: 0
      isPPtrCurve: 0
    - path: 4100051202
      attribute: 3
      script: {fileID: 0}
      classID: 4
      customType: 0
      isPPtrCurve: 0
    pptrCurveMapping: []
  m_AnimationClipSettings:
    serializedVersion: 2
    m_StartTime: 0
    m_StopTime: 3
    m_OrientationOffsetY: 0
    m_Level: 0
    m_CycleOffset: 0
    m_LoopTime: 1
    m_LoopBlend: 0
    m_LoopBlendOrientation: 0
    m_LoopBlendPositionY: 0
    m_LoopBlendPositionXZ: 0
    m_KeepOriginalOrientation: 0
    m_KeepOriginalPositionY: 1
    m_KeepOriginalPositionXZ: 0
    m_HeightFromFeet: 0
    m_Mirror: 0
  m_EditorCurves:
  - curve:
      serializedVersion: 2
      m_Curve:
      - time: 0
        value: 1
        inSlope: 0
        outSlope: 0
        tangentMode: 10
      - time: .25
        value: 1
        inSlope: 0
        outSlope: 0
        tangentMode: 10
      - time: .649999976
        value: 1
        inSlope: 0
        outSlope: 0
        tangentMode: 10
      - time: 1.5
        value: 1
        inSlope: 0
        outSlope: 0
        tangentMode: 10
      - time: 2.25
        value: 1
        inSlope: 0
        outSlope: 0
        tangentMode: 10
      - time: 2.75
        value: 1
        inSlope: 0
        outSlope: 0
        tangentMode: 10
      - time: 3
        value: 1
        inSlope: 0
        outSlope: 0
        tangentMode: 10
      m_PreInfinity: 2
      m_PostInfinity: 2
    attribute: m_LocalScale.x
    path: pl001/body
    classID: 4
    script: {fileID: 0}
  - curve:
      serializedVersion: 2
      m_Curve:
      - time: 0
        value: 1
        inSlope: 0
        outSlope: 0
        tangentMode: 10
      - time: .25
        value: 1
        inSlope: -.0905770883
        outSlope: -.0905770883
        tangentMode: 10
      - time: .649999976
        value: .927538335
        inSlope: -.116151795
        outSlope: -.116151795
        tangentMode: 10
      - time: 1.5
        value: .884061337
        inSlope: .00522150472
        outSlope: .00522150472
        tangentMode: 10
      - time: 2.25
        value: .930255651
        inSlope: .100540556
        outSlope: .100540556
        tangentMode: 10
      - time: 2.75
        value: 1
        inSlope: .0697443485
        outSlope: .0697443485
        tangentMode: 10
      - time: 3
        value: 1
        inSlope: 0
        outSlope: 0
        tangentMode: 10
      m_PreInfinity: 2
      m_PostInfinity: 2
    attribute: m_LocalScale.y
    path: pl001/body
    classID: 4
    script: {fileID: 0}
  - curve:
      serializedVersion: 2
      m_Curve:
      - time: 0
        value: 1
        inSlope: 0
        outSlope: 0
        tangentMode: 10
      - time: .25
        value: 1
        inSlope: 0
        outSlope: 0
        tangentMode: 10
      - time: .649999976
        value: 1
        inSlope: 0
        outSlope: 0
        tangentMode: 10
      - time: 1.5
        value: 1
        inSlope: 0
        outSlope: 0
        tangentMode: 10
      - time: 2.25
        value: 1
        inSlope: 0
        outSlope: 0
        tangentMode: 10
      - time: 2.75
        value: 1
        inSlope: 0
        outSlope: 0
        tangentMode: 10
      - time: 3
        value: 1
        inSlope: 0
        outSlope: 0
        tangentMode: 10
      m_PreInfinity: 2
      m_PostInfinity: 2
    attribute: m_LocalScale.z
    path: pl001/body
    classID: 4
    script: {fileID: 0}
  - curve:
      serializedVersion: 2
      m_Curve:
      - time: 0
        value: .0329999998
        inSlope: 0
        outSlope: 0
        tangentMode: 10
      - time: .25
        value: .0329999998
        inSlope: 0
        outSlope: 0
        tangentMode: 10
      - time: .649999976
        value: .0329999998
        inSlope: 0
        outSlope: 0
        tangentMode: 10
      - time: 1.5
        value: .0329999998
        inSlope: 0
        outSlope: 0
        tangentMode: 10
      - time: 2.25
        value: .0329999998
        inSlope: 0
        outSlope: 0
        tangentMode: 10
      - time: 2.75
        value: .0329999998
        inSlope: 0
        outSlope: 0
        tangentMode: 10
      - time: 3
        value: .0329999998
        inSlope: 0
        outSlope: 0
        tangentMode: 10
      m_PreInfinity: 2
      m_PostInfinity: 2
    attribute: m_LocalPosition.x
    path: pl001/head
    classID: 4
    script: {fileID: 0}
  - curve:
      serializedVersion: 2
      m_Curve:
      - time: 0
        value: 1.65100002
        inSlope: 0
        outSlope: 0
        tangentMode: 10
      - time: .25
        value: 1.65100002
        inSlope: -.0262500364
        outSlope: -.0262500364
        tangentMode: 10
      - time: .649999976
        value: 1.63
        inSlope: -.0333088376
        outSlope: -.0333088376
        tangentMode: 10
      - time: 1.5
        value: 1.61800003
        inSlope: .00160787208
        outSlope: .00160787208
        tangentMode: 10
      - time: 2.25
        value: 1.63100004
        inSlope: .0286666565
        outSlope: .0286666565
        tangentMode: 10
      - time: 2.75
        value: 1.65100002
        inSlope: .0199999809
        outSlope: .0199999809
        tangentMode: 10
      - time: 3
        value: 1.65100002
        inSlope: 0
        outSlope: 0
        tangentMode: 10
      m_PreInfinity: 2
      m_PostInfinity: 2
    attribute: m_LocalPosition.y
    path: pl001/head
    classID: 4
    script: {fileID: 0}
  - curve:
      serializedVersion: 2
      m_Curve:
      - time: 0
        value: 0
        inSlope: 0
        outSlope: 0
        tangentMode: 10
      - time: .25
        value: 0
        inSlope: 0
        outSlope: 0
        tangentMode: 10
      - time: .649999976
        value: 0
        inSlope: 0
        outSlope: 0
        tangentMode: 10
      - time: 1.5
        value: 0
        inSlope: 0
        outSlope: 0
        tangentMode: 10
      - time: 2.25
        value: 0
        inSlope: 0
        outSlope: 0
        tangentMode: 10
      - time: 2.75
        value: 0
        inSlope: 0
        outSlope: 0
        tangentMode: 10
      - time: 3
        value: 0
        inSlope: 0
        outSlope: 0
        tangentMode: 10
      m_PreInfinity: 2
      m_PostInfinity: 2
    attribute: m_LocalPosition.z
    path: pl001/head
    classID: 4
    script: {fileID: 0}
  - curve:
      serializedVersion: 2
      m_Curve:
      - time: 0
        value: .112999998
        inSlope: 0
        outSlope: 0
        tangentMode: 10
      - time: .25
        value: .112999998
        inSlope: 0
        outSlope: 0
        tangentMode: 10
      - time: .649999976
        value: .112999998
        inSlope: 0
        outSlope: 0
        tangentMode: 10
      - time: 1.5
        value: .112999998
        inSlope: 0
        outSlope: 0
        tangentMode: 10
      - time: 2.25
        value: .112999998
        inSlope: 0
        outSlope: 0
        tangentMode: 10
      - time: 2.75
        value: .112999998
        inSlope: 0
        outSlope: 0
        tangentMode: 10
      - time: 3
        value: .112999998
        inSlope: 0
        outSlope: 0
        tangentMode: 10
      m_PreInfinity: 2
      m_PostInfinity: 2
    attribute: m_LocalPosition.x
    path: pl001/sword
    classID: 4
    script: {fileID: 0}
  - curve:
      serializedVersion: 2
      m_Curve:
      - time: 0
        value: 1.53999996
        inSlope: 0
        outSlope: 0
        tangentMode: 10
      - time: .25
        value: 1.53999996
        inSlope: -.0148436436
        outSlope: -.0148436436
        tangentMode: 10
      - time: .649999976
        value: 1.52812505
        inSlope: -.0190348327
        outSlope: -.0190348327
        tangentMode: 10
      - time: 1.5
        value: 1.52100003
        inSlope: .000905167777
        outSlope: .000905167777
        tangentMode: 10
      - time: 2.25
        value: 1.52864456
        inSlope: .0164517555
        outSlope: .0164517555
        tangentMode: 10
      - time: 2.75
        value: 1.53999996
        inSlope: .0113554001
        outSlope: .0113554001
        tangentMode: 10
      - time: 3
        value: 1.53999996
        inSlope: 0
        outSlope: 0
        tangentMode: 10
      m_PreInfinity: 2
      m_PostInfinity: 2
    attribute: m_LocalPosition.y
    path: pl001/sword
    classID: 4
    script: {fileID: 0}
  - curve:
      serializedVersion: 2
      m_Curve:
      - time: 0
        value: 0
        inSlope: 0
        outSlope: 0
        tangentMode: 10
      - time: .25
        value: 0
        inSlope: 0
        outSlope: 0
        tangentMode: 10
      - time: .649999976
        value: 0
        inSlope: 0
        outSlope: 0
        tangentMode: 10
      - time: 1.5
        value: 0
        inSlope: 0
        outSlope: 0
        tangentMode: 10
      - time: 2.25
        value: 0
        inSlope: 0
        outSlope: 0
        tangentMode: 10
      - time: 2.75
        value: 0
        inSlope: 0
        outSlope: 0
        tangentMode: 10
      - time: 3
        value: 0
        inSlope: 0
        outSlope: 0
        tangentMode: 10
      m_PreInfinity: 2
      m_PostInfinity: 2
    attribute: m_LocalPosition.z
    path: pl001/sword
    classID: 4
    script: {fileID: 0}
  - curve:
      serializedVersion: 2
      m_Curve:
      - time: 0
        value: 0
        inSlope: 0
        outSlope: 0
        tangentMode: 0
      - time: .0500000007
        value: 0
        inSlope: 0
        outSlope: 0
        tangentMode: 0
      - time: .100000001
        value: 0
        inSlope: 0
        outSlope: 0
        tangentMode: 0
      - time: .150000006
        value: 0
        inSlope: 0
        outSlope: 0
        tangentMode: 0
      - time: .200000003
        value: 0
        inSlope: 0
        outSlope: 0
        tangentMode: 0
      - time: .25
        value: 0
        inSlope: 0
        outSlope: 0
        tangentMode: 0
      - time: .300000012
        value: 0
        inSlope: 0
        outSlope: 0
        tangentMode: 0
      - time: .350000024
        value: 0
        inSlope: 0
        outSlope: 0
        tangentMode: 0
      - time: .400000036
        value: 0
        inSlope: 0
        outSlope: 0
        tangentMode: 0
      - time: .450000048
        value: 0
        inSlope: 0
        outSlope: 0
        tangentMode: 0
      - time: .50000006
        value: 0
        inSlope: 0
        outSlope: 0
        tangentMode: 0
      - time: .550000072
        value: 0
        inSlope: 0
        outSlope: 0
        tangentMode: 0
      - time: .600000083
        value: 0
        inSlope: 0
        outSlope: 0
        tangentMode: 0
      - time: .650000095
        value: 0
        inSlope: 0
        outSlope: 0
        tangentMode: 0
      - time: .700000107
        value: 0
        inSlope: 0
        outSlope: 0
        tangentMode: 0
      - time: .750000119
        value: 0
        inSlope: 0
        outSlope: 0
        tangentMode: 0
      - time: .800000131
        value: 0
        inSlope: 0
        outSlope: 0
        tangentMode: 0
      - time: .850000143
        value: 0
        inSlope: 0
        outSlope: 0
        tangentMode: 0
      - time: .900000155
        value: 0
        inSlope: 0
        outSlope: 0
        tangentMode: 0
      - time: .950000167
        value: 0
        inSlope: 0
        outSlope: 0
        tangentMode: 0
      - time: 1.00000012
        value: 0
        inSlope: 0
        outSlope: 0
        tangentMode: 0
      - time: 1.05000007
        value: 0
        inSlope: 0
        outSlope: 0
        tangentMode: 0
      - time: 1.10000002
        value: 0
        inSlope: 0
        outSlope: 0
        tangentMode: 0
      - time: 1.14999998
        value: 0
        inSlope: 0
        outSlope: 0
        tangentMode: 0
      - time: 1.19999993
        value: 0
        inSlope: 0
        outSlope: 0
        tangentMode: 0
      - time: 1.24999988
        value: 0
        inSlope: 0
        outSlope: 0
        tangentMode: 0
      - time: 1.29999983
        value: 0
        inSlope: 0
        outSlope: 0
        tangentMode: 0
      - time: 1.34999979
        value: 0
        inSlope: 0
        outSlope: 0
        tangentMode: 0
      - time: 1.39999974
        value: 0
        inSlope: 0
        outSlope: 0
        tangentMode: 0
      - time: 1.44999969
        value: 0
        inSlope: 0
        outSlope: 0
        tangentMode: 0
      - time: 1.49999964
        value: 0
        inSlope: 0
        outSlope: 0
        tangentMode: 0
      - time: 1.54999959
        value: 0
        inSlope: 0
        outSlope: 0
        tangentMode: 0
      - time: 1.59999955
        value: 0
        inSlope: 0
        outSlope: 0
        tangentMode: 0
      - time: 1.6499995
        value: 0
        inSlope: 0
        outSlope: 0
        tangentMode: 0
      - time: 1.69999945
        value: 0
        inSlope: 0
        outSlope: 0
        tangentMode: 0
      - time: 1.7499994
        value: 0
        inSlope: 0
        outSlope: 0
        tangentMode: 0
      - time: 1.79999936
        value: 0
        inSlope: 0
        outSlope: 0
        tangentMode: 0
      - time: 1.84999931
        value: 0
        inSlope: 0
        outSlope: 0
        tangentMode: 0
      - time: 1.89999926
        value: 0
        inSlope: 0
        outSlope: 0
        tangentMode: 0
      - time: 1.94999921
        value: 0
        inSlope: 0
        outSlope: 0
        tangentMode: 0
      - time: 1.99999917
        value: 0
        inSlope: 0
        outSlope: 0
        tangentMode: 0
      - time: 2.04999924
        value: 0
        inSlope: 0
        outSlope: 0
        tangentMode: 0
      - time: 2.09999919
        value: 0
        inSlope: 0
        outSlope: 0
        tangentMode: 0
      - time: 2.14999914
        value: 0
        inSlope: 0
        outSlope: 0
        tangentMode: 0
      - time: 2.19999909
        value: 0
        inSlope: 0
        outSlope: 0
        tangentMode: 0
      - time: 2.24999905
        value: 0
        inSlope: 0
        outSlope: 0
        tangentMode: 0
      - time: 2.299999
        value: 0
        inSlope: 0
        outSlope: 0
        tangentMode: 0
      - time: 2.34999895
        value: 0
        inSlope: 0
        outSlope: 0
        tangentMode: 0
      - time: 2.3999989
        value: 0
        inSlope: 0
        outSlope: 0
        tangentMode: 0
      - time: 2.44999886
        value: 0
        inSlope: 0
        outSlope: 0
        tangentMode: 0
      - time: 2.49999881
        value: 0
        inSlope: 0
        outSlope: 0
        tangentMode: 0
      - time: 2.54999876
        value: 0
        inSlope: 0
        outSlope: 0
        tangentMode: 0
      - time: 2.59999871
        value: 0
        inSlope: 0
        outSlope: 0
        tangentMode: 0
      - time: 2.64999866
        value: 0
        inSlope: 0
        outSlope: 0
        tangentMode: 0
      - time: 2.69999862
        value: 0
        inSlope: 0
        outSlope: 0
        tangentMode: 0
      - time: 2.74999857
        value: 0
        inSlope: 0
        outSlope: 0
        tangentMode: 0
      - time: 2.79999852
        value: 0
        inSlope: 0
        outSlope: 0
        tangentMode: 0
      - time: 2.84999847
        value: 0
        inSlope: 0
        outSlope: 0
        tangentMode: 0
      - time: 2.89999843
        value: 0
        inSlope: 0
        outSlope: 0
        tangentMode: 0
      - time: 2.94999838
        value: 0
        inSlope: 0
        outSlope: 0
        tangentMode: 0
      - time: 3
        value: 0
        inSlope: 0
        outSlope: 0
        tangentMode: 0
      m_PreInfinity: 2
      m_PostInfinity: 2
    attribute: m_LocalRotation.x
    path: pl001/sword
    classID: 4
    script: {fileID: 0}
  - curve:
      serializedVersion: 2
      m_Curve:
      - time: 0
        value: 0
        inSlope: 0
        outSlope: 0
        tangentMode: 0
      - time: .0500000007
        value: 0
        inSlope: 0
        outSlope: 0
        tangentMode: 0
      - time: .100000001
        value: 0
        inSlope: 0
        outSlope: 0
        tangentMode: 0
      - time: .150000006
        value: 0
        inSlope: 0
        outSlope: 0
        tangentMode: 0
      - time: .200000003
        value: 0
        inSlope: 0
        outSlope: 0
        tangentMode: 0
      - time: .25
        value: 0
        inSlope: 0
        outSlope: 0
        tangentMode: 0
      - time: .300000012
        value: 0
        inSlope: 0
        outSlope: 0
        tangentMode: 0
      - time: .350000024
        value: 0
        inSlope: 0
        outSlope: 0
        tangentMode: 0
      - time: .400000036
        value: 0
        inSlope: 0
        outSlope: 0
        tangentMode: 0
      - time: .450000048
        value: 0
        inSlope: 0
        outSlope: 0
        tangentMode: 0
      - time: .50000006
        value: 0
        inSlope: 0
        outSlope: 0
        tangentMode: 0
      - time: .550000072
        value: 0
        inSlope: 0
        outSlope: 0
        tangentMode: 0
      - time: .600000083
        value: 0
        inSlope: 0
        outSlope: 0
        tangentMode: 0
      - time: .650000095
        value: 0
        inSlope: 0
        outSlope: 0
        tangentMode: 0
      - time: .700000107
        value: 0
        inSlope: 0
        outSlope: 0
        tangentMode: 0
      - time: .750000119
        value: 0
        inSlope: 0
        outSlope: 0
        tangentMode: 0
      - time: .800000131
        value: 0
        inSlope: 0
        outSlope: 0
        tangentMode: 0
      - time: .850000143
        value: 0
        inSlope: 0
        outSlope: 0
        tangentMode: 0
      - time: .900000155
        value: 0
        inSlope: 0
        outSlope: 0
        tangentMode: 0
      - time: .950000167
        value: 0
        inSlope: 0
        outSlope: 0
        tangentMode: 0
      - time: 1.00000012
        value: 0
        inSlope: 0
        outSlope: 0
        tangentMode: 0
      - time: 1.05000007
        value: 0
        inSlope: 0
        outSlope: 0
        tangentMode: 0
      - time: 1.10000002
        value: 0
        inSlope: 0
        outSlope: 0
        tangentMode: 0
      - time: 1.14999998
        value: 0
        inSlope: 0
        outSlope: 0
        tangentMode: 0
      - time: 1.19999993
        value: 0
        inSlope: 0
        outSlope: 0
        tangentMode: 0
      - time: 1.24999988
        value: 0
        inSlope: 0
        outSlope: 0
        tangentMode: 0
      - time: 1.29999983
        value: 0
        inSlope: 0
        outSlope: 0
        tangentMode: 0
      - time: 1.34999979
        value: 0
        inSlope: 0
        outSlope: 0
        tangentMode: 0
      - time: 1.39999974
        value: 0
        inSlope: 0
        outSlope: 0
        tangentMode: 0
      - time: 1.44999969
        value: 0
        inSlope: 0
        outSlope: 0
        tangentMode: 0
      - time: 1.49999964
        value: 0
        inSlope: 0
        outSlope: 0
        tangentMode: 0
      - time: 1.54999959
        value: 0
        inSlope: 0
        outSlope: 0
        tangentMode: 0
      - time: 1.59999955
        value: 0
        inSlope: 0
        outSlope: 0
        tangentMode: 0
      - time: 1.6499995
        value: 0
        inSlope: 0
        outSlope: 0
        tangentMode: 0
      - time: 1.69999945
        value: 0
        inSlope: 0
        outSlope: 0
        tangentMode: 0
      - time: 1.7499994
        value: 0
        inSlope: 0
        outSlope: 0
        tangentMode: 0
      - time: 1.79999936
        value: 0
        inSlope: 0
        outSlope: 0
        tangentMode: 0
      - time: 1.84999931
        value: 0
        inSlope: 0
        outSlope: 0
        tangentMode: 0
      - time: 1.89999926
        value: 0
        inSlope: 0
        outSlope: 0
        tangentMode: 0
      - time: 1.94999921
        value: 0
        inSlope: 0
        outSlope: 0
        tangentMode: 0
      - time: 1.99999917
        value: 0
        inSlope: 0
        outSlope: 0
        tangentMode: 0
      - time: 2.04999924
        value: 0
        inSlope: 0
        outSlope: 0
        tangentMode: 0
      - time: 2.09999919
        value: 0
        inSlope: 0
        outSlope: 0
        tangentMode: 0
      - time: 2.14999914
        value: 0
        inSlope: 0
        outSlope: 0
        tangentMode: 0
      - time: 2.19999909
        value: 0
        inSlope: 0
        outSlope: 0
        tangentMode: 0
      - time: 2.24999905
        value: 0
        inSlope: 0
        outSlope: 0
        tangentMode: 0
      - time: 2.299999
        value: 0
        inSlope: 0
        outSlope: 0
        tangentMode: 0
      - time: 2.34999895
        value: 0
        inSlope: 0
        outSlope: 0
        tangentMode: 0
      - time: 2.3999989
        value: 0
        inSlope: 0
        outSlope: 0
        tangentMode: 0
      - time: 2.44999886
        value: 0
        inSlope: 0
        outSlope: 0
        tangentMode: 0
      - time: 2.49999881
        value: 0
        inSlope: 0
        outSlope: 0
        tangentMode: 0
      - time: 2.54999876
        value: 0
        inSlope: 0
        outSlope: 0
        tangentMode: 0
      - time: 2.59999871
        value: 0
        inSlope: 0
        outSlope: 0
        tangentMode: 0
      - time: 2.64999866
        value: 0
        inSlope: 0
        outSlope: 0
        tangentMode: 0
      - time: 2.69999862
        value: 0
        inSlope: 0
        outSlope: 0
        tangentMode: 0
      - time: 2.74999857
        value: 0
        inSlope: 0
        outSlope: 0
        tangentMode: 0
      - time: 2.79999852
        value: 0
        inSlope: 0
        outSlope: 0
        tangentMode: 0
      - time: 2.84999847
        value: 0
        inSlope: 0
        outSlope: 0
        tangentMode: 0
      - time: 2.89999843
        value: 0
        inSlope: 0
        outSlope: 0
        tangentMode: 0
      - time: 2.94999838
        value: 0
        inSlope: 0
        outSlope: 0
        tangentMode: 0
      - time: 3
        value: 0
        inSlope: 0
        outSlope: 0
        tangentMode: 0
      m_PreInfinity: 2
      m_PostInfinity: 2
    attribute: m_LocalRotation.y
    path: pl001/sword
    classID: 4
    script: {fileID: 0}
  - curve:
      serializedVersion: 2
      m_Curve:
      - time: 0
        value: -.801563263
        inSlope: -.00075340271
        outSlope: -.00075340271
        tangentMode: 0
      - time: .0500000007
        value: -.801600933
        inSlope: -.00113010406
        outSlope: -.00113010406
        tangentMode: 0
      - time: .100000001
        value: -.801676273
        inSlope: -.00131845474
        outSlope: -.00131845474
        tangentMode: 0
      - time: .150000006
        value: -.801732779
        inSlope: -.000376701297
        outSlope: -.000376701297
        tangentMode: 0
      - time: .200000003
        value: -.801713943
        inSlope: .00169515621
        outSlope: .00169515621
        tangentMode: 0
      - time: .25
        value: -.801563263
        inSlope: .00422775699
        outSlope: .00422775699
        tangentMode: 0
      - time: .300000012
        value: -.801291168
        inSlope: .00613033632
        outSlope: .00613033632
        tangentMode: 0
      - time: .350000024
        value: -.800950229
        inSlope: .00744104199
        outSlope: .00744104199
        tangentMode: 0
      - time: .400000036
        value: -.800547063
        inSlope: .00861823373
        outSlope: .00861823373
        tangentMode: 0
      - time: .450000048
        value: -.800088406
        inSlope: .00966191106
        outSlope: .00966191106
        tangentMode: 0
      - time: .50000006
        value: -.799580872
        inSlope: .0105738612
        outSlope: .0105738612
        tangentMode: 0
      - time: .550000072
        value: -.799031019
        inSlope: .0113522978
        outSlope: .0113522978
        tangentMode: 0
      - time: .600000083
        value: -.798445642
        inSlope: .0119966241
        outSlope: .0119966241
        tangentMode: 0
      - time: .650000095
        value: -.797831357
        inSlope: .0125062438
        outSlope: .0125062438
        tangentMode: 0
      - time: .700000107
        value: -.797195017
        inSlope: .012881753
        outSlope: .012881753
        tangentMode: 0
      - time: .750000119
        value: -.796543181
        inSlope: .0131207677
        outSlope: .0131207677
        tangentMode: 0
      - time: .800000131
        value: -.79588294
        inSlope: .0132232876
        outSlope: .0132232876
        tangentMode: 0
      - time: .850000143
        value: -.795220852
        inSlope: .013189313
        outSlope: .013189313
        tangentMode: 0
      - time: .900000155
        value: -.794564009
        inSlope: .0130158635
        outSlope: .0130158635
        tangentMode: 0
      - time: .950000167
        value: -.793919265
        inSlope: .0127047347
        outSlope: .0127047347
        tangentMode: 0
      - time: 1.00000012
        value: -.793293536
        inSlope: .012253534
        outSlope: .012253534
        tangentMode: 0
      - time: 1.05000007
        value: -.792693913
        inSlope: .011662256
        outSlope: .011662256
        tangentMode: 0
      - time: 1.10000002
        value: -.792127311
        inSlope: .0109303109
        outSlope: .0109303109
        tangentMode: 0
      - time: 1.14999998
        value: -.791600883
        inSlope: .010056505
        outSlope: .010056505
        tangentMode: 0
      - time: 1.19999993
        value: -.791121662
        inSlope: .00904143788
        outSlope: .00904143788
        tangentMode: 0
      - time: 1.24999988
        value: -.79069674
        inSlope: .00788510591
        outSlope: .00788510591
        tangentMode: 0
      - time: 1.29999983
        value: -.790333152
        inSlope: .00658631977
        outSlope: .00658631977
        tangentMode: 0
      - time: 1.34999979
        value: -.790038109
        inSlope: .00514507759
        outSlope: .00514507759
        tangentMode: 0
      - time: 1.39999974
        value: -.789818645
        inSlope: .00356316892
        outSlope: .00356316892
        tangentMode: 0
      - time: 1.44999969
        value: -.789681792
        inSlope: .00183999713
        outSlope: .00183999713
        tangentMode: 0
      - time: 1.49999964
        value: -.789634645
        inSlope: 0
        outSlope: 0
        tangentMode: 0
      - time: 1.54999959
        value: -.789681792
        inSlope: -.00183999713
        outSlope: -.00183999713
        tangentMode: 0
      - time: 1.59999955
        value: -.789818645
        inSlope: -.00356316892
        outSlope: -.00356316892
        tangentMode: 0
      - time: 1.6499995
        value: -.790038109
        inSlope: -.00514507759
        outSlope: -.00514507759
        tangentMode: 0
      - time: 1.69999945
        value: -.790333152
        inSlope: -.00658572372
        outSlope: -.00658572372
        tangentMode: 0
      - time: 1.7499994
        value: -.790696681
        inSlope: -.00788450986
        outSlope: -.00788450986
        tangentMode: 0
      - time: 1.79999936
        value: -.791121602
        inSlope: -.00904203393
        outSlope: -.00904203393
        tangentMode: 0
      - time: 1.84999931
        value: -.791600883
        inSlope: -.010057101
        outSlope: -.010057101
        tangentMode: 0
      - time: 1.89999926
        value: -.792127311
        inSlope: -.0109303109
        outSlope: -.0109303109
        tangentMode: 0
      - time: 1.94999921
        value: -.792693913
        inSlope: -.011662256
        outSlope: -.011662256
        tangentMode: 0
      - time: 1.99999917
        value: -.793293536
        inSlope: -.0122529231
        outSlope: -.0122529231
        tangentMode: 0
      - time: 2.04999924
        value: -.793919206
        inSlope: -.0127047272
        outSlope: -.0127047272
        tangentMode: 0
      - time: 2.09999919
        value: -.794564009
        inSlope: -.0130164744
        outSlope: -.0130164744
        tangentMode: 0
      - time: 2.14999914
        value: -.795220852
        inSlope: -.0131887328
        outSlope: -.0131887328
        tangentMode: 0
      - time: 2.19999909
        value: -.795882881
        inSlope: -.0132233035
        outSlope: -.0132233035
        tangentMode: 0
      - time: 2.24999905
        value: -.796543181
        inSlope: -.0131207835
        outSlope: -.0131207835
        tangentMode: 0
      - time: 2.299999
        value: -.797194958
        inSlope: -.0128817679
        outSlope: -.0128817679
        tangentMode: 0
      - time: 2.34999895
        value: -.797831357
        inSlope: -.0125068547
        outSlope: -.0125068547
        tangentMode: 0
      - time: 2.3999989
        value: -.798445642
        inSlope: -.011996638
        outSlope: -.011996638
        tangentMode: 0
      - time: 2.44999886
        value: -.799031019
        inSlope: -.0113523118
        outSlope: -.0113523118
        tangentMode: 0
      - time: 2.49999881
        value: -.799580872
        inSlope: -.0105738733
        outSlope: -.0105738733
        tangentMode: 0
      - time: 2.54999876
        value: -.800088406
        inSlope: -.00966192223
        outSlope: -.00966192223
        tangentMode: 0
      - time: 2.59999871
        value: -.800547063
        inSlope: -.00861824304
        outSlope: -.00861824304
        tangentMode: 0
      - time: 2.64999866
        value: -.800950229
        inSlope: -.00744105084
        outSlope: -.00744105084
        tangentMode: 0
      - time: 2.69999862
        value: -.801291168
        inSlope: -.0061303433
        outSlope: -.0061303433
        tangentMode: 0
      - time: 2.74999857
        value: -.801563263
        inSlope: -.00422776118
        outSlope: -.00422776118
        tangentMode: 0
      - time: 2.79999852
        value: -.801713943
        inSlope: -.00169515773
        outSlope: -.00169515773
        tangentMode: 0
      - time: 2.84999847
        value: -.801732779
        inSlope: .000376701704
        outSlope: .000376701704
        tangentMode: 0
      - time: 2.89999843
        value: -.801676273
        inSlope: .00131785986
        outSlope: .00131785986
        tangentMode: 0
      - time: 2.94999838
        value: -.801600993
        inSlope: .00113009254
        outSlope: .00113009254
        tangentMode: 0
      - time: 3
        value: -.801563263
        inSlope: .000754570356
        outSlope: .000754570356
        tangentMode: 0
      m_PreInfinity: 2
      m_PostInfinity: 2
    attribute: m_LocalRotation.z
    path: pl001/sword
    classID: 4
    script: {fileID: 0}
  - curve:
      serializedVersion: 2
      m_Curve:
      - time: 0
        value: .597909927
        inSlope: -.00100970268
        outSlope: -.00100970268
        tangentMode: 0
      - time: .0500000007
        value: .597859442
        inSlope: -.00151515007
        outSlope: -.00151515007
        tangentMode: 0
      - time: .100000001
        value: .597758412
        inSlope: -.00176787376
        outSlope: -.00176787376
        tangentMode: 0
      - time: .150000006
        value: .597682655
        inSlope: -.000505447271
        outSlope: -.000505447271
        tangentMode: 0
      - time: .200000003
        value: .597707868
        inSlope: .00227272534
        outSlope: .00227272534
        tangentMode: 0
      - time: .25
        value: .597909927
        inSlope: .00566720869
        outSlope: .00566720869
        tangentMode: 0
      - time: .300000012
        value: .598274589
        inSlope: .00820994191
        outSlope: .00820994191
        tangentMode: 0
      - time: .350000024
        value: .598730922
        inSlope: .00995278172
        outSlope: .00995278172
        tangentMode: 0
      - time: .400000036
        value: .599269867
        inSlope: .0115114423
        outSlope: .0115114423
        tangentMode: 0
      - time: .450000048
        value: .599882066
        inSlope: .0128853293
        outSlope: .0128853293
        tangentMode: 0
      - time: .50000006
        value: .6005584
        inSlope: .0140774213
        outSlope: .0140774213
        tangentMode: 0
      - time: .550000072
        value: .601289809
        inSlope: .0150847398
        outSlope: .0150847398
        tangentMode: 0
      - time: .600000083
        value: .602066875
        inSlope: .015908476
        outSlope: .015908476
        tangentMode: 0
      - time: .650000095
        value: .602880657
        inSlope: .016550418
        outSlope: .016550418
        tangentMode: 0
      - time: .700000107
        value: .603721917
        inSlope: .0170093738
        outSlope: .0170093738
        tangentMode: 0
      - time: .750000119
        value: .604581594
        inSlope: .0172865354
        outSlope: .0172865354
        tangentMode: 0
      - time: .800000131
        value: .605450571
        inSlope: .0173824988
        outSlope: .0173824988
        tangentMode: 0
      - time: .850000143
        value: .606319845
        inSlope: .0172984563
        outSlope: .0172984563
        tangentMode: 0
      - time: .900000155
        value: .607180417
        inSlope: .0170338117
        outSlope: .0170338117
        tangentMode: 0
      - time: .950000167
        value: .608023226
        inSlope: .0165891703
        outSlope: .0165891703
        tangentMode: 0
      - time: 1.00000012
        value: .608839333
        inSlope: .0159663111
        outSlope: .0159663111
        tangentMode: 0
      - time: 1.05000007
        value: .609619856
        inSlope: .0151652247
        outSlope: .0151652247
        tangentMode: 0
      - time: 1.10000002
        value: .610355854
        inSlope: .0141859185
        outSlope: .0141859185
        tangentMode: 0
      - time: 1.14999998
        value: .611038446
        inSlope: .0130295884
        outSlope: .0130295884
        tangentMode: 0
      - time: 1.19999993
        value: .611658812
        inSlope: .0116956346
        outSlope: .0116956346
        tangentMode: 0
      - time: 1.24999988
        value: .612208009
        inSlope: .010185251
        outSlope: .010185251
        tangentMode: 0
      - time: 1.29999983
        value: .612677336
        inSlope: .00849724654
        outSlope: .00849724654
        tangentMode: 0
      - time: 1.34999979
        value: .613057733
        inSlope: .0066316193
        outSlope: .0066316193
        tangentMode: 0
      - time: 1.39999974
        value: .613340497
        inSlope: .00458896626
        outSlope: .00458896626
        tangentMode: 0
      - time: 1.44999969
        value: .613516629
        inSlope: .00236869091
        outSlope: .00236869091
        tangentMode: 0
      - time: 1.49999964
        value: .613577366
        inSlope: 0
        outSlope: 0
        tangentMode: 0
      - time: 1.54999959
        value: .613516629
        inSlope: -.00236869091
        outSlope: -.00236869091
        tangentMode: 0
      - time: 1.59999955
        value: .613340497
        inSlope: -.00458896626
        outSlope: -.00458896626
        tangentMode: 0
      - time: 1.6499995
        value: .613057733
        inSlope: -.0066316193
        outSlope: -.0066316193
        tangentMode: 0
      - time: 1.69999945
        value: .612677336
        inSlope: -.00849605445
        outSlope: -.00849605445
        tangentMode: 0
      - time: 1.7499994
        value: .612208128
        inSlope: -.010184655
        outSlope: -.010184655
        tangentMode: 0
      - time: 1.79999936
        value: .611658871
        inSlope: -.0116962306
        outSlope: -.0116962306
        tangentMode: 0
      - time: 1.84999931
        value: .611038506
        inSlope: -.0130301844
        outSlope: -.0130301844
        tangentMode: 0
      - time: 1.89999926
        value: .610355854
        inSlope: -.0141865145
        outSlope: -.0141865145
        tangentMode: 0
      - time: 1.94999921
        value: .609619856
        inSlope: -.0151652247
        outSlope: -.0151652247
        tangentMode: 0
      - time: 1.99999917
        value: .608839333
        inSlope: -.0159662925
        outSlope: -.0159662925
        tangentMode: 0
      - time: 2.04999924
        value: .608023226
        inSlope: -.016589161
        outSlope: -.016589161
        tangentMode: 0
      - time: 2.09999919
        value: .607180417
        inSlope: -.0170338321
        outSlope: -.0170338321
        tangentMode: 0
      - time: 2.14999914
        value: .606319845
        inSlope: -.0172978807
        outSlope: -.0172978807
        tangentMode: 0
      - time: 2.19999909
        value: .60545063
        inSlope: -.0173825193
        outSlope: -.0173825193
        tangentMode: 0
      - time: 2.24999905
        value: .604581594
        inSlope: -.0172865558
        outSlope: -.0172865558
        tangentMode: 0
      - time: 2.299999
        value: .603721976
        inSlope: -.0170093942
        outSlope: -.0170093942
        tangentMode: 0
      - time: 2.34999895
        value: .602880657
        inSlope: -.0165510327
        outSlope: -.0165510327
        tangentMode: 0
      - time: 2.3999989
        value: .602066875
        inSlope: -.0159084946
        outSlope: -.0159084946
        tangentMode: 0
      - time: 2.44999886
        value: .601289809
        inSlope: -.0150847584
        outSlope: -.0150847584
        tangentMode: 0
      - time: 2.49999881
        value: .6005584
        inSlope: -.014077438
        outSlope: -.014077438
        tangentMode: 0
      - time: 2.54999876
        value: .599882066
        inSlope: -.0128853451
        outSlope: -.0128853451
        tangentMode: 0
      - time: 2.59999871
        value: .599269867
        inSlope: -.0115108602
        outSlope: -.0115108602
        tangentMode: 0
      - time: 2.64999866
        value: .598730981
        inSlope: -.0099527929
        outSlope: -.0099527929
        tangentMode: 0
      - time: 2.69999862
        value: .598274589
        inSlope: -.00821054727
        outSlope: -.00821054727
        tangentMode: 0
      - time: 2.74999857
        value: .597909927
        inSlope: -.00566721521
        outSlope: -.00566721521
        tangentMode: 0
      - time: 2.79999852
        value: .597707868
        inSlope: -.0022727272
        outSlope: -.0022727272
        tangentMode: 0
      - time: 2.84999847
        value: .597682655
        inSlope: .000505447853
        outSlope: .000505447853
        tangentMode: 0
      - time: 2.89999843
        value: .597758412
        inSlope: .00176727935
        outSlope: .00176727935
        tangentMode: 0
      - time: 2.94999838
        value: .597859383
        inSlope: .00151513459
        outSlope: .00151513459
        tangentMode: 0
      - time: 3
        value: .597909927
        inSlope: .00101086195
        outSlope: .00101086195
        tangentMode: 0
      m_PreInfinity: 2
      m_PostInfinity: 2
    attribute: m_LocalRotation.w
    path: pl001/sword
    classID: 4
    script: {fileID: 0}
  m_EulerEditorCurves:
  - curve:
      serializedVersion: 2
      m_Curve:
      - time: 0
        value: 0
        inSlope: 0
        outSlope: 0
        tangentMode: 10
      - time: .25
        value: 0
        inSlope: 0
        outSlope: 0
        tangentMode: 10
      - time: 1.5
        value: 0
        inSlope: 0
        outSlope: 0
        tangentMode: 10
      - time: 2.75
        value: 0
        inSlope: 0
        outSlope: 0
        tangentMode: 10
      - time: 3
        value: 0
        inSlope: 0
        outSlope: 0
        tangentMode: 10
      m_PreInfinity: 2
      m_PostInfinity: 2
    attribute: localEulerAnglesBaked.x
    path: pl001/sword
    classID: 4
    script: {fileID: 0}
  - curve:
      serializedVersion: 2
      m_Curve:
      - time: 0
        value: 0
        inSlope: 0
        outSlope: 0
        tangentMode: 10
      - time: .25
        value: 0
        inSlope: 0
        outSlope: 0
        tangentMode: 10
      - time: 1.5
        value: 0
        inSlope: 0
        outSlope: 0
        tangentMode: 10
      - time: 2.75
        value: 0
        inSlope: 0
        outSlope: 0
        tangentMode: 10
      - time: 3
        value: 0
        inSlope: 0
        outSlope: 0
        tangentMode: 10
      m_PreInfinity: 2
      m_PostInfinity: 2
    attribute: localEulerAnglesBaked.y
    path: pl001/sword
    classID: 4
    script: {fileID: 0}
  - curve:
      serializedVersion: 2
      m_Curve:
      - time: 0
        value: -106.55928
        inSlope: 0
        outSlope: 0
        tangentMode: 10
      - time: .25
        value: -106.55928
        inSlope: .902612329
        outSlope: .902612329
        tangentMode: 10
      - time: 1.5
        value: -104.30275
        inSlope: 0
        outSlope: 0
        tangentMode: 10
      - time: 2.75
        value: -106.55928
        inSlope: -.902612329
        outSlope: -.902612329
        tangentMode: 10
      - time: 3
        value: -106.55928
        inSlope: 0
        outSlope: 0
        tangentMode: 10
      m_PreInfinity: 2
      m_PostInfinity: 2
    attribute: localEulerAnglesBaked.z
    path: pl001/sword
    classID: 4
    script: {fileID: 0}
  m_HasGenericRootTransform: 0
  m_HasMotionFloatCurves: 0
  m_GenerateMotionCurves: 0
  m_Events: []
