%YAML 1.1
%TAG !u! tag:unity3d.com,2011:
--- !u!114 &11400000
MonoBehaviour:
  m_ObjectHideFlags: 0
  m_PrefabParentObject: {fileID: 0}
  m_PrefabInternal: {fileID: 0}
  m_GameObject: {fileID: 0}
  m_Enabled: 1
  m_EditorHideFlags: 0
  m_Script: {fileID: 11500000, guid: b6c88e76926c9a64b92874e628e03a83, type: 3}
  m_Name: table_ui_hero
  m_EditorClassIdentifier: 
  m_Texture: {fileID: 2800000, guid: e1d714c1dc8444dc8bb021a03c86b54b, type: 3}
  m_Padding: 1
  m_MaxSize: 1024
  m_PackingMethod: 0
  m_DefaultPivot: 0
  m_DefaultCustomPivot: {x: .5, y: .5}
  m_Sprites:
  - source: {fileID: 21300000, guid: becebcab7455547608b61eb5b732becc, type: 3}
    targetSprite: {fileID: 21300016, guid: e1d714c1dc8444dc8bb021a03c86b54b, type: 3}
  - source: {fileID: 21300000, guid: 07dbc19ba11314e59acaca70a1e910e4, type: 3}
    targetSprite: {fileID: 21300004, guid: e1d714c1dc8444dc8bb021a03c86b54b, type: 3}
  - source: {fileID: 21300000, guid: ab450cbb15387464a9cb715f2ddd72f0, type: 3}
    targetSprite: {fileID: 21300050, guid: e1d714c1dc8444dc8bb021a03c86b54b, type: 3}
  - source: {fileID: 21300000, guid: 45e80e6c715dc4169b3c545d7807a843, type: 3}
    targetSprite: {fileID: 21300040, guid: e1d714c1dc8444dc8bb021a03c86b54b, type: 3}
  - source: {fileID: 21300000, guid: fa19eddb992bc4ba899e5d918bf8f07e, type: 3}
    targetSprite: {fileID: 21300002, guid: e1d714c1dc8444dc8bb021a03c86b54b, type: 3}
  - source: {fileID: 21300000, guid: aef6ac584e6334c3797416454d327e65, type: 3}
    targetSprite: {fileID: 21300058, guid: e1d714c1dc8444dc8bb021a03c86b54b, type: 3}
  - source: {fileID: 21300000, guid: e93e6f18f21dc4429bf226f830c984c5, type: 3}
    targetSprite: {fileID: 21300024, guid: e1d714c1dc8444dc8bb021a03c86b54b, type: 3}
  - source: {fileID: 21300000, guid: 81df09d886ebf44358a9e46a5ef42d33, type: 3}
    targetSprite: {fileID: 21300056, guid: e1d714c1dc8444dc8bb021a03c86b54b, type: 3}
  - source: {fileID: 21300000, guid: 20c9005befa2048e696907bf7c9ff903, type: 3}
    targetSprite: {fileID: 21300030, guid: e1d714c1dc8444dc8bb021a03c86b54b, type: 3}
  - source: {fileID: 21300000, guid: 78d54ea96a1724197a1f4c48a0b5ec49, type: 3}
    targetSprite: {fileID: 21300010, guid: e1d714c1dc8444dc8bb021a03c86b54b, type: 3}
  - source: {fileID: 21300000, guid: f26b3aec2712b49969817dcacb264fbf, type: 3}
    targetSprite: {fileID: 21300000, guid: e1d714c1dc8444dc8bb021a03c86b54b, type: 3}
  - source: {fileID: 21300000, guid: f3090cde296c84a71991b7d6f054ebbb, type: 3}
    targetSprite: {fileID: 21300052, guid: e1d714c1dc8444dc8bb021a03c86b54b, type: 3}
  - source: {fileID: 21300000, guid: 2384b37e5dc6b4460b4954ed92574661, type: 3}
    targetSprite: {fileID: 21300006, guid: e1d714c1dc8444dc8bb021a03c86b54b, type: 3}
  - source: {fileID: 21300000, guid: cce4ba8f444d742b4bcba9c93de9c41a, type: 3}
    targetSprite: {fileID: 21300014, guid: e1d714c1dc8444dc8bb021a03c86b54b, type: 3}
  - source: {fileID: 21300000, guid: 0c66a3cf7fd2c475095676f92151675f, type: 3}
    targetSprite: {fileID: 21300054, guid: e1d714c1dc8444dc8bb021a03c86b54b, type: 3}
  - source: {fileID: 21300000, guid: db2b639f4af33407a847b735054aacae, type: 3}
    targetSprite: {fileID: 21300008, guid: e1d714c1dc8444dc8bb021a03c86b54b, type: 3}
  - source: {fileID: 21300000, guid: 073826dd1f2d44e30bcb332ed5f2b0a7, type: 3}
    targetSprite: {fileID: 21300012, guid: e1d714c1dc8444dc8bb021a03c86b54b, type: 3}
  - source: {fileID: 21300000, guid: 203953fcf54544c04a261862ad3761e1, type: 3}
    targetSprite: {fileID: 21300032, guid: e1d714c1dc8444dc8bb021a03c86b54b, type: 3}
  - source: {fileID: 21300000, guid: 60ed06ed1404c4475ac6a09267f9cc4a, type: 3}
    targetSprite: {fileID: 21300026, guid: e1d714c1dc8444dc8bb021a03c86b54b, type: 3}
  - source: {fileID: 21300000, guid: a3eefc6e0e5ac4796a7037b267272219, type: 3}
    targetSprite: {fileID: 21300064, guid: e1d714c1dc8444dc8bb021a03c86b54b, type: 3}
  - source: {fileID: 21300000, guid: d329bafd3fab2425b8153eeeddf47500, type: 3}
    targetSprite: {fileID: 21300048, guid: e1d714c1dc8444dc8bb021a03c86b54b, type: 3}
  - source: {fileID: 21300000, guid: d1bc67a38e6a547d391d8548f603ae5e, type: 3}
    targetSprite: {fileID: 21300034, guid: e1d714c1dc8444dc8bb021a03c86b54b, type: 3}
  - source: {fileID: 21300000, guid: 6b8ed9f3b4c364d8aa8da097a7f2148d, type: 3}
    targetSprite: {fileID: 21300022, guid: e1d714c1dc8444dc8bb021a03c86b54b, type: 3}
  - source: {fileID: 21300000, guid: f282eb44a65ce4ba1ac42eb1ecc756a6, type: 3}
    targetSprite: {fileID: 21300062, guid: e1d714c1dc8444dc8bb021a03c86b54b, type: 3}
  - source: {fileID: 21300000, guid: 315965d117f6e433e9b80558c5d29a30, type: 3}
    targetSprite: {fileID: 21300036, guid: e1d714c1dc8444dc8bb021a03c86b54b, type: 3}
  - source: {fileID: 21300000, guid: 67594833d544e4bb096e1c53bcf22575, type: 3}
    targetSprite: {fileID: 21300028, guid: e1d714c1dc8444dc8bb021a03c86b54b, type: 3}
  - source: {fileID: 21300000, guid: e82353a3a24254d479d146320d023501, type: 3}
    targetSprite: {fileID: 21300018, guid: e1d714c1dc8444dc8bb021a03c86b54b, type: 3}
  - source: {fileID: 21300000, guid: 32fc7e84cb1374df3a4f0424c8bac6ac, type: 3}
    targetSprite: {fileID: 21300044, guid: e1d714c1dc8444dc8bb021a03c86b54b, type: 3}
  - source: {fileID: 21300000, guid: 6378818630e2c4c409f6d1acc92f217f, type: 3}
    targetSprite: {fileID: 21300046, guid: e1d714c1dc8444dc8bb021a03c86b54b, type: 3}
  - source: {fileID: 21300000, guid: d696d8087e1374cd2bbb4a80d50da223, type: 3}
    targetSprite: {fileID: 21300060, guid: e1d714c1dc8444dc8bb021a03c86b54b, type: 3}
  - source: {fileID: 21300000, guid: 6e576854ad65c44ebb0f010f427b30df, type: 3}
    targetSprite: {fileID: 21300042, guid: e1d714c1dc8444dc8bb021a03c86b54b, type: 3}
  - source: {fileID: 21300000, guid: 774cc764badce41ddb44318ba946735b, type: 3}
    targetSprite: {fileID: 21300020, guid: e1d714c1dc8444dc8bb021a03c86b54b, type: 3}
  - source: {fileID: 21300000, guid: 4ac45f74d09a94a879ba8acc6192b3a3, type: 3}
    targetSprite: {fileID: 21300038, guid: e1d714c1dc8444dc8bb021a03c86b54b, type: 3}
  - source: {fileID: 21300000, guid: 20f051afa5113437ca12776c111a0578, type: 3}
    targetSprite: {fileID: 21300070, guid: e1d714c1dc8444dc8bb021a03c86b54b, type: 3}
  - source: {fileID: 21300000, guid: 068a0887ec52d49d0bf85f0319e71729, type: 3}
    targetSprite: {fileID: 21300072, guid: e1d714c1dc8444dc8bb021a03c86b54b, type: 3}
  - source: {fileID: 21300000, guid: 65e029678ab2c466aa530b1997b9702a, type: 3}
    targetSprite: {fileID: 21300066, guid: e1d714c1dc8444dc8bb021a03c86b54b, type: 3}
  - source: {fileID: 21300000, guid: 8b29e80eef9134c18b003c752c7c6d9d, type: 3}
    targetSprite: {fileID: 21300068, guid: e1d714c1dc8444dc8bb021a03c86b54b, type: 3}
  - source: {fileID: 21300000, guid: 24afe2ebaa51342b1b37f7df380a9d25, type: 3}
    targetSprite: {fileID: 21300074, guid: e1d714c1dc8444dc8bb021a03c86b54b, type: 3}
  - source: {fileID: 21300000, guid: e200201afb7e84b9dbf453ea97d0dafd, type: 3}
    targetSprite: {fileID: 21300080, guid: e1d714c1dc8444dc8bb021a03c86b54b, type: 3}
  - source: {fileID: 21300000, guid: baca57aa930174ca19c119d37f38c02c, type: 3}
    targetSprite: {fileID: 21300082, guid: e1d714c1dc8444dc8bb021a03c86b54b, type: 3}
  - source: {fileID: 21300000, guid: faeb5e497374d4ab1bd5cf67eee9ba4c, type: 3}
    targetSprite: {fileID: 21300076, guid: e1d714c1dc8444dc8bb021a03c86b54b, type: 3}
  - source: {fileID: 21300000, guid: 27b23205eba1e4244bb4ae8772b4b0ca, type: 3}
    targetSprite: {fileID: 21300078, guid: e1d714c1dc8444dc8bb021a03c86b54b, type: 3}
  m_PendingActions: []
