%YAML 1.1
%TAG !u! tag:unity3d.com,2011:
--- !u!114 &11400000
MonoBehaviour:
  m_ObjectHideFlags: 0
  m_PrefabParentObject: {fileID: 0}
  m_PrefabInternal: {fileID: 0}
  m_GameObject: {fileID: 0}
  m_Enabled: 1
  m_EditorHideFlags: 0
  m_Script: {fileID: 11500000, guid: b6c88e76926c9a64b92874e628e03a83, type: 3}
  m_Name: overlay_icon_moeSpirit
  m_EditorClassIdentifier: 
  m_Texture: {fileID: 2800000, guid: d6f161e7c5ad7410d819a31b667f84c2, type: 3}
  m_Padding: 1
  m_MaxSize: 2048
  m_PackingMethod: 0
  m_DefaultPivot: 0
  m_DefaultCustomPivot: {x: 0.5, y: 0.5}
  m_Sprites:
  - source: {fileID: 2800000, guid: ab986d3197d001e4abeb8b8c444be3ec, type: 3}
    targetSprite: {fileID: 21300004, guid: d6f161e7c5ad7410d819a31b667f84c2, type: 3}
  - source: {fileID: 2800000, guid: 606a0ac0da331c34f968b66255d763c3, type: 3}
    targetSprite: {fileID: 21300002, guid: d6f161e7c5ad7410d819a31b667f84c2, type: 3}
  - source: {fileID: 2800000, guid: ac08543d442371446babafb4666c9550, type: 3}
    targetSprite: {fileID: 21300024, guid: d6f161e7c5ad7410d819a31b667f84c2, type: 3}
  - source: {fileID: 2800000, guid: 0c7a82d27f7fa6a4e9bee055847014df, type: 3}
    targetSprite: {fileID: 21300022, guid: d6f161e7c5ad7410d819a31b667f84c2, type: 3}
  - source: {fileID: 2800000, guid: c7250b764d2520f498ee17b452173e88, type: 3}
    targetSprite: {fileID: 21300012, guid: d6f161e7c5ad7410d819a31b667f84c2, type: 3}
  - source: {fileID: 2800000, guid: b800079542696024ca67d7e542e1d994, type: 3}
    targetSprite: {fileID: 21300010, guid: d6f161e7c5ad7410d819a31b667f84c2, type: 3}
  - source: {fileID: 2800000, guid: 1fd74d46708003241944a309bda5a93c, type: 3}
    targetSprite: {fileID: 21300000, guid: d6f161e7c5ad7410d819a31b667f84c2, type: 3}
  - source: {fileID: 2800000, guid: 0272d3772e5a03042a58e8530a8f882e, type: 3}
    targetSprite: {fileID: 21300006, guid: d6f161e7c5ad7410d819a31b667f84c2, type: 3}
  - source: {fileID: 21300000, guid: a8e931310f46f5944a3b04208e850f4a, type: 3}
    targetSprite: {fileID: 21300058, guid: d6f161e7c5ad7410d819a31b667f84c2, type: 3}
  - source: {fileID: 2800000, guid: fd9fac59302180a47b352b4403e87595, type: 3}
    targetSprite: {fileID: 21300018, guid: d6f161e7c5ad7410d819a31b667f84c2, type: 3}
  - source: {fileID: 21300000, guid: cf57a11275a7bce4396fe2046a9b9f3b, type: 3}
    targetSprite: {fileID: 21300060, guid: d6f161e7c5ad7410d819a31b667f84c2, type: 3}
  - source: {fileID: 21300000, guid: 426fdd7f93015e5468b96292e5f69511, type: 3}
    targetSprite: {fileID: 21300062, guid: d6f161e7c5ad7410d819a31b667f84c2, type: 3}
  - source: {fileID: 2800000, guid: ba6e8cf48990e8e49a78aca37e4803dc, type: 3}
    targetSprite: {fileID: 21300020, guid: d6f161e7c5ad7410d819a31b667f84c2, type: 3}
  - source: {fileID: 2800000, guid: 07e8dd4435acb8742b14e9bea055fd1b, type: 3}
    targetSprite: {fileID: 21300026, guid: d6f161e7c5ad7410d819a31b667f84c2, type: 3}
  - source: {fileID: 2800000, guid: 53bdd0f23e620fb40828088ade3893dd, type: 3}
    targetSprite: {fileID: 21300016, guid: d6f161e7c5ad7410d819a31b667f84c2, type: 3}
  - source: {fileID: 2800000, guid: 197863a743fe3744fbcb8f4299b5911a, type: 3}
    targetSprite: {fileID: 21300014, guid: d6f161e7c5ad7410d819a31b667f84c2, type: 3}
  - source: {fileID: 2800000, guid: a3df5639073be49429f359617cab3d69, type: 3}
    targetSprite: {fileID: 21300032, guid: d6f161e7c5ad7410d819a31b667f84c2, type: 3}
  - source: {fileID: 2800000, guid: a0c5d4d6dbe7dc04b9573a51d66efe1e, type: 3}
    targetSprite: {fileID: 21300030, guid: d6f161e7c5ad7410d819a31b667f84c2, type: 3}
  - source: {fileID: 2800000, guid: 09abb60309942744f90c0461f1fe3173, type: 3}
    targetSprite: {fileID: 21300052, guid: d6f161e7c5ad7410d819a31b667f84c2, type: 3}
  - source: {fileID: 2800000, guid: 443bf4e0006a7f7428fa8a6af78760c3, type: 3}
    targetSprite: {fileID: 21300034, guid: d6f161e7c5ad7410d819a31b667f84c2, type: 3}
  - source: {fileID: 2800000, guid: eb2126ba2c9809340ae02502268782c3, type: 3}
    targetSprite: {fileID: 21300040, guid: d6f161e7c5ad7410d819a31b667f84c2, type: 3}
  - source: {fileID: 2800000, guid: 8f8a64fd2af551844a6852dd2f80f985, type: 3}
    targetSprite: {fileID: 21300038, guid: d6f161e7c5ad7410d819a31b667f84c2, type: 3}
  - source: {fileID: 2800000, guid: 3ad66f76a2000c1419daa9ba636a5b9b, type: 3}
    targetSprite: {fileID: 21300036, guid: d6f161e7c5ad7410d819a31b667f84c2, type: 3}
  - source: {fileID: 2800000, guid: 4e085e2d88770ee429444b26623cd3a6, type: 3}
    targetSprite: {fileID: 21300042, guid: d6f161e7c5ad7410d819a31b667f84c2, type: 3}
  - source: {fileID: 2800000, guid: 207bc2370fa390f439e5cc24fd5c8c81, type: 3}
    targetSprite: {fileID: 21300048, guid: d6f161e7c5ad7410d819a31b667f84c2, type: 3}
  - source: {fileID: 2800000, guid: deedb94c1a789c9448bcbf4c8047bf4c, type: 3}
    targetSprite: {fileID: 21300046, guid: d6f161e7c5ad7410d819a31b667f84c2, type: 3}
  - source: {fileID: 2800000, guid: 4dabdd1d61b34f64a8f602a2245ee44a, type: 3}
    targetSprite: {fileID: 21300008, guid: d6f161e7c5ad7410d819a31b667f84c2, type: 3}
  - source: {fileID: 2800000, guid: 2fa6816eade33bf4992cc0e7325f771a, type: 3}
    targetSprite: {fileID: 21300028, guid: d6f161e7c5ad7410d819a31b667f84c2, type: 3}
  - source: {fileID: 2800000, guid: c06d56958d069a241a2d44685cc95e55, type: 3}
    targetSprite: {fileID: 21300056, guid: d6f161e7c5ad7410d819a31b667f84c2, type: 3}
  - source: {fileID: 2800000, guid: 395341307d3472641bfef3415be18dbf, type: 3}
    targetSprite: {fileID: 21300054, guid: d6f161e7c5ad7410d819a31b667f84c2, type: 3}
  - source: {fileID: 2800000, guid: e9653cf8dc2a5634a96e812ae1b24c30, type: 3}
    targetSprite: {fileID: 21300044, guid: d6f161e7c5ad7410d819a31b667f84c2, type: 3}
  - source: {fileID: 2800000, guid: 4a4e8561dd9392e44a844f692aba3719, type: 3}
    targetSprite: {fileID: 21300050, guid: d6f161e7c5ad7410d819a31b667f84c2, type: 3}
  m_PendingActions: []
