%YAML 1.1
%TAG !u! tag:unity3d.com,2011:
--- !u!114 &11400000
MonoBehaviour:
  m_ObjectHideFlags: 0
  m_PrefabParentObject: {fileID: 0}
  m_PrefabInternal: {fileID: 0}
  m_GameObject: {fileID: 0}
  m_Enabled: 1
  m_EditorHideFlags: 0
  m_Script: {fileID: 11500000, guid: b6c88e76926c9a64b92874e628e03a83, type: 3}
  m_Name: overlay_ui_settingMenu
  m_EditorClassIdentifier: 
  m_Texture: {fileID: 2800000, guid: 454df76520477474299855eb32462096, type: 3}
  m_Padding: 1
  m_MaxSize: 4096
  m_PackingMethod: 0
  m_DefaultPivot: 0
  m_DefaultCustomPivot: {x: 0.5, y: 0.5}
  m_Sprites:
  - source: {fileID: 21300000, guid: af64323b20c744b7fae9ac74dc849720, type: 3}
    targetSprite: {fileID: 21300000, guid: 454df76520477474299855eb32462096, type: 3}
  - source: {fileID: 21300000, guid: 3903aceeb4e1e4d5bb961eb78840e418, type: 3}
    targetSprite: {fileID: 21300002, guid: 454df76520477474299855eb32462096, type: 3}
  - source: {fileID: 21300000, guid: f743010f1f3784558bd776e951f287bb, type: 3}
    targetSprite: {fileID: 21300004, guid: 454df76520477474299855eb32462096, type: 3}
  - source: {fileID: 21300000, guid: 2520eefe823ec42108c88f5f5d176fdf, type: 3}
    targetSprite: {fileID: 21300008, guid: 454df76520477474299855eb32462096, type: 3}
  - source: {fileID: 21300000, guid: 6da94103489e4470c82bd23237075ad8, type: 3}
    targetSprite: {fileID: 21300010, guid: 454df76520477474299855eb32462096, type: 3}
  - source: {fileID: 21300000, guid: 7a6263a113f9d498a9d7adf575fece03, type: 3}
    targetSprite: {fileID: 21300012, guid: 454df76520477474299855eb32462096, type: 3}
  - source: {fileID: 21300000, guid: ab524624b23214d0aab9bc02452548de, type: 3}
    targetSprite: {fileID: 21300014, guid: 454df76520477474299855eb32462096, type: 3}
  - source: {fileID: 21300000, guid: 9605fbec505874d939aa1430d79db93d, type: 3}
    targetSprite: {fileID: 21300016, guid: 454df76520477474299855eb32462096, type: 3}
  - source: {fileID: 21300000, guid: 1c851d10a8cb74f43af5715177b39403, type: 3}
    targetSprite: {fileID: 21300018, guid: 454df76520477474299855eb32462096, type: 3}
  - source: {fileID: 21300000, guid: 5757f84da5f6d4950abb0408ed076721, type: 3}
    targetSprite: {fileID: 21300020, guid: 454df76520477474299855eb32462096, type: 3}
  - source: {fileID: 21300000, guid: 35939397426fd461b9025a551eea4fcc, type: 3}
    targetSprite: {fileID: 21300022, guid: 454df76520477474299855eb32462096, type: 3}
  - source: {fileID: 21300000, guid: 015b7ad1e114f49c89dac9b8fccf9b10, type: 3}
    targetSprite: {fileID: 21300024, guid: 454df76520477474299855eb32462096, type: 3}
  - source: {fileID: 21300000, guid: 18bd8d4ae66154ddf9b39ae351f7067b, type: 3}
    targetSprite: {fileID: 21300026, guid: 454df76520477474299855eb32462096, type: 3}
  m_PendingActions: []
